4 0.179688 0.813281 0.1 0.289062
4 0.669531 0.722656 0.0953125 0.101562
4 0.353125 0.73125 0.10625 0.09375
4 0.18125 0.7625 0.06875 0.1
1 0.791406 0.625781 0.0609375 0.0390625
3 0.799219 0.796094 0.164062 0.385938
1 0.669531 0.641406 0.0671875 0.0546875
4 0.803125 0.714063 0.128125 0.125
1 0.358594 0.658594 0.0515625 0.0453125
3 0.176563 0.823438 0.115625 0.31875
1 0.18125 0.692969 0.059375 0.0515625
3 0.674219 0.804688 0.132812 0.375
3 0.346094 0.810156 0.157813 0.348437
