1 0.865625 0.133594 0.053125 0.048438
1 0.110156 0.139063 0.054688 0.050000
3 0.114844 0.522656 0.189062 0.845313
4 0.113281 0.369531 0.126562 0.314063
4 0.860938 0.386719 0.146875 0.314063
3 0.862500 0.522656 0.190625 0.832812
