4 0.263281 0.578125 0.448437 0.643750
3 0.260156 0.499219 0.470313 0.964063
0 0.282031 0.079687 0.195312 0.146875
1 0.736719 0.060156 0.157812 0.082812
4 0.699219 0.566406 0.367188 0.623437
3 0.723437 0.500000 0.553125 0.984375
