3 0.467969 0.440625 0.173437 0.675000
3 0.611719 0.442969 0.179688 0.764062
1 0.471875 0.123438 0.059375 0.050000
3 0.760156 0.453906 0.154688 0.770312
1 0.743750 0.131250 0.065625 0.053125
1 0.608594 0.139844 0.076563 0.085938
4 0.471875 0.306250 0.090625 0.215625
4 0.617969 0.317188 0.098437 0.225000
4 0.763281 0.319531 0.098437 0.220312
