3 0.284375 0.731250 0.125000 0.370833
3 0.451562 0.712500 0.121875 0.408333
1 0.290625 0.579167 0.043750 0.066667
1 0.451562 0.537500 0.034375 0.058333
2 0.451562 0.637500 0.065625 0.150000
2 0.292187 0.677083 0.071875 0.129167
