3 0.404687 0.464583 0.159375 0.529167
3 0.562500 0.400000 0.206250 0.558333
1 0.376563 0.252083 0.053125 0.095833
1 0.504687 0.166667 0.053125 0.100000
2 0.529687 0.310417 0.090625 0.220833
2 0.396875 0.393750 0.100000 0.195833
