3 0.456250 0.700000 0.100000 0.341667
3 0.571875 0.687500 0.087500 0.308333
1 0.454688 0.558333 0.040625 0.066667
1 0.571875 0.562500 0.037500 0.058333
2 0.573438 0.641667 0.053125 0.116667
2 0.459375 0.643750 0.062500 0.129167
