3 0.342187 0.658333 0.071875 0.258333
3 0.481250 0.627083 0.087500 0.287500
1 0.335938 0.556250 0.028125 0.045833
1 0.470313 0.510417 0.028125 0.045833
2 0.476562 0.579167 0.046875 0.100000
2 0.335938 0.616667 0.046875 0.091667
