3 0.270313 0.616667 0.278125 0.766667
3 0.598437 0.643750 0.190625 0.704167
1 0.248438 0.304167 0.084375 0.133333
1 0.575000 0.364583 0.093750 0.129167
2 0.595313 0.575000 0.159375 0.275000
2 0.278125 0.564583 0.193750 0.370833
