3 0.100000 0.652083 0.150000 0.412500
3 0.260937 0.602083 0.134375 0.429167
2 0.089063 0.591667 0.078125 0.141667
2 0.245312 0.539583 0.084375 0.154167
1 0.232813 0.422917 0.053125 0.070833
1 0.081250 0.489583 0.043750 0.070833
