3 0.371875 0.458333 0.087500 0.308333
3 0.482812 0.466667 0.065625 0.283333
2 0.371875 0.412500 0.056250 0.116667
2 0.476562 0.422917 0.046875 0.104167
1 0.476562 0.352083 0.034375 0.045833
1 0.365625 0.325000 0.031250 0.050000
