3 0.253125 0.610417 0.281250 0.779167
3 0.867188 0.543750 0.259375 0.912500
2 0.237500 0.556250 0.187500 0.312500
2 0.870313 0.395833 0.171875 0.300000
1 0.864062 0.175000 0.090625 0.166667
1 0.212500 0.314583 0.106250 0.170833
