3 0.320312 0.731250 0.084375 0.287500
3 0.457813 0.722917 0.090625 0.312500
2 0.320312 0.697917 0.053125 0.095833
2 0.456250 0.675000 0.050000 0.108333
1 0.451562 0.595833 0.028125 0.050000
1 0.320312 0.625000 0.034375 0.058333
