3 0.262500 0.608333 0.306250 0.775000
3 0.604688 0.643750 0.253125 0.712500
2 0.267188 0.562500 0.190625 0.375000
2 0.593750 0.602083 0.162500 0.304167
1 0.582812 0.372917 0.090625 0.145833
1 0.254688 0.291667 0.090625 0.150000
