3 0.365625 0.625000 0.218750 0.750000
3 0.618750 0.618750 0.175000 0.670833
1 0.368750 0.312500 0.062500 0.116667
1 0.603125 0.356250 0.075000 0.120833
2 0.610938 0.520833 0.115625 0.233333
2 0.365625 0.495833 0.131250 0.250000
