3 0.257812 0.560417 0.134375 0.479167
3 0.360938 0.493750 0.159375 0.495833
1 0.248438 0.358333 0.053125 0.075000
1 0.320312 0.291667 0.040625 0.083333
2 0.342187 0.422917 0.103125 0.204167
2 0.246875 0.483333 0.075000 0.175000
