3 0.115625 0.708333 0.225000 0.583333
3 0.429688 0.656250 0.253125 0.687500
1 0.109375 0.485417 0.075000 0.129167
1 0.418750 0.385417 0.075000 0.129167
2 0.421875 0.583333 0.150000 0.291667
2 0.118750 0.685417 0.150000 0.270833
