3 0.331250 0.633333 0.087500 0.333333
3 0.467187 0.604167 0.115625 0.358333
2 0.329688 0.583333 0.059375 0.108333
2 0.465625 0.541667 0.062500 0.125000
1 0.457813 0.454167 0.034375 0.058333
1 0.323437 0.495833 0.040625 0.066667
