3 0.362500 0.691667 0.187500 0.616667
3 0.576562 0.689583 0.178125 0.529167
2 0.362500 0.606250 0.106250 0.237500
2 0.576562 0.618750 0.103125 0.195833
1 0.570312 0.472917 0.059375 0.104167
1 0.359375 0.445833 0.056250 0.100000
