3 0.275000 0.737500 0.100000 0.350000
3 0.421875 0.716667 0.106250 0.358333
1 0.275000 0.595833 0.037500 0.058333
1 0.409375 0.564583 0.031250 0.062500
2 0.415625 0.656250 0.056250 0.137500
2 0.275000 0.683333 0.056250 0.116667
