3 0.359375 0.685417 0.087500 0.320833
3 0.492188 0.664583 0.109375 0.362500
1 0.353125 0.554167 0.037500 0.050000
1 0.485938 0.508333 0.034375 0.050000
2 0.492188 0.593750 0.059375 0.120833
2 0.356250 0.633333 0.062500 0.116667
