3 0.126562 0.800000 0.128125 0.400000
3 0.300000 0.779167 0.150000 0.441667
1 0.118750 0.635417 0.050000 0.079167
1 0.292187 0.593750 0.040625 0.070833
2 0.292187 0.714583 0.084375 0.162500
2 0.125000 0.745833 0.087500 0.150000
