3 0.057813 0.802083 0.109375 0.395833
3 0.259375 0.775000 0.181250 0.450000
1 0.029687 0.660417 0.053125 0.095833
1 0.253125 0.595833 0.050000 0.091667
2 0.257812 0.741667 0.096875 0.200000
2 0.042188 0.812500 0.078125 0.200000
