2 0.287240 0.951852 0.154688 0.096296
3 0.288542 0.887500 0.180208 0.219444
0 0.326042 0.142130 0.026042 0.041667
0 0.429948 0.129630 0.026562 0.037037
2 0.314323 0.202778 0.034896 0.085185
0 0.240885 0.829167 0.067187 0.091667
3 0.319792 0.252315 0.059375 0.269444
3 0.439323 0.239815 0.055729 0.262963
2 0.440365 0.193056 0.032813 0.082407
