0 0.415365 0.130556 0.024479 0.038889
0 0.352865 0.141204 0.024479 0.032407
2 0.429688 0.193056 0.032292 0.080556
3 0.434896 0.243056 0.070833 0.249074
3 0.357812 0.256944 0.070833 0.293519
2 0.355990 0.215741 0.045312 0.100000
