0 0.338021 0.140741 0.023958 0.038889
0 0.427865 0.127778 0.024479 0.033333
2 0.435417 0.195833 0.039583 0.095370
3 0.438021 0.240278 0.066667 0.269444
3 0.351042 0.261111 0.079167 0.292593
2 0.343490 0.217130 0.046354 0.102778
