2 0.497135 0.828704 0.0994792 0.17963
3 0.492188 0.809259 0.15625 0.381481
3 0.365885 0.258796 0.0473958 0.29537
0 0.400521 0.15787 0.0229167 0.037963
0 0.364323 0.139352 0.0234375 0.0435185
2 0.40026 0.230093 0.0328125 0.0898148
3 0.413281 0.275926 0.0713542 0.285185
0 0.522396 0.706481 0.0708333 0.140741
2 0.366927 0.209722 0.0401042 0.0990741
