2 0.265365 0.925000 0.139063 0.150000
2 0.314844 0.206019 0.035937 0.093519
0 0.328646 0.145833 0.028125 0.045370
0 0.429948 0.129630 0.027604 0.038889
3 0.271615 0.869444 0.168229 0.259259
0 0.222396 0.784259 0.067708 0.083333
3 0.321615 0.250926 0.061979 0.281481
2 0.439583 0.190278 0.033333 0.082407
3 0.436719 0.237037 0.059896 0.266667
