3 0.322396 0.893056 0.208333 0.212037
0 0.320312 0.138426 0.027083 0.041667
0 0.300521 0.850463 0.075000 0.106481
0 0.451562 0.139352 0.021875 0.039815
3 0.320312 0.253241 0.055208 0.287963
2 0.318490 0.210185 0.033854 0.094444
2 0.462240 0.197685 0.029687 0.080556
3 0.459115 0.244907 0.049479 0.247222
4 0.314323 0.975926 0.085938 0.048148
