0 0.322135 0.137037 0.026562 0.042593
3 0.278646 0.867593 0.164583 0.264815
2 0.272396 0.924074 0.142708 0.151852
2 0.319271 0.206944 0.032292 0.097222
0 0.424740 0.126389 0.024479 0.041667
2 0.432812 0.189815 0.036458 0.083333
3 0.323437 0.256019 0.051042 0.286111
0 0.239323 0.774537 0.068229 0.082407
3 0.432812 0.233333 0.061458 0.274074
