0 0.309115 0.139815 0.024479 0.042593
2 0.312760 0.208796 0.032813 0.102778
3 0.318490 0.255556 0.054688 0.275926
0 0.374740 0.020370 0.024479 0.037037
2 0.400000 0.048611 0.031250 0.056481
3 0.396094 0.107870 0.068229 0.213889
