4 0.226042 0.875926 0.127083 0.237037
0 0.422656 0.098611 0.024479 0.043519
2 0.427344 0.156019 0.027604 0.071296
0 0.311719 0.136111 0.025521 0.042593
3 0.426042 0.208796 0.051042 0.267593
3 0.213542 0.852315 0.161458 0.295370
2 0.314323 0.206019 0.033854 0.100926
3 0.319792 0.252778 0.059375 0.283333
0 0.155469 0.746296 0.061979 0.107407
