0 0.305208 0.144444 0.022917 0.044444
3 0.055469 0.818056 0.109896 0.362037
4 0.048177 0.865278 0.084896 0.230556
2 0.314583 0.209259 0.034375 0.101852
3 0.320573 0.254167 0.057813 0.282407
0 0.020052 0.713426 0.039062 0.106481
2 0.412240 0.116204 0.029687 0.071296
0 0.412760 0.056944 0.023438 0.047222
3 0.401562 0.166667 0.070833 0.257407
