2 0.513542 0.850463 0.101042 0.187963
0 0.419271 0.153704 0.023958 0.038889
3 0.507292 0.820370 0.145833 0.333333
3 0.422917 0.277315 0.064583 0.287963
0 0.364844 0.138889 0.023438 0.042593
2 0.414323 0.230093 0.038021 0.106481
3 0.366406 0.260185 0.052604 0.272222
0 0.535417 0.724074 0.070833 0.142593
2 0.368490 0.209722 0.043229 0.102778
