3 0.282813 0.917593 0.184375 0.164815
0 0.260417 0.891667 0.076042 0.111111
0 0.457292 0.131481 0.025000 0.035185
0 0.324740 0.139815 0.026562 0.037037
3 0.321094 0.255556 0.059896 0.281481
2 0.314063 0.205093 0.034375 0.089815
3 0.460417 0.243519 0.048958 0.268519
2 0.461719 0.201389 0.031771 0.080556
