0 0.447396 0.130093 0.020833 0.032407
0 0.326562 0.143056 0.022917 0.034259
2 0.453646 0.188426 0.032292 0.082407
3 0.331510 0.255556 0.057813 0.268519
3 0.449740 0.239352 0.053646 0.249074
2 0.332292 0.206481 0.041667 0.096296
