0 0.429167 0.129167 0.026042 0.037963
0 0.329948 0.150463 0.028646 0.049074
3 0.282292 0.876389 0.177083 0.243519
2 0.312240 0.201852 0.034896 0.083333
0 0.228646 0.810185 0.066667 0.092593
3 0.321094 0.253241 0.064062 0.276852
2 0.439844 0.191204 0.033854 0.082407
3 0.435937 0.237037 0.060417 0.266667
4 0.261979 0.937037 0.088542 0.125926
