0 0.305469 0.136111 0.022396 0.044444
2 0.421094 0.143981 0.034896 0.089815
4 0.166667 0.818981 0.105208 0.217593
0 0.408073 0.084722 0.025521 0.039815
3 0.418490 0.195370 0.057813 0.251852
3 0.149740 0.821759 0.154688 0.356481
0 0.097917 0.717593 0.055208 0.114815
2 0.314844 0.206944 0.032813 0.100926
3 0.320573 0.254630 0.055729 0.279630
