2 0.439583 0.238426 0.057292 0.267593
0 0.434635 0.127778 0.023438 0.037037
2 0.325521 0.208796 0.034375 0.099074
2 0.281250 0.927315 0.137500 0.145370
3 0.285417 0.868056 0.161458 0.262037
3 0.326823 0.261574 0.052604 0.282407
0 0.251042 0.780093 0.068750 0.082407
2 0.440365 0.189815 0.034896 0.083333
3 0.440365 0.239352 0.058854 0.256481
