3 0.285938 0.889815 0.173958 0.220370
0 0.328125 0.143056 0.028125 0.045370
0 0.429688 0.129630 0.027083 0.037037
2 0.314323 0.203241 0.034896 0.084259
0 0.239583 0.831944 0.069792 0.093519
3 0.320312 0.254630 0.060417 0.270370
2 0.439583 0.192593 0.033333 0.083333
3 0.438281 0.239352 0.055729 0.263889
