0 0.348438 0.138889 0.026042 0.038889
0 0.427865 0.137500 0.023438 0.032407
3 0.435417 0.250463 0.054167 0.256481
2 0.437240 0.205556 0.039062 0.087037
3 0.359115 0.254167 0.070312 0.291667
2 0.352865 0.214815 0.047396 0.103704
0 0.513021 0.868519 0.075000 0.157407
2 0.526563 0.942130 0.114583 0.115741
3 0.530469 0.894907 0.152604 0.210185
