0 0.332813 0.139815 0.025000 0.040741
0 0.428646 0.129630 0.023958 0.033333
3 0.433073 0.243056 0.055729 0.273148
2 0.436719 0.198148 0.036979 0.081481
3 0.342969 0.255556 0.059896 0.264815
2 0.343490 0.208333 0.045312 0.101852
