2 0.428646 0.186111 0.042708 0.090741
0 0.314583 0.138426 0.023958 0.039815
0 0.419792 0.116667 0.027083 0.042593
2 0.263542 0.919444 0.132292 0.159259
2 0.314063 0.207407 0.033333 0.101852
3 0.265625 0.860648 0.156250 0.275000
3 0.319792 0.253241 0.058333 0.280556
3 0.427865 0.227778 0.067187 0.283333
0 0.222135 0.776389 0.069271 0.106481
