0 0.329688 0.148148 0.029167 0.048148
2 0.314583 0.206019 0.036458 0.093519
2 0.268490 0.926852 0.143229 0.146296
0 0.429948 0.129630 0.026562 0.038889
3 0.273698 0.870370 0.172396 0.257407
0 0.222135 0.790741 0.067187 0.088889
3 0.321615 0.250926 0.064062 0.281481
2 0.440365 0.190741 0.033854 0.081481
3 0.436719 0.237500 0.060937 0.267593
