3 0.411458 0.131944 0.047917 0.232407
0 0.397135 0.025463 0.025521 0.043519
0 0.308073 0.143056 0.025521 0.045370
2 0.314063 0.208796 0.033333 0.100926
3 0.320312 0.255556 0.057292 0.277778
2 0.411198 0.079630 0.029687 0.061111
