0 0.335938 0.136111 0.025000 0.040741
0 0.421094 0.130556 0.024479 0.037037
3 0.428646 0.240741 0.057292 0.266667
3 0.343490 0.256019 0.060937 0.275000
2 0.342969 0.207407 0.046354 0.103704
2 0.432812 0.194444 0.037500 0.083333
