2 0.267188 0.922222 0.138542 0.155556
0 0.323698 0.137963 0.027604 0.037037
2 0.318490 0.209259 0.032813 0.098148
3 0.269271 0.864815 0.156250 0.261111
3 0.322917 0.256019 0.052083 0.284259
2 0.433333 0.196759 0.039583 0.084259
0 0.426042 0.129630 0.026042 0.040741
0 0.230469 0.776389 0.068229 0.078704
3 0.435417 0.237037 0.060417 0.268519
