3 0.278906 0.677344 0.060937 0.232813
4 0.284375 0.644531 0.043750 0.079687
3 0.710938 0.542188 0.340625 0.890625
1 0.707812 0.160156 0.143750 0.110937
2 0.705469 0.607812 0.251563 0.509375
1 0.282813 0.589063 0.021875 0.034375
