3 0.766406 0.639844 0.129688 0.629687
4 0.166406 0.378906 0.129688 0.304688
3 0.160156 0.467187 0.192188 0.771875
0 0.785156 0.398438 0.067187 0.093750
0 0.172656 0.148438 0.076563 0.103125
0 0.314844 0.250781 0.054688 0.082812
0 0.399219 0.267188 0.042188 0.053125
0 0.481250 0.225781 0.056250 0.095312
0 0.535156 0.263281 0.045312 0.067187
0 0.602344 0.296094 0.051562 0.085938
3 0.311719 0.507812 0.114062 0.584375
3 0.471875 0.499219 0.100000 0.626563
3 0.589063 0.499219 0.087500 0.489063
4 0.771094 0.578125 0.095312 0.259375
4 0.316406 0.451562 0.110937 0.256250
4 0.395313 0.409375 0.068750 0.181250
4 0.471094 0.408594 0.095312 0.245312
4 0.593750 0.432031 0.084375 0.210938
