4 0.255469 0.346094 0.082812 0.167187
3 0.616406 0.414844 0.085938 0.395313
0 0.612500 0.260156 0.040625 0.051562
0 0.257031 0.207813 0.035937 0.040625
3 0.256250 0.400000 0.100000 0.406250
4 0.363281 0.342969 0.048438 0.129688
4 0.435937 0.353906 0.050000 0.110937
4 0.500000 0.381250 0.046875 0.112500
4 0.547656 0.332031 0.051562 0.117188
4 0.614062 0.377344 0.059375 0.142187
3 0.362500 0.383594 0.059375 0.320312
3 0.434375 0.394531 0.053125 0.279687
3 0.498437 0.405469 0.050000 0.260937
3 0.549219 0.389844 0.054688 0.360938
0 0.373437 0.249219 0.034375 0.054688
0 0.435156 0.278906 0.035937 0.048438
0 0.545312 0.225000 0.037500 0.056250
