3 0.885938 0.556471 0.221875 0.854118
2 0.890625 0.594118 0.215625 0.698824
1 0.702344 0.250588 0.098437 0.096471
3 0.706250 0.592941 0.200000 0.800000
2 0.712500 0.503529 0.153125 0.343529
1 0.867188 0.183529 0.159375 0.150588
