1 0.574268 0.176563 0.265690 0.156250
3 0.251046 0.533594 0.497908 0.932813
3 0.635983 0.542969 0.682008 0.910937
1 0.304393 0.183594 0.324268 0.167187
2 0.709205 0.699219 0.564854 0.560937
2 0.209205 0.684375 0.414226 0.615625
