0 0.747908 0.377344 0.073222 0.085938
3 0.797071 0.117969 0.087866 0.076563
3 0.448745 0.025781 0.081590 0.048438
3 0.785565 0.358594 0.232218 0.389062
3 0.553347 0.028906 0.123431 0.054688
1 0.752092 0.181250 0.085774 0.043750
2 0.374477 0.452344 0.167364 0.170313
3 0.618201 0.418750 0.303347 0.334375
1 0.417364 0.321094 0.106695 0.064062
3 0.368201 0.500000 0.221757 0.406250
0 0.652720 0.303906 0.108787 0.079687
2 0.785565 0.316406 0.169456 0.164062
2 0.543933 0.178906 0.079498 0.098437
3 0.543933 0.205469 0.087866 0.192188
