3 0.127344 0.375267 0.123438 0.336887
1 0.013281 0.242004 0.020313 0.040512
2 0.121875 0.401919 0.100000 0.249467
3 0.565625 0.402985 0.150000 0.528785
1 0.130469 0.238806 0.070312 0.098081
3 0.714844 0.412580 0.182812 0.671642
3 0.439844 0.411514 0.192188 0.567164
2 0.440625 0.434968 0.171875 0.319829
1 0.877344 0.163113 0.051562 0.057569
2 0.565625 0.401919 0.150000 0.368870
3 0.280469 0.411514 0.151562 0.511727
1 0.283594 0.216418 0.092188 0.087420
2 0.715625 0.332623 0.143750 0.285714
1 0.442969 0.163113 0.089063 0.095949
1 0.661719 0.089552 0.101562 0.106610
2 0.286719 0.444563 0.129688 0.270789
1 0.549219 0.133262 0.085938 0.091684
2 0.868750 0.365672 0.131250 0.257996
3 0.869531 0.381663 0.126562 0.477612
1 0.067969 0.257996 0.035937 0.059701
2 0.021875 0.299574 0.040625 0.066098
2 0.057813 0.345416 0.053125 0.115139
1 0.376563 0.244136 0.028125 0.036247
3 0.057813 0.385928 0.059375 0.319829
