2 0.512500 0.390845 0.162500 0.251174
2 0.200000 0.549296 0.234375 0.347418
1 0.433594 0.282864 0.079687 0.105634
1 0.284375 0.333333 0.109375 0.112676
1 0.718750 0.127934 0.062500 0.105634
3 0.264844 0.625587 0.435937 0.744131
3 0.523438 0.512911 0.228125 0.612676
1 0.717969 0.133803 0.060937 0.098592
1 0.578125 0.258216 0.068750 0.112676
3 0.693750 0.430751 0.171875 0.673709
2 0.690625 0.282864 0.115625 0.246479
