3 0.245000 0.550532 0.334000 0.893617
2 0.548000 0.539894 0.276000 0.393617
2 0.248000 0.614362 0.300000 0.526596
1 0.546000 0.176862 0.116000 0.114362
1 0.243000 0.196809 0.218000 0.207447
3 0.612000 0.565160 0.408000 0.869681
