3 0.484375 0.135417 0.115625 0.266667
3 0.933594 0.117708 0.060937 0.231250
3 0.076563 0.180208 0.078125 0.277083
3 0.953125 0.185417 0.090625 0.158333
1 0.964844 0.117708 0.048438 0.031250
2 0.971875 0.192708 0.056250 0.068750
3 0.655469 0.154167 0.026562 0.050000
3 0.712500 0.151042 0.037500 0.064583
3 0.689063 0.155208 0.037500 0.056250
1 0.683594 0.139583 0.017188 0.025000
1 0.656250 0.141667 0.015625 0.020833
1 0.711719 0.133333 0.014063 0.025000
2 0.708594 0.157292 0.023438 0.039583
2 0.683594 0.165625 0.023438 0.031250
2 0.655469 0.168750 0.020313 0.025000
2 0.067969 0.135417 0.054688 0.116667
1 0.080469 0.058333 0.026562 0.025000
