2 0.152344 0.368852 0.114063 0.222482
2 0.274219 0.362998 0.0765625 0.12178
0 0.289062 0.270492 0.05 0.0538642
0 0.577344 0.209602 0.0453125 0.0632318
2 0.579687 0.319672 0.0875 0.142857
3 0.588281 0.396955 0.229687 0.442623
3 0.150781 0.408665 0.135937 0.405152
3 0.278125 0.392272 0.140625 0.316159
