3 0.422917 0.631250 0.400000 0.734375
2 0.431250 0.557813 0.291667 0.287500
3 0.700000 0.640625 0.395833 0.715625
2 0.693750 0.531250 0.270833 0.206250
1 0.468750 0.309375 0.112500 0.065625
1 0.691667 0.340625 0.154167 0.106250
3 0.033333 0.457031 0.058333 0.164062
2 0.025000 0.424219 0.041667 0.054688
1 0.039583 0.385156 0.029167 0.026562
