3 0.707014 0.509000 0.545249 0.982000
2 0.203620 0.617000 0.398190 0.698000
3 0.209276 0.567000 0.414027 0.866000
0 0.299774 0.192000 0.183258 0.108000
0 0.666290 0.070000 0.205882 0.104000
2 0.652715 0.536000 0.328054 0.508000
