2 0.561719 0.510539 0.120312 0.220141
3 0.571875 0.614754 0.165625 0.751756
1 0.294531 0.217799 0.0921875 0.0983607
0 0.483594 0.533958 0.0984375 0.103044
3 0.482031 0.729508 0.204688 0.503513
2 0.273438 0.435597 0.159375 0.30445
2 0.471875 0.766979 0.18125 0.358314
0 0.600781 0.30445 0.0890625 0.107728
3 0.260156 0.58548 0.232812 0.82904
