3 0.314844 0.628125 0.626563 0.743750
1 0.190625 0.336458 0.118750 0.143750
3 0.760156 0.553125 0.157812 0.235417
1 0.781250 0.494792 0.087500 0.097917
2 0.245312 0.563542 0.259375 0.264583
2 0.768750 0.615625 0.125000 0.118750
