3 0.783594 0.527580 0.407813 0.905694
1 0.105469 0.364769 0.151562 0.120996
3 0.187500 0.658363 0.371875 0.683274
2 0.784375 0.561388 0.350000 0.514235
1 0.737500 0.150356 0.200000 0.144128
1 0.228125 0.489324 0.093750 0.078292
3 0.328125 0.212633 0.015625 0.023132
1 0.250781 0.218861 0.017188 0.017794
