3 0.792969 0.397917 0.170313 0.400000
2 0.580469 0.472917 0.239063 0.320833
2 0.038281 0.497917 0.073438 0.279167
3 0.562500 0.375000 0.293750 0.462500
1 0.792969 0.270833 0.107813 0.100000
1 0.038281 0.268750 0.073438 0.154167
3 0.062500 0.417708 0.121875 0.493750
1 0.573438 0.195833 0.096875 0.100000
2 0.789062 0.417708 0.140625 0.147917
1 0.892969 0.342708 0.057813 0.089583
