3 0.735000 0.583777 0.218000 0.481383
2 0.950000 0.742021 0.100000 0.345745
3 0.938000 0.687500 0.124000 0.545213
2 0.760000 0.570479 0.140000 0.242021
1 0.737000 0.408245 0.082000 0.087766
1 0.491000 0.341755 0.058000 0.093085
1 0.976000 0.921543 0.044000 0.156915
