0 0.148438 0.622664 0.018750 0.025701
3 0.015625 0.821262 0.028125 0.329439
4 0.156250 0.681075 0.034375 0.086449
2 0.066406 0.686916 0.042188 0.098131
3 0.152344 0.707944 0.045312 0.210280
3 0.066406 0.718458 0.051562 0.250000
1 0.072656 0.617991 0.020313 0.030374
