3 0.411885 0.514062 0.561475 0.693750
3 0.644467 0.487500 0.383197 0.650000
1 0.615779 0.234375 0.125000 0.096875
2 0.649590 0.371094 0.217213 0.182812
2 0.368852 0.433594 0.172131 0.201563
1 0.375000 0.291406 0.106557 0.042188
