0 0.364583 0.207870 0.021875 0.034259
1 0.427865 0.245370 0.018229 0.035185
3 0.241667 0.242130 0.028125 0.145370
1 0.364583 0.209722 0.021875 0.036111
1 0.696094 0.406019 0.029687 0.056481
3 0.174479 0.249537 0.027083 0.128704
3 0.512500 0.098611 0.016667 0.080556
1 0.170833 0.196759 0.010417 0.023148
2 0.173958 0.229167 0.019792 0.047222
2 0.677344 0.502315 0.051562 0.141667
2 0.367708 0.280556 0.040625 0.107407
0 0.272656 0.270370 0.029687 0.038889
2 0.278646 0.370370 0.048958 0.133333
4 0.437240 0.322222 0.036979 0.114815
3 0.369010 0.329167 0.055729 0.276852
3 0.672135 0.561574 0.070312 0.360185
3 0.285938 0.410185 0.065625 0.318519
3 0.436979 0.376389 0.048958 0.317593
1 0.234375 0.184259 0.011458 0.027778
2 0.239583 0.208333 0.021875 0.046296
2 0.513281 0.087037 0.010937 0.033333
1 0.514844 0.063889 0.006771 0.011111
