3 0.242448 0.120370 0.013021 0.064815
2 0.129167 0.241204 0.014583 0.039815
3 0.129688 0.254630 0.017708 0.105556
1 0.126042 0.209259 0.009375 0.020370
1 0.430990 0.242593 0.020313 0.044444
1 0.364583 0.215278 0.021875 0.041667
2 0.337760 0.387500 0.060937 0.152778
3 0.338281 0.418981 0.076563 0.350926
0 0.329948 0.281019 0.032813 0.045370
4 0.437240 0.318981 0.034896 0.112037
3 0.436458 0.378241 0.051042 0.306481
2 0.366146 0.283796 0.040625 0.115741
3 0.367448 0.332407 0.055729 0.277778
2 0.240885 0.110648 0.007812 0.023148
3 0.257812 0.104167 0.012500 0.058333
4 0.256510 0.095370 0.009896 0.018519
3 0.248698 0.088426 0.006771 0.045370
