3 0.935937 0.840278 0.117708 0.319444
3 0.500781 0.096759 0.015104 0.080556
2 0.523438 0.082407 0.013542 0.031481
1 0.231510 0.193981 0.015104 0.026852
3 0.378646 0.346759 0.036458 0.300926
2 0.240885 0.228704 0.026562 0.066667
3 0.175000 0.249074 0.023958 0.125926
1 0.171615 0.195370 0.009896 0.020370
1 0.967708 0.729630 0.035417 0.083333
3 0.522396 0.094444 0.016667 0.081481
2 0.377083 0.283333 0.030208 0.116667
2 0.173437 0.229167 0.019792 0.045370
3 0.240365 0.267130 0.033854 0.175000
1 0.430208 0.245833 0.020833 0.041667
0 0.342187 0.254630 0.028125 0.042593
1 0.366146 0.210648 0.022917 0.032407
3 0.347396 0.390278 0.067708 0.325000
4 0.438542 0.324074 0.034375 0.109259
2 0.343490 0.350000 0.051562 0.135185
3 0.437760 0.373148 0.048438 0.314815
2 0.193490 0.126389 0.010937 0.019444
3 0.193229 0.141667 0.016667 0.057407
1 0.523698 0.059722 0.005729 0.010185
0 0.501563 0.061574 0.007292 0.010185
4 0.501042 0.079630 0.012500 0.025926
2 0.917708 0.844907 0.064583 0.195370
