1 0.630469 0.268981 0.020313 0.032407
4 0.439583 0.324537 0.035417 0.100926
1 0.363281 0.207870 0.023438 0.028704
2 0.624740 0.337500 0.041146 0.108333
2 0.366927 0.283796 0.036979 0.102778
3 0.439844 0.376389 0.046354 0.308333
3 0.625521 0.385648 0.054167 0.271296
2 0.263021 0.354167 0.048958 0.128704
3 0.369531 0.332870 0.053646 0.273148
3 0.268490 0.394907 0.069271 0.308333
0 0.252083 0.257870 0.025000 0.036111
1 0.431510 0.247685 0.020313 0.041667
1 0.493750 0.069907 0.007292 0.013889
2 0.491927 0.091204 0.011979 0.034259
3 0.492969 0.107407 0.013021 0.087037
1 0.170313 0.197222 0.009375 0.024074
1 0.192708 0.172685 0.008333 0.021296
0 0.224740 0.158796 0.011979 0.015741
2 0.227865 0.197222 0.014063 0.048148
2 0.194010 0.201389 0.016146 0.036111
2 0.173958 0.229630 0.016667 0.042593
3 0.175781 0.247685 0.021354 0.128704
3 0.195052 0.226852 0.022396 0.131481
3 0.226042 0.209722 0.020833 0.117593
