2 0.186719 0.130556 0.010937 0.025926
1 0.300000 0.200463 0.018750 0.028704
3 0.515365 0.077315 0.014063 0.067593
3 0.186458 0.140741 0.013542 0.066667
3 0.303385 0.268519 0.033854 0.161111
1 0.430469 0.246296 0.019271 0.042593
3 0.173437 0.247222 0.023958 0.124074
3 0.374740 0.329167 0.041146 0.250926
2 0.302865 0.243056 0.027604 0.063889
2 0.370312 0.276389 0.034375 0.104630
1 0.367188 0.208796 0.021875 0.034259
1 0.170833 0.193981 0.010417 0.019444
2 0.173437 0.228241 0.019792 0.047222
4 0.437500 0.323611 0.034375 0.106481
3 0.437240 0.376852 0.049479 0.311111
2 0.340885 0.352315 0.053646 0.141667
0 0.341406 0.252315 0.027604 0.039815
3 0.344271 0.389815 0.073958 0.325926
1 0.186198 0.112500 0.004687 0.010185
4 0.515885 0.066667 0.008854 0.022222
0 0.516927 0.050463 0.004687 0.006481
2 0.508854 0.061111 0.006250 0.018519
3 0.507812 0.073148 0.009375 0.055556
1 0.509115 0.048148 0.004687 0.007407
