2 0.133594 0.238889 0.014063 0.042593
3 0.178125 0.142593 0.012500 0.061111
1 0.129948 0.207870 0.009896 0.019444
3 0.133594 0.247222 0.017188 0.096296
3 0.273958 0.295370 0.043750 0.207407
1 0.273438 0.204630 0.018750 0.029630
1 0.432031 0.246296 0.019271 0.044444
2 0.372917 0.280556 0.032292 0.107407
1 0.368490 0.209722 0.023438 0.034259
3 0.374740 0.331481 0.041146 0.257407
2 0.273698 0.262037 0.033854 0.081481
0 0.347396 0.254630 0.028125 0.040741
4 0.437760 0.322685 0.034896 0.106481
3 0.437760 0.376389 0.048438 0.312037
2 0.346094 0.351389 0.051562 0.143519
3 0.348698 0.391667 0.067187 0.329630
2 0.177344 0.129630 0.005729 0.020370
