1 0.257812 0.084259 0.006250 0.009259
2 0.257552 0.101852 0.011979 0.024074
2 0.076302 0.260185 0.013021 0.037037
3 0.236458 0.112037 0.012500 0.064815
1 0.076823 0.231944 0.009896 0.019444
3 0.076042 0.269907 0.016667 0.097222
3 0.257812 0.109259 0.012500 0.061111
0 0.045052 0.469444 0.032813 0.059259
1 0.317448 0.256019 0.026562 0.045370
2 0.068490 0.600463 0.064062 0.169444
1 0.401823 0.368056 0.028646 0.058333
3 0.324479 0.397222 0.078125 0.329630
4 0.415885 0.474074 0.047396 0.144444
2 0.327344 0.342593 0.051562 0.129630
3 0.082552 0.649537 0.108854 0.419444
3 0.417187 0.531019 0.066667 0.384259
0 0.235156 0.083796 0.004687 0.006481
4 0.235937 0.100463 0.009375 0.019444
