3 0.306510 0.077778 0.008854 0.038889
2 0.304427 0.109722 0.008854 0.023148
3 0.280469 0.082407 0.009896 0.044444
2 0.129948 0.242130 0.014063 0.037963
1 0.125781 0.213426 0.008854 0.019444
3 0.305469 0.125926 0.014063 0.077778
3 0.130208 0.255556 0.018750 0.105556
1 0.367448 0.220833 0.019271 0.049074
2 0.346615 0.381019 0.060937 0.158333
1 0.431771 0.242593 0.018750 0.046296
4 0.438021 0.319444 0.034375 0.111111
0 0.340365 0.272222 0.029687 0.044444
2 0.370312 0.282870 0.037500 0.110185
3 0.368750 0.332407 0.052083 0.270370
3 0.342448 0.426389 0.065104 0.358333
3 0.437240 0.379167 0.051562 0.304630
2 0.281771 0.078241 0.006250 0.021296
1 0.280990 0.064815 0.004687 0.007407
0 0.304427 0.061111 0.004687 0.003704
1 0.301563 0.091667 0.005208 0.009259
