3 0.279687 0.082407 0.011458 0.044444
2 0.128646 0.238426 0.014583 0.037963
3 0.302344 0.123611 0.019271 0.076852
1 0.126562 0.212037 0.009375 0.018519
3 0.129948 0.256481 0.018229 0.105556
1 0.430990 0.243056 0.020313 0.045370
2 0.346615 0.381019 0.060937 0.158333
1 0.366406 0.220833 0.018229 0.052778
4 0.437760 0.318981 0.033854 0.112037
0 0.340365 0.271296 0.029687 0.044444
2 0.369792 0.283333 0.037500 0.111111
3 0.369010 0.331944 0.052604 0.267593
3 0.341927 0.425926 0.064062 0.359259
3 0.437500 0.378704 0.052083 0.307407
1 0.279948 0.064352 0.003646 0.006481
2 0.281510 0.080093 0.006771 0.021296
0 0.303906 0.061574 0.005729 0.004630
3 0.307552 0.079167 0.015104 0.041667
1 0.300260 0.093981 0.006771 0.015741
2 0.302865 0.110185 0.010937 0.022222
