2 0.259115 0.100000 0.009896 0.027778
3 0.240365 0.111111 0.010937 0.066667
3 0.259896 0.112500 0.013542 0.065741
1 0.110417 0.217593 0.009375 0.018519
2 0.116927 0.245833 0.015104 0.043519
1 0.369271 0.212963 0.023958 0.035185
1 0.425000 0.268519 0.021875 0.042593
3 0.119792 0.259259 0.028125 0.101852
0 0.204687 0.325463 0.032292 0.047222
2 0.370312 0.287963 0.045833 0.107407
4 0.432292 0.348611 0.036458 0.112037
3 0.369531 0.333333 0.063021 0.281481
3 0.432812 0.399537 0.050000 0.308333
3 0.219271 0.476852 0.080208 0.359259
2 0.213542 0.437037 0.063542 0.159259
4 0.239844 0.099537 0.009896 0.021296
