2 0.259115 0.101389 0.009896 0.028704
2 0.129167 0.240741 0.013542 0.038889
3 0.259896 0.108333 0.014583 0.068519
1 0.125781 0.210185 0.008854 0.020370
3 0.129948 0.253704 0.017188 0.103704
1 0.415365 0.254167 0.020313 0.043519
1 0.365365 0.206481 0.023438 0.035185
0 0.300781 0.280556 0.031771 0.044444
2 0.367969 0.282407 0.044271 0.114815
3 0.366406 0.329630 0.055729 0.277778
3 0.300521 0.419907 0.077083 0.332407
2 0.298438 0.387037 0.061458 0.148148
4 0.423438 0.334722 0.037500 0.119444
3 0.424740 0.390741 0.050521 0.318519
3 0.241146 0.110648 0.012500 0.065741
4 0.239844 0.098611 0.009896 0.023148
