1 0.325521 0.253241 0.022917 0.043519
1 0.088802 0.226389 0.007812 0.017593
2 0.090104 0.252315 0.014583 0.041667
3 0.092188 0.266204 0.018750 0.097222
1 0.399740 0.309722 0.023438 0.045370
0 0.076823 0.434259 0.031771 0.055556
4 0.405469 0.384722 0.046354 0.119444
2 0.331510 0.330556 0.049479 0.122222
3 0.404687 0.458333 0.058333 0.353704
3 0.101042 0.607870 0.088542 0.412037
3 0.333854 0.387963 0.077083 0.318519
2 0.094531 0.562500 0.065104 0.167593
3 0.255729 0.110648 0.011458 0.062037
3 0.239323 0.111111 0.015104 0.061111
4 0.237760 0.101389 0.009896 0.023148
2 0.255469 0.101852 0.008854 0.024074
