3 0.245833 0.105556 0.010417 0.061111
1 0.075000 0.235648 0.009375 0.019444
3 0.074740 0.272222 0.016146 0.096296
2 0.395833 0.503241 0.060417 0.156481
3 0.258333 0.110185 0.011458 0.059259
0 0.027344 0.514815 0.035937 0.059259
4 0.395313 0.501852 0.059375 0.155556
1 0.302083 0.319907 0.032292 0.052778
1 0.379167 0.390741 0.033333 0.059259
3 0.068229 0.691667 0.120833 0.409259
3 0.315365 0.486111 0.081771 0.394444
2 0.313542 0.421296 0.062500 0.157407
2 0.052604 0.645833 0.076042 0.180556
3 0.397396 0.561574 0.077083 0.395370
4 0.245833 0.094444 0.009375 0.018519
0 0.246875 0.079630 0.004167 0.007407
2 0.258594 0.103704 0.010937 0.029630
2 0.076302 0.265741 0.011979 0.040741
