2 0.129688 0.238426 0.014583 0.039815
1 0.126562 0.208333 0.009375 0.020370
3 0.129688 0.253241 0.017708 0.104630
1 0.427083 0.257407 0.019792 0.042593
1 0.367448 0.207407 0.023438 0.033333
0 0.295573 0.285185 0.031771 0.044444
2 0.367708 0.281481 0.042708 0.112963
2 0.295833 0.391667 0.059375 0.150000
3 0.436458 0.383796 0.052083 0.300926
4 0.436719 0.334259 0.035937 0.112963
3 0.367188 0.330093 0.055208 0.275000
3 0.297396 0.437037 0.072917 0.357407
3 0.252604 0.111111 0.013542 0.055556
2 0.251042 0.106019 0.010417 0.026852
1 0.253125 0.088426 0.006250 0.010185
3 0.239844 0.111111 0.013021 0.062963
4 0.238802 0.098148 0.008854 0.020370
0 0.238802 0.082407 0.005729 0.007407
