0 0.259635 0.159259 0.011979 0.016667
2 0.077083 0.261574 0.011458 0.039815
3 0.633333 0.728241 0.109375 0.386111
3 0.077865 0.276852 0.013021 0.101852
1 0.076563 0.232870 0.009375 0.015741
3 0.282031 0.097222 0.011979 0.053704
3 0.264583 0.231481 0.038542 0.162963
2 0.260417 0.206481 0.021875 0.051852
2 0.633073 0.720370 0.092188 0.237037
1 0.627865 0.597685 0.052604 0.119444
3 0.246875 0.106019 0.011458 0.060185
4 0.247135 0.094907 0.009896 0.021296
1 0.284375 0.075463 0.004167 0.010185
2 0.282813 0.093519 0.008333 0.025926
1 0.599479 0.940741 0.069792 0.118519
4 0.538021 0.970833 0.054167 0.058333
3 0.573698 0.941204 0.124479 0.117593
