1 0.267708 0.0814815 0.00625 0.0111111
2 0.322917 0.786574 0.0958333 0.217593
2 0.0763021 0.272222 0.0151042 0.087037
2 0.269531 0.0986111 0.00989583 0.025
1 0.179688 0.176389 0.0114583 0.025
2 0.269792 0.107407 0.0125 0.0592593
2 0.0763021 0.2625 0.0119792 0.0324074
1 0.0755208 0.236574 0.00833333 0.0175926
4 0.324219 0.794907 0.108854 0.225
2 0.177083 0.218056 0.0177083 0.0490741
3 0.0768229 0.273611 0.0161458 0.087963
3 0.269792 0.10787 0.0135417 0.0638889
2 0.358073 0.595833 0.0765625 0.199074
3 0.24401 0.108796 0.0140625 0.0601852
3 0.180729 0.235648 0.0270833 0.123148
1 0.303385 0.682407 0.0515625 0.0796296
3 0.33151 0.81713 0.135937 0.352778
3 0.370833 0.663426 0.114583 0.49537
1 0.365365 0.460185 0.0442708 0.0777778
