2 0.187760 0.128704 0.009896 0.022222
3 0.518229 0.077315 0.013542 0.060185
3 0.509115 0.079167 0.015104 0.067593
3 0.187760 0.140278 0.013021 0.062037
1 0.279167 0.175463 0.012500 0.025000
1 0.430208 0.245370 0.018750 0.040741
0 0.337240 0.252778 0.029687 0.035185
2 0.173437 0.228241 0.018750 0.047222
3 0.173698 0.248611 0.022396 0.128704
3 0.284115 0.244444 0.035937 0.164815
2 0.277865 0.217593 0.023438 0.057407
1 0.366667 0.210648 0.020833 0.030556
1 0.171615 0.194444 0.009896 0.018519
2 0.369531 0.278241 0.036979 0.104630
4 0.438021 0.323148 0.033333 0.111111
3 0.339583 0.391667 0.066667 0.322222
3 0.437240 0.375926 0.047396 0.307407
3 0.373698 0.332407 0.047396 0.274074
2 0.338021 0.352315 0.052083 0.136111
2 0.518229 0.067593 0.008333 0.022222
1 0.517969 0.051389 0.004687 0.008333
4 0.508333 0.068519 0.009375 0.022222
0 0.510156 0.051852 0.004687 0.005556
