3 0.258333 0.109259 0.012500 0.062963
2 0.122396 0.242130 0.014583 0.041667
3 0.123177 0.254630 0.021354 0.101852
1 0.119010 0.215741 0.011979 0.022222
1 0.370312 0.206019 0.022917 0.032407
1 0.423958 0.265278 0.021875 0.041667
0 0.214583 0.314352 0.031250 0.045370
2 0.371615 0.285185 0.046354 0.120370
3 0.227865 0.456944 0.073438 0.345370
4 0.431771 0.346296 0.036458 0.112963
3 0.369792 0.328241 0.058333 0.286111
3 0.432292 0.397685 0.048958 0.312037
2 0.223438 0.422685 0.054167 0.156481
2 0.257812 0.100926 0.012500 0.027778
1 0.256510 0.083796 0.006771 0.010185
3 0.241146 0.111111 0.011458 0.064815
4 0.240625 0.099537 0.009375 0.021296
