2 0.128646 0.243981 0.014583 0.039815
1 0.125521 0.213426 0.009375 0.019444
3 0.129427 0.259722 0.018229 0.112037
1 0.366146 0.218519 0.019792 0.048148
1 0.431250 0.245833 0.020833 0.039815
2 0.347656 0.381481 0.060937 0.157407
2 0.370312 0.282870 0.037500 0.110185
0 0.340365 0.271759 0.030729 0.045370
4 0.437760 0.318981 0.033854 0.112037
3 0.368750 0.330093 0.050000 0.271296
3 0.345573 0.425463 0.067187 0.356481
3 0.437240 0.379630 0.050521 0.305556
3 0.292187 0.079630 0.008333 0.040741
2 0.294271 0.075926 0.005208 0.018519
1 0.291927 0.062500 0.004687 0.006481
