1 0.0763021 0.25463 0.0119792 0.0481481
4 0.236719 0.099537 0.00989583 0.0231481
2 0.284896 0.578704 0.08125 0.42037
2 0.0768229 0.274074 0.0151042 0.087037
2 0.0765625 0.263889 0.0125 0.0351852
2 0.271354 0.0976852 0.009375 0.025
1 0.0760417 0.236111 0.00833333 0.0185185
3 0.238021 0.111111 0.0135417 0.062963
3 0.270833 0.10787 0.0135417 0.062037
3 0.0768229 0.274537 0.0161458 0.0898148
2 0.284375 0.515278 0.0625 0.150926
3 0.36224 0.746296 0.0953125 0.461111
4 0.363021 0.66713 0.0739583 0.189815
1 0.29401 0.396296 0.0390625 0.062963
3 0.285937 0.585185 0.084375 0.425926
