3 0.282292 0.088889 0.013542 0.046296
3 0.250260 0.126852 0.013021 0.068519
2 0.128385 0.241667 0.014063 0.040741
1 0.125781 0.211111 0.008854 0.018519
3 0.129948 0.255556 0.018229 0.107407
1 0.430990 0.243519 0.020313 0.044444
1 0.365365 0.218056 0.019271 0.047222
0 0.342708 0.268981 0.031250 0.045370
2 0.347135 0.378704 0.065104 0.155556
2 0.371094 0.283333 0.036979 0.112963
4 0.437760 0.318981 0.034896 0.112037
3 0.369010 0.332407 0.051562 0.268519
3 0.345313 0.423148 0.069792 0.357407
3 0.437760 0.380556 0.050521 0.300000
2 0.252083 0.115741 0.009375 0.027778
4 0.283073 0.084722 0.008854 0.019444
1 0.251563 0.098611 0.006250 0.010185
