2 0.186719 0.127315 0.008854 0.025000
3 0.510938 0.080093 0.013542 0.062037
3 0.186979 0.137963 0.013542 0.064815
3 0.173437 0.248611 0.022917 0.130556
2 0.292187 0.213889 0.025000 0.062963
1 0.431771 0.243981 0.018750 0.037963
1 0.292969 0.170370 0.014063 0.025926
3 0.292708 0.245833 0.034375 0.182407
2 0.173698 0.227778 0.019271 0.048148
1 0.367188 0.209722 0.020833 0.030556
1 0.171094 0.193519 0.009896 0.020370
0 0.335417 0.252778 0.029167 0.038889
4 0.437240 0.322685 0.033854 0.110185
2 0.369271 0.278241 0.038542 0.106481
3 0.336458 0.389815 0.063542 0.324074
3 0.437240 0.376389 0.048438 0.312037
3 0.372396 0.331481 0.050000 0.274074
2 0.334896 0.351389 0.050000 0.136111
4 0.510417 0.068981 0.010417 0.021296
4 0.517708 0.066204 0.007292 0.023148
3 0.517708 0.076389 0.011458 0.060185
1 0.517448 0.050000 0.004687 0.009259
1 0.185938 0.111574 0.005208 0.010185
