1 0.346615 0.087037 0.005729 0.014815
3 0.305469 0.077778 0.010937 0.046296
2 0.348177 0.111574 0.013021 0.032407
2 0.129688 0.242593 0.014583 0.038889
3 0.187240 0.140278 0.013021 0.065741
1 0.124219 0.212037 0.008854 0.018519
1 0.367188 0.217593 0.019792 0.048148
3 0.128906 0.254630 0.019271 0.103704
1 0.429948 0.246296 0.020313 0.044444
3 0.348177 0.123611 0.017188 0.086111
2 0.346615 0.384259 0.061979 0.159259
4 0.438021 0.319444 0.034375 0.109259
0 0.341146 0.276852 0.032292 0.046296
2 0.369531 0.284259 0.039062 0.114815
3 0.366927 0.332870 0.054688 0.269444
3 0.344531 0.429630 0.068229 0.355556
3 0.438021 0.373148 0.051042 0.318519
2 0.189062 0.128704 0.008333 0.025926
1 0.190625 0.110648 0.005208 0.008333
2 0.306771 0.074074 0.006250 0.020370
1 0.305208 0.059722 0.005208 0.008333
