3 0.244010 0.118981 0.011979 0.062037
2 0.128646 0.241667 0.014583 0.038889
3 0.129688 0.254167 0.017708 0.108333
1 0.126042 0.209259 0.009375 0.020370
1 0.430990 0.242593 0.020313 0.044444
1 0.364323 0.218056 0.020313 0.047222
0 0.331771 0.281019 0.034375 0.047222
3 0.335938 0.418981 0.082292 0.350926
2 0.336198 0.389352 0.067187 0.156481
3 0.367708 0.331944 0.054167 0.275000
3 0.437240 0.379630 0.051562 0.309259
2 0.365885 0.284259 0.040104 0.114815
4 0.437240 0.318519 0.034896 0.112963
2 0.244010 0.110648 0.005729 0.019444
