3 0.264844 0.076852 0.008854 0.035185
2 0.129688 0.254630 0.017708 0.103704
2 0.368490 0.329167 0.048438 0.273148
3 0.296615 0.077778 0.009896 0.037037
2 0.271615 0.113889 0.010937 0.025926
2 0.128385 0.241667 0.014063 0.040741
1 0.126562 0.211111 0.009375 0.018519
3 0.237500 0.118519 0.013542 0.057407
3 0.272396 0.125926 0.014583 0.070370
3 0.129688 0.255093 0.017708 0.104630
1 0.427865 0.244907 0.020313 0.043519
1 0.365365 0.218981 0.019271 0.047222
4 0.437240 0.319444 0.034896 0.111111
2 0.346094 0.380556 0.064062 0.157407
0 0.340885 0.271759 0.030729 0.045370
2 0.369010 0.283333 0.036979 0.112963
3 0.368490 0.331944 0.051562 0.267593
3 0.344531 0.424537 0.068229 0.356481
3 0.437500 0.381019 0.050000 0.300926
2 0.236458 0.109259 0.008333 0.027778
2 0.241146 0.096759 0.005208 0.012037
1 0.270573 0.094907 0.005729 0.012037
2 0.265625 0.082407 0.007292 0.022222
4 0.297396 0.078704 0.008333 0.016667
0 0.295312 0.062500 0.005208 0.006481
