2 0.259896 0.104167 0.012500 0.028704
4 0.235677 0.102778 0.009896 0.024074
2 0.083854 0.260185 0.015625 0.042593
1 0.081250 0.229167 0.008333 0.017593
3 0.236719 0.113426 0.013021 0.067593
3 0.084115 0.274074 0.019271 0.107407
3 0.261198 0.113889 0.015104 0.068519
0 0.025000 0.493519 0.034375 0.059259
1 0.326562 0.255556 0.022917 0.040741
1 0.395833 0.340278 0.027083 0.052778
2 0.332292 0.330556 0.047917 0.114815
3 0.072917 0.665741 0.130208 0.403704
2 0.051302 0.622222 0.066146 0.162963
3 0.332813 0.384722 0.064583 0.323148
4 0.407813 0.437963 0.050000 0.137037
3 0.407031 0.500000 0.066146 0.377778
0 0.235156 0.083796 0.004687 0.006481
1 0.258333 0.084722 0.005208 0.010185
3 0.250781 0.111574 0.005729 0.058333
2 0.250781 0.102778 0.006771 0.024074
1 0.250260 0.087037 0.004687 0.009259
