2 0.186719 0.127315 0.008854 0.025000
3 0.511719 0.081481 0.014063 0.066667
3 0.188021 0.138426 0.012500 0.063889
3 0.173958 0.248611 0.022917 0.130556
2 0.285156 0.210185 0.022396 0.059259
1 0.284896 0.171296 0.011458 0.022222
1 0.431771 0.243056 0.018750 0.037963
0 0.336719 0.252778 0.029687 0.037037
3 0.285938 0.243056 0.029167 0.167593
2 0.173437 0.227315 0.019792 0.049074
1 0.367188 0.210185 0.020833 0.031481
1 0.171094 0.193519 0.009896 0.020370
2 0.369271 0.276852 0.038542 0.105556
4 0.437240 0.323148 0.033854 0.111111
3 0.340365 0.391204 0.067187 0.323148
3 0.437240 0.375463 0.048438 0.317593
3 0.372135 0.331481 0.048438 0.272222
2 0.337240 0.351852 0.051562 0.137037
1 0.186198 0.111111 0.005729 0.009259
4 0.509375 0.068519 0.009375 0.022222
3 0.519531 0.077315 0.010937 0.058333
2 0.518490 0.066667 0.006771 0.020370
