2 0.504948 0.073611 0.009896 0.023148
3 0.504948 0.088426 0.011979 0.075000
2 0.524219 0.070833 0.008854 0.023148
1 0.172135 0.195370 0.009896 0.020370
3 0.174740 0.244907 0.019271 0.112037
2 0.173437 0.226389 0.016667 0.045370
1 0.362240 0.218519 0.023438 0.040741
3 0.523177 0.082407 0.016146 0.068519
2 0.210938 0.232870 0.021875 0.058333
1 0.206510 0.193519 0.011979 0.024074
1 0.431510 0.246296 0.020313 0.042593
3 0.210417 0.258796 0.027083 0.156481
3 0.346094 0.393056 0.069271 0.323148
4 0.437760 0.324537 0.034896 0.110185
0 0.342969 0.255093 0.028646 0.037963
2 0.343490 0.356019 0.054688 0.143519
3 0.436719 0.380093 0.049479 0.306481
2 0.186719 0.131944 0.009896 0.026852
3 0.185677 0.142130 0.016146 0.067593
2 0.367448 0.285185 0.036979 0.109259
3 0.373177 0.332870 0.048438 0.265741
1 0.524479 0.054630 0.005208 0.009259
0 0.506250 0.055093 0.006250 0.008333
