2 0.235677 0.121759 0.008854 0.026852
3 0.265885 0.099537 0.010937 0.056481
2 0.129688 0.241667 0.014583 0.038889
3 0.236979 0.126389 0.013542 0.063889
3 0.129688 0.256019 0.018750 0.108333
1 0.126562 0.208796 0.009375 0.019444
1 0.430990 0.242593 0.020313 0.044444
1 0.364583 0.218056 0.019792 0.047222
0 0.337240 0.276389 0.032813 0.047222
3 0.341146 0.420833 0.073958 0.343519
3 0.368490 0.330556 0.050521 0.268519
2 0.367708 0.281944 0.037500 0.112037
3 0.437240 0.380093 0.051562 0.308333
4 0.437240 0.318056 0.034896 0.112037
2 0.342448 0.383796 0.065104 0.154630
4 0.265885 0.091204 0.009896 0.015741
3 0.253385 0.086574 0.007812 0.043519
2 0.254167 0.080093 0.006250 0.021296
