1 0.267708 0.0814815 0.00625 0.0111111
1 0.0765625 0.256944 0.0125 0.0472222
2 0.269271 0.0986111 0.0104167 0.025
3 0.329688 0.497222 0.0854167 0.177778
4 0.242448 0.0976852 0.00989583 0.0231481
2 0.0768229 0.274074 0.0151042 0.087037
2 0.269271 0.106944 0.0125 0.0583333
2 0.170312 0.2125 0.0166667 0.0453704
2 0.0765625 0.263889 0.0125 0.0351852
1 0.313802 0.648148 0.0453125 0.0648148
3 0.172917 0.238889 0.0229167 0.125926
1 0.0760417 0.236574 0.00833333 0.0175926
4 0.338542 0.765741 0.0958333 0.211111
3 0.269531 0.107407 0.0130208 0.062963
3 0.24349 0.108333 0.0140625 0.0611111
3 0.0768229 0.274537 0.0161458 0.0898148
3 0.339844 0.80787 0.115104 0.384259
1 0.3375 0.446759 0.0427083 0.0787037
