4 0.504427 0.071759 0.009896 0.021296
2 0.523438 0.072685 0.008333 0.026852
3 0.503646 0.085185 0.014583 0.072222
3 0.173958 0.244907 0.019792 0.110185
1 0.170833 0.195370 0.010417 0.022222
2 0.173698 0.230093 0.019271 0.047222
3 0.523177 0.081019 0.014063 0.065741
1 0.364063 0.215741 0.022917 0.038889
1 0.205990 0.193056 0.011979 0.025000
1 0.432812 0.248611 0.019792 0.043519
2 0.207813 0.226389 0.022917 0.054630
3 0.212500 0.257407 0.033333 0.150000
3 0.347917 0.393519 0.069792 0.316667
0 0.344531 0.255556 0.027604 0.038889
4 0.438281 0.325000 0.033854 0.105556
2 0.345833 0.355556 0.055208 0.140741
3 0.438802 0.377315 0.048438 0.304630
2 0.368229 0.285648 0.036458 0.112037
3 0.374479 0.331481 0.043750 0.264815
1 0.522656 0.054167 0.004687 0.008333
0 0.504167 0.053704 0.007292 0.007407
2 0.187500 0.129630 0.008333 0.025926
3 0.186979 0.142130 0.011458 0.065741
