2 0.259635 0.096296 0.008854 0.025926
2 0.110937 0.247222 0.015625 0.042593
3 0.260937 0.108333 0.013542 0.062963
1 0.102865 0.222685 0.010937 0.023148
1 0.348438 0.220833 0.022917 0.039815
1 0.426042 0.270370 0.023958 0.044444
0 0.202865 0.323148 0.030729 0.046296
2 0.212240 0.437037 0.059896 0.155556
4 0.433594 0.352778 0.039062 0.112963
2 0.355208 0.294444 0.045833 0.112963
3 0.219271 0.473611 0.080208 0.354630
3 0.357031 0.343056 0.065104 0.289815
3 0.429688 0.400000 0.056250 0.307407
3 0.110677 0.261574 0.026562 0.099074
3 0.239844 0.108796 0.013021 0.063889
4 0.239844 0.100000 0.010937 0.022222
