3 0.248958 0.105556 0.012500 0.062963
2 0.276823 0.093056 0.007812 0.023148
2 0.076042 0.262963 0.012500 0.037037
3 0.075781 0.275926 0.017188 0.100000
1 0.076823 0.235185 0.007812 0.018519
3 0.277344 0.103704 0.013021 0.062963
0 0.230469 0.155556 0.010937 0.014815
2 0.229687 0.201389 0.022917 0.052778
3 0.229948 0.229167 0.024479 0.162037
2 0.530990 0.685185 0.080729 0.198148
3 0.540365 0.735185 0.123438 0.468519
1 0.546094 0.563889 0.047396 0.125926
4 0.249740 0.094444 0.008854 0.020370
1 0.277604 0.077315 0.004167 0.010185
3 0.453125 0.935648 0.093750 0.128704
1 0.466667 0.925463 0.066667 0.106481
