2 0.157292 0.137963 0.008333 0.024074
2 0.374219 0.132407 0.015104 0.029630
1 0.374219 0.106481 0.009896 0.020370
3 0.158073 0.150000 0.011979 0.064815
2 0.130990 0.241667 0.014063 0.037037
3 0.374479 0.152778 0.026042 0.109259
1 0.126823 0.210185 0.008854 0.020370
3 0.364323 0.337963 0.063021 0.285185
1 0.365885 0.219444 0.019271 0.046296
0 0.352344 0.263889 0.030729 0.048148
2 0.353385 0.368981 0.051562 0.150926
4 0.438281 0.324074 0.033854 0.105556
1 0.431771 0.248611 0.019792 0.043519
3 0.131250 0.254630 0.018750 0.111111
3 0.354687 0.408333 0.068750 0.340741
3 0.439323 0.378241 0.048438 0.313889
2 0.367188 0.280556 0.036458 0.096296
3 0.360156 0.068056 0.007812 0.039815
2 0.361198 0.065278 0.005729 0.019444
1 0.359115 0.052315 0.005729 0.008333
1 0.158854 0.122222 0.004167 0.011111
