4 0.438281 0.326389 0.033854 0.099074
1 0.630990 0.283333 0.020313 0.035185
1 0.362760 0.207407 0.024479 0.029630
2 0.626042 0.350926 0.040625 0.094444
3 0.437240 0.376389 0.046354 0.306481
2 0.368490 0.283333 0.045312 0.112963
3 0.623177 0.406481 0.055729 0.279630
2 0.258333 0.356019 0.052083 0.121296
3 0.369531 0.332870 0.054688 0.280556
3 0.265365 0.397222 0.082812 0.305556
1 0.495833 0.068056 0.007292 0.013889
2 0.494010 0.089352 0.014063 0.037963
3 0.494792 0.103704 0.015625 0.085185
0 0.455208 0.066204 0.006250 0.010185
4 0.455990 0.091667 0.007812 0.031481
3 0.455469 0.105556 0.007812 0.090741
0 0.247917 0.257870 0.021875 0.028704
1 0.431771 0.249074 0.020833 0.042593
1 0.171094 0.197685 0.009896 0.023148
1 0.201563 0.174537 0.008333 0.023148
0 0.213021 0.164352 0.011458 0.015741
2 0.217448 0.199537 0.016146 0.045370
2 0.202865 0.202315 0.018229 0.037963
2 0.174219 0.229630 0.018229 0.046296
3 0.176302 0.249537 0.021354 0.126852
3 0.204167 0.227315 0.023958 0.128704
3 0.221354 0.210648 0.029167 0.106481
