1 0.313802 0.183796 0.015104 0.025000
2 0.312760 0.236111 0.029687 0.070370
3 0.312500 0.269444 0.036458 0.196296
3 0.345313 0.351389 0.054167 0.147222
3 0.176563 0.143519 0.011458 0.061111
1 0.125781 0.211574 0.008854 0.021296
2 0.128385 0.237037 0.013021 0.035185
1 0.433073 0.244444 0.019271 0.044444
3 0.129427 0.250000 0.016146 0.096296
2 0.372396 0.275926 0.033333 0.105556
3 0.376563 0.337037 0.041667 0.272222
1 0.368490 0.208333 0.023438 0.035185
4 0.439323 0.322685 0.034896 0.112037
0 0.343490 0.253241 0.028646 0.041667
3 0.438281 0.376389 0.049479 0.313889
2 0.344531 0.353241 0.051562 0.137963
3 0.347135 0.393056 0.070312 0.326852
2 0.175260 0.134722 0.006771 0.026852
