2 0.128646 0.238426 0.014583 0.037963
1 0.126823 0.212037 0.008854 0.018519
3 0.129167 0.253704 0.017708 0.109259
1 0.366927 0.218981 0.019271 0.047222
1 0.430990 0.243519 0.020313 0.044444
2 0.347396 0.380556 0.061458 0.155556
0 0.339062 0.271759 0.030208 0.045370
4 0.437240 0.318056 0.034896 0.112037
2 0.369792 0.282870 0.038542 0.112037
3 0.370052 0.331944 0.056771 0.269444
3 0.344271 0.426852 0.066667 0.359259
3 0.438281 0.378241 0.053646 0.306481
3 0.286198 0.086111 0.007812 0.048148
3 0.313021 0.075926 0.007292 0.040741
3 0.312500 0.127315 0.019792 0.082407
2 0.286198 0.079167 0.007812 0.021296
1 0.284896 0.065741 0.005208 0.007407
0 0.312500 0.059259 0.005208 0.005556
2 0.311719 0.108796 0.009896 0.021296
1 0.309635 0.092593 0.005729 0.011111
