3 0.238281 0.111111 0.011979 0.061111
3 0.255990 0.110185 0.013021 0.059259
2 0.085938 0.253241 0.014583 0.041667
2 0.332031 0.389815 0.068229 0.322222
3 0.087500 0.267130 0.018750 0.095370
1 0.082292 0.230093 0.008333 0.019444
1 0.320312 0.259722 0.025000 0.043519
1 0.408594 0.318981 0.022396 0.045370
0 0.064062 0.460648 0.037500 0.058333
4 0.409896 0.394444 0.047917 0.124074
2 0.330990 0.331944 0.051562 0.121296
3 0.409375 0.461111 0.060417 0.350000
3 0.332031 0.390278 0.068229 0.313889
3 0.088802 0.631944 0.098437 0.400926
2 0.079687 0.590741 0.073958 0.174074
4 0.237760 0.102315 0.010937 0.025000
2 0.256250 0.102778 0.008333 0.027778
