3 0.177083 0.142593 0.011458 0.059259
2 0.132812 0.239352 0.013542 0.041667
3 0.132031 0.251852 0.017188 0.100000
1 0.432812 0.245370 0.019792 0.044444
2 0.372135 0.279167 0.032813 0.106481
3 0.374740 0.331481 0.042188 0.262963
1 0.276823 0.199537 0.018229 0.028704
2 0.275781 0.256481 0.033854 0.083333
1 0.368490 0.209259 0.023438 0.035185
3 0.278385 0.292593 0.044271 0.218519
0 0.347396 0.254630 0.028125 0.040741
4 0.438542 0.322685 0.034375 0.106481
3 0.437760 0.376389 0.048438 0.313889
2 0.346094 0.351852 0.051562 0.144444
3 0.347917 0.391204 0.067708 0.330556
1 0.128646 0.210648 0.009375 0.019444
2 0.177083 0.129630 0.005208 0.020370
