3 0.255990 0.108333 0.013021 0.059259
2 0.086719 0.253241 0.015104 0.041667
3 0.087500 0.267130 0.018750 0.095370
1 0.082031 0.229167 0.007812 0.019444
1 0.321094 0.261111 0.025521 0.044444
1 0.408333 0.320370 0.022917 0.046296
0 0.062500 0.466204 0.037500 0.058333
4 0.409635 0.396296 0.048438 0.125926
2 0.331771 0.333333 0.053125 0.118519
3 0.409635 0.458796 0.060937 0.349074
3 0.332292 0.390278 0.067708 0.313889
3 0.087500 0.633333 0.098958 0.396296
2 0.077865 0.592593 0.073438 0.172222
3 0.238802 0.111574 0.015104 0.063889
4 0.238542 0.102778 0.011458 0.024074
2 0.256250 0.103704 0.007292 0.029630
0 0.237500 0.084722 0.005208 0.008333
