3 0.518750 0.078241 0.012500 0.060185
2 0.187760 0.128704 0.009896 0.022222
3 0.508073 0.082870 0.015104 0.067593
3 0.187760 0.139815 0.013021 0.062963
1 0.274740 0.175926 0.013021 0.024074
1 0.430208 0.244907 0.018750 0.039815
2 0.274740 0.218519 0.024479 0.059259
3 0.274740 0.251852 0.032813 0.181481
0 0.337240 0.252778 0.028646 0.037037
2 0.173698 0.228241 0.019271 0.047222
3 0.173698 0.248611 0.022396 0.130556
1 0.367188 0.210648 0.020833 0.030556
1 0.171615 0.194907 0.009896 0.019444
4 0.438021 0.323148 0.033333 0.111111
2 0.370312 0.277778 0.037500 0.105556
3 0.340365 0.391204 0.066146 0.323148
3 0.437240 0.375926 0.047396 0.311111
3 0.373698 0.332870 0.047396 0.273148
2 0.337240 0.352315 0.051562 0.136111
4 0.508333 0.068519 0.010417 0.022222
0 0.510156 0.052315 0.004687 0.004630
1 0.518490 0.051852 0.004687 0.007407
2 0.518750 0.066667 0.009375 0.022222
