2 0.185938 0.131019 0.010417 0.025000
4 0.511198 0.058796 0.007812 0.021296
1 0.154948 0.199537 0.008854 0.019444
2 0.159375 0.229167 0.014583 0.041667
2 0.373437 0.279630 0.031250 0.114815
3 0.160417 0.243981 0.019792 0.108333
3 0.186458 0.141204 0.014583 0.067593
0 0.350260 0.257407 0.028646 0.042593
3 0.510156 0.075000 0.010937 0.057407
3 0.376042 0.335648 0.038542 0.275000
3 0.226562 0.338889 0.054167 0.212963
2 0.221615 0.295833 0.032813 0.075000
1 0.210417 0.244907 0.017708 0.030556
1 0.433073 0.247685 0.020313 0.041667
1 0.367188 0.209259 0.022917 0.035185
4 0.438281 0.322222 0.034896 0.109259
3 0.438281 0.376852 0.048438 0.311111
3 0.347917 0.393056 0.075000 0.328704
2 0.345313 0.352778 0.059375 0.146296
1 0.185938 0.112500 0.005208 0.010185
