3 0.240625 0.111574 0.011458 0.060185
3 0.259896 0.109259 0.013542 0.064815
2 0.128906 0.241204 0.014063 0.039815
1 0.126562 0.210185 0.009375 0.020370
3 0.129948 0.254167 0.017188 0.104630
1 0.414844 0.252778 0.020313 0.042593
1 0.363281 0.205556 0.023438 0.031481
2 0.367969 0.282407 0.045312 0.116667
0 0.288542 0.285185 0.034375 0.048148
2 0.292187 0.393519 0.063542 0.151852
3 0.365885 0.329167 0.056771 0.280556
4 0.423698 0.330556 0.036979 0.118519
3 0.294792 0.427778 0.076042 0.329630
3 0.423958 0.390278 0.048958 0.319444
0 0.239844 0.082870 0.004687 0.004630
4 0.240104 0.099537 0.010417 0.019444
2 0.260156 0.100463 0.011979 0.025000
1 0.260156 0.082870 0.005729 0.012037
