2 0.182031 0.236574 0.0276042 0.117593
4 0.242448 0.0972222 0.00989583 0.0222222
1 0.267708 0.0814815 0.00625 0.0111111
4 0.24401 0.10787 0.0130208 0.0601852
2 0.269531 0.0986111 0.00989583 0.025
2 0.0765625 0.272685 0.0145833 0.0861111
2 0.269792 0.106944 0.0125 0.0583333
1 0.18099 0.180556 0.0109375 0.0222222
2 0.0765625 0.262963 0.0114583 0.0333333
2 0.323177 0.790741 0.0963542 0.224074
4 0.324219 0.801389 0.113021 0.213889
1 0.0757812 0.237037 0.0078125 0.0185185
2 0.178385 0.218981 0.0171875 0.0509259
3 0.269792 0.10787 0.0135417 0.0638889
3 0.0768229 0.273611 0.0161458 0.087963
3 0.24401 0.108333 0.0140625 0.0611111
3 0.182031 0.236574 0.0265625 0.123148
1 0.303646 0.688889 0.0510417 0.0814815
3 0.330729 0.818981 0.138542 0.349074
2 0.365104 0.600463 0.0708333 0.19537
3 0.376042 0.661574 0.113542 0.478704
1 0.370052 0.467593 0.0442708 0.0833333
