2 0.262760 0.096759 0.009896 0.025000
3 0.236979 0.108333 0.008333 0.061111
3 0.078385 0.274537 0.016146 0.099074
3 0.099740 0.241667 0.018229 0.116667
3 0.263021 0.105093 0.011458 0.058333
1 0.251823 0.382407 0.035937 0.061111
0 0.011458 0.626852 0.021875 0.074074
3 0.069792 0.794907 0.138542 0.391667
1 0.387240 0.462037 0.041146 0.072222
2 0.044792 0.779167 0.080208 0.197222
2 0.272656 0.489815 0.072396 0.159259
4 0.399219 0.575926 0.064062 0.168519
3 0.397135 0.640278 0.083854 0.447222
3 0.276562 0.569444 0.089583 0.437037
2 0.077083 0.266204 0.011458 0.045370
1 0.075781 0.235648 0.009896 0.019444
4 0.098958 0.220370 0.015625 0.042593
4 0.236979 0.098148 0.008333 0.020370
