2 0.186198 0.131019 0.009896 0.025000
2 0.161458 0.231019 0.014583 0.043519
4 0.509896 0.060185 0.008333 0.022222
0 0.348958 0.256019 0.027083 0.043519
3 0.161198 0.246296 0.020313 0.109259
3 0.225000 0.340278 0.053125 0.213889
2 0.373437 0.279167 0.031250 0.113889
3 0.185938 0.141204 0.014583 0.067593
3 0.375260 0.334722 0.039062 0.275000
2 0.220573 0.298148 0.034896 0.081481
1 0.209115 0.247222 0.017188 0.029630
3 0.509115 0.073611 0.011979 0.058333
1 0.433073 0.247685 0.020313 0.041667
1 0.367188 0.209259 0.022917 0.035185
4 0.438542 0.321759 0.035417 0.108333
3 0.438542 0.376852 0.048958 0.311111
3 0.347917 0.392130 0.073958 0.330556
2 0.345313 0.352778 0.058333 0.144444
1 0.185938 0.113426 0.005208 0.010185
