4 0.238281 0.100000 0.009896 0.022222
2 0.257031 0.102315 0.011979 0.028704
2 0.076042 0.262963 0.012500 0.035185
3 0.238542 0.109722 0.011458 0.062037
1 0.076302 0.234259 0.008854 0.018519
3 0.076563 0.271296 0.017708 0.096296
3 0.257552 0.110648 0.014063 0.060185
0 0.046094 0.475926 0.035937 0.059259
2 0.070052 0.601389 0.063021 0.176852
1 0.327865 0.281019 0.025521 0.056481
4 0.423438 0.481481 0.053125 0.148148
3 0.422396 0.532407 0.067708 0.375926
1 0.412240 0.372685 0.032813 0.056481
3 0.333854 0.418519 0.070833 0.331481
3 0.079167 0.652315 0.104167 0.412037
2 0.332292 0.360185 0.057292 0.137037
0 0.238281 0.082870 0.004687 0.008333
1 0.257812 0.085185 0.005208 0.009259
