2 0.277344 0.092130 0.006771 0.023148
3 0.078385 0.276389 0.016146 0.100926
2 0.076823 0.264352 0.011979 0.032407
1 0.076823 0.235185 0.008854 0.018519
3 0.250260 0.105093 0.013021 0.063889
0 0.233073 0.156019 0.010937 0.015741
3 0.278646 0.101852 0.014583 0.062963
3 0.542188 0.749074 0.117708 0.483333
2 0.232813 0.202315 0.020833 0.054630
3 0.232813 0.225926 0.031250 0.157407
2 0.544271 0.682870 0.083333 0.219444
1 0.562240 0.571296 0.047396 0.118519
4 0.250260 0.093056 0.008854 0.021296
1 0.277865 0.075926 0.004687 0.011111
1 0.482552 0.937037 0.070312 0.120370
3 0.467448 0.939352 0.101562 0.121296
4 0.435677 0.951389 0.036979 0.097222
