3 0.152865 0.152315 0.009896 0.049074
2 0.370573 0.138426 0.015104 0.030556
3 0.370573 0.149537 0.025521 0.095370
1 0.369792 0.109259 0.010417 0.024074
3 0.348698 0.405093 0.075521 0.325000
2 0.130990 0.243519 0.014063 0.037037
1 0.126042 0.211111 0.009375 0.018519
1 0.367448 0.215741 0.019271 0.037037
2 0.371875 0.280556 0.031250 0.105556
1 0.431771 0.245370 0.019792 0.042593
4 0.437240 0.322222 0.033854 0.105556
3 0.130990 0.256019 0.019271 0.112037
3 0.364323 0.329167 0.061979 0.262037
2 0.346615 0.364352 0.056771 0.152778
0 0.345313 0.256019 0.028125 0.043519
3 0.437240 0.378241 0.049479 0.313889
3 0.372917 0.067593 0.009375 0.044444
2 0.372917 0.063889 0.006250 0.022222
1 0.370312 0.047685 0.006250 0.006481
