4 0.111719 0.218519 0.013021 0.040741
2 0.264583 0.097685 0.009375 0.025000
3 0.077344 0.276389 0.014063 0.102778
3 0.236979 0.106944 0.011458 0.060185
3 0.110937 0.234259 0.017708 0.109259
3 0.266406 0.108333 0.016146 0.064815
3 0.058333 0.822685 0.115625 0.326852
1 0.259115 0.385185 0.035937 0.055556
1 0.357812 0.482870 0.036458 0.067593
4 0.378906 0.593519 0.064062 0.166667
3 0.380208 0.660648 0.088542 0.436111
2 0.264323 0.507407 0.071354 0.172222
3 0.268490 0.566667 0.089063 0.424074
1 0.076042 0.235648 0.010417 0.021296
2 0.076302 0.268056 0.013021 0.041667
0 0.110677 0.185648 0.010937 0.010185
4 0.236458 0.098148 0.009375 0.020370
2 0.027865 0.826389 0.050521 0.199074
