3 0.240885 0.110648 0.010937 0.067593
3 0.259115 0.109722 0.013021 0.062037
2 0.128906 0.240741 0.014063 0.038889
1 0.126562 0.209722 0.009375 0.019444
3 0.129688 0.254167 0.017708 0.104630
1 0.419010 0.255556 0.022396 0.044444
1 0.367708 0.207870 0.023958 0.036111
0 0.296615 0.281481 0.031771 0.044444
2 0.369010 0.282407 0.043229 0.114815
3 0.367188 0.331019 0.055208 0.276852
3 0.297396 0.424537 0.073958 0.336111
4 0.427344 0.338889 0.036979 0.118519
3 0.427865 0.391667 0.049479 0.320370
2 0.295573 0.390278 0.060937 0.150926
4 0.240365 0.098148 0.009896 0.022222
0 0.241667 0.081944 0.005208 0.008333
2 0.259375 0.101389 0.011458 0.026852
