2 0.180990 0.131019 0.008854 0.023148
3 0.181510 0.140278 0.011979 0.058333
3 0.373437 0.134259 0.018750 0.103704
2 0.129948 0.243519 0.014063 0.038889
1 0.125260 0.212500 0.008854 0.019444
2 0.344271 0.386574 0.057292 0.160185
1 0.431771 0.244444 0.021875 0.042593
1 0.367969 0.218519 0.021354 0.048148
2 0.368750 0.281944 0.037500 0.110185
3 0.129948 0.256481 0.018229 0.105556
3 0.366927 0.335185 0.052604 0.281481
4 0.438281 0.321759 0.033854 0.108333
0 0.337760 0.280093 0.031771 0.045370
3 0.344531 0.429630 0.072396 0.353704
3 0.438542 0.376389 0.050000 0.319444
2 0.374219 0.113426 0.011979 0.026852
1 0.372656 0.091204 0.007812 0.013889
3 0.362760 0.068519 0.009896 0.040741
4 0.363021 0.067593 0.008333 0.020370
0 0.361979 0.050926 0.006250 0.005556
