1 0.0765625 0.256019 0.0125 0.0472222
2 0.279427 0.583796 0.0911458 0.413889
2 0.0768229 0.273611 0.0151042 0.0861111
2 0.0765625 0.262963 0.0125 0.0351852
1 0.13151 0.197222 0.0078125 0.0166667
2 0.271875 0.0976852 0.009375 0.025
1 0.0760417 0.236111 0.00833333 0.0185185
3 0.2375 0.111111 0.0135417 0.0611111
2 0.133333 0.226852 0.0125 0.0407407
0 0.275 0.403241 0.0385417 0.0638889
3 0.271094 0.107407 0.0130208 0.0611111
3 0.0768229 0.274074 0.0161458 0.0888889
3 0.134375 0.243519 0.0177083 0.105556
3 0.3625 0.743519 0.09375 0.472222
2 0.270573 0.519907 0.0630208 0.147222
4 0.364323 0.646296 0.0661458 0.177778
1 0.27526 0.403241 0.0380208 0.0657407
3 0.279427 0.584722 0.0963542 0.419444
