3 0.504948 0.082870 0.011979 0.075000
2 0.523177 0.073148 0.008854 0.031481
3 0.174740 0.244907 0.020313 0.119444
3 0.521875 0.080556 0.015625 0.064815
1 0.170833 0.195370 0.010417 0.022222
2 0.173698 0.230093 0.019271 0.047222
1 0.209896 0.191204 0.012500 0.025000
1 0.432812 0.246759 0.019792 0.039815
1 0.364063 0.216204 0.021875 0.036111
2 0.212240 0.226389 0.023438 0.054630
3 0.349740 0.393981 0.068229 0.308333
3 0.217188 0.256944 0.039583 0.162037
0 0.344792 0.257870 0.027083 0.037963
4 0.439323 0.323148 0.034896 0.111111
2 0.347396 0.355556 0.056250 0.140741
3 0.441667 0.380093 0.048958 0.308333
2 0.368490 0.285648 0.034896 0.113889
3 0.372656 0.336111 0.047396 0.266667
4 0.505729 0.070833 0.010417 0.025000
0 0.505208 0.052315 0.006250 0.006481
1 0.522656 0.052778 0.005729 0.009259
2 0.187500 0.129167 0.009375 0.026852
3 0.186198 0.141204 0.013021 0.065741
