3 0.250260 0.112037 0.013021 0.062963
2 0.129688 0.239352 0.014583 0.039815
1 0.126562 0.208333 0.009375 0.020370
3 0.129688 0.253241 0.017708 0.104630
1 0.427865 0.258333 0.020313 0.042593
1 0.367188 0.207407 0.022917 0.033333
0 0.294531 0.284259 0.032813 0.046296
2 0.368490 0.281019 0.043229 0.112037
3 0.438021 0.384259 0.053125 0.298148
2 0.295312 0.392130 0.061458 0.149074
3 0.367448 0.330093 0.055729 0.275000
4 0.437240 0.335185 0.035937 0.111111
3 0.297917 0.426852 0.075000 0.337037
1 0.253125 0.088426 0.006250 0.012037
2 0.251042 0.106944 0.010417 0.025000
3 0.240104 0.111111 0.014583 0.062963
2 0.239063 0.098148 0.009375 0.016667
0 0.238542 0.082407 0.006250 0.007407
