4 0.504948 0.058333 0.007812 0.022222
3 0.347656 0.350463 0.055729 0.143519
3 0.185938 0.141204 0.014583 0.065741
1 0.214583 0.239352 0.017708 0.028704
3 0.504167 0.076389 0.011458 0.063889
3 0.374740 0.331481 0.042188 0.272222
1 0.431771 0.246296 0.019792 0.046296
2 0.372396 0.276852 0.032292 0.109259
1 0.367188 0.208333 0.022917 0.035185
2 0.224219 0.294907 0.034896 0.082407
0 0.347396 0.254630 0.027083 0.040741
4 0.437760 0.322685 0.034896 0.106481
3 0.232292 0.332870 0.058333 0.223148
3 0.437760 0.376852 0.048438 0.311111
3 0.349219 0.391204 0.069271 0.330556
2 0.347656 0.352778 0.054688 0.142593
2 0.186979 0.130556 0.007292 0.024074
1 0.184896 0.113426 0.006250 0.012037
