2 0.300260 0.213889 0.025521 0.057407
3 0.187760 0.138889 0.014063 0.066667
1 0.297656 0.176389 0.013021 0.026852
3 0.300260 0.234259 0.033854 0.140741
3 0.511198 0.081944 0.014063 0.063889
3 0.173437 0.249074 0.022917 0.127778
1 0.429688 0.245370 0.018750 0.038889
2 0.173698 0.227778 0.019271 0.048148
1 0.367188 0.209259 0.021875 0.031481
1 0.171615 0.193981 0.009896 0.019444
0 0.329948 0.252778 0.025521 0.038889
4 0.437240 0.323611 0.033854 0.108333
2 0.368490 0.279630 0.039062 0.107407
3 0.331510 0.389815 0.069271 0.316667
3 0.437240 0.376389 0.048438 0.312037
3 0.371615 0.331019 0.051562 0.276852
2 0.329167 0.349537 0.054167 0.136111
2 0.187500 0.130556 0.011458 0.025926
1 0.185938 0.112500 0.005208 0.010185
4 0.509896 0.066204 0.009375 0.021296
