3 0.154167 0.150463 0.010417 0.050926
3 0.362240 0.158796 0.026562 0.099074
1 0.361719 0.121296 0.010937 0.024074
2 0.130469 0.243056 0.014063 0.037963
1 0.126042 0.212037 0.009375 0.020370
1 0.365885 0.210185 0.019271 0.035185
1 0.430208 0.246759 0.019792 0.043519
0 0.337240 0.257870 0.029687 0.043519
3 0.129948 0.252778 0.018229 0.105556
4 0.438021 0.321296 0.034375 0.107407
2 0.367188 0.278704 0.036458 0.111111
3 0.437240 0.377315 0.051562 0.319444
2 0.339062 0.361111 0.060417 0.150000
3 0.372656 0.330093 0.044271 0.262037
3 0.341667 0.397685 0.076042 0.325000
2 0.152604 0.143519 0.007292 0.024074
2 0.364063 0.155093 0.016667 0.036111
