3 0.295052 0.079167 0.010937 0.039815
2 0.129688 0.245370 0.014583 0.038889
1 0.124740 0.213426 0.008854 0.019444
3 0.129427 0.257407 0.018229 0.107407
1 0.367188 0.218056 0.018750 0.045370
2 0.347656 0.381019 0.060937 0.158333
1 0.430208 0.243056 0.019792 0.045370
0 0.340885 0.272222 0.031771 0.046296
4 0.438542 0.319907 0.034375 0.112037
2 0.371094 0.283796 0.036979 0.112037
3 0.368490 0.331481 0.050521 0.268519
3 0.343750 0.426389 0.065625 0.358333
3 0.438021 0.379167 0.051042 0.304630
1 0.295312 0.062500 0.003125 0.006481
2 0.296875 0.074537 0.006250 0.015741
3 0.330469 0.123148 0.014063 0.077778
2 0.331771 0.106481 0.011458 0.024074
1 0.328125 0.089815 0.006250 0.011111
