2 0.177865 0.130556 0.008854 0.027778
3 0.177865 0.141204 0.011979 0.063889
2 0.134375 0.237963 0.012500 0.038889
1 0.133073 0.209259 0.008854 0.018519
3 0.134115 0.249074 0.017188 0.098148
1 0.269271 0.208333 0.018750 0.029630
1 0.432031 0.244444 0.019271 0.044444
2 0.372135 0.281019 0.032813 0.108333
1 0.368490 0.209259 0.024479 0.035185
3 0.374740 0.330556 0.041146 0.257407
2 0.270833 0.268519 0.035417 0.087037
0 0.347396 0.254630 0.028125 0.038889
3 0.270313 0.304630 0.046875 0.225926
4 0.437760 0.321759 0.034896 0.108333
3 0.437760 0.375463 0.048438 0.315741
2 0.346094 0.351852 0.051562 0.144444
3 0.347917 0.391204 0.066667 0.328704
