2 0.291146 0.112037 0.012500 0.031481
3 0.305729 0.079630 0.015625 0.042593
3 0.274740 0.084259 0.008854 0.042593
2 0.129688 0.241204 0.014583 0.041667
1 0.127344 0.210648 0.008854 0.017593
3 0.129688 0.254630 0.017708 0.105556
3 0.291146 0.124074 0.019792 0.077778
1 0.430469 0.245370 0.021354 0.038889
1 0.366667 0.219907 0.019792 0.045370
2 0.345833 0.381019 0.062500 0.158333
0 0.341667 0.273148 0.031250 0.046296
2 0.370573 0.282870 0.036979 0.110185
4 0.437240 0.318981 0.034896 0.113889
3 0.344010 0.424074 0.067187 0.355556
3 0.369271 0.333333 0.052083 0.268519
3 0.437500 0.380093 0.050000 0.302778
2 0.276042 0.078704 0.006250 0.018519
1 0.300521 0.061574 0.004167 0.006481
