2 0.255729 0.114815 0.007292 0.022222
3 0.242708 0.118056 0.015625 0.065741
3 0.284115 0.090278 0.014063 0.054630
2 0.128646 0.242130 0.014583 0.041667
1 0.125781 0.211111 0.008854 0.018519
3 0.255990 0.130093 0.017188 0.065741
3 0.129688 0.255556 0.017708 0.107407
1 0.430990 0.243981 0.020313 0.043519
1 0.364583 0.218519 0.018750 0.046296
0 0.343490 0.270370 0.030729 0.046296
2 0.370573 0.283796 0.036979 0.113889
2 0.347917 0.379167 0.064583 0.154630
4 0.437760 0.318519 0.034896 0.111111
3 0.369271 0.333333 0.052083 0.270370
3 0.346094 0.422685 0.068229 0.356481
3 0.437760 0.380093 0.050521 0.300926
4 0.285417 0.081481 0.009375 0.018519
