2 0.113542 0.231944 0.010417 0.036111
1 0.744792 0.499537 0.028125 0.056481
2 0.237500 0.228241 0.020833 0.071296
1 0.228125 0.187500 0.014583 0.025000
3 0.238802 0.246296 0.039062 0.146296
1 0.429167 0.246759 0.018750 0.036111
2 0.728646 0.607870 0.057292 0.167593
1 0.363542 0.207407 0.025000 0.037037
3 0.517708 0.100000 0.019792 0.085185
1 0.170833 0.196296 0.010417 0.022222
3 0.173698 0.243981 0.021354 0.123148
3 0.119010 0.249537 0.022396 0.099074
3 0.301302 0.407407 0.058854 0.305556
0 0.294271 0.268056 0.026042 0.043519
3 0.721094 0.676852 0.077604 0.437037
2 0.173698 0.228241 0.020313 0.045370
2 0.369792 0.286574 0.043750 0.106481
2 0.298438 0.375463 0.045833 0.128704
3 0.370052 0.329167 0.053646 0.269444
4 0.437240 0.322685 0.036979 0.113889
3 0.438021 0.374537 0.048958 0.319444
0 0.112500 0.209259 0.010417 0.016667
2 0.518490 0.085648 0.011979 0.034259
1 0.519010 0.063889 0.006771 0.011111
4 0.491667 0.082407 0.012500 0.029630
3 0.492969 0.100000 0.016146 0.087037
0 0.492188 0.061574 0.007292 0.012037
