4 0.324479 0.811111 0.114583 0.214815
2 0.383333 0.664352 0.109375 0.469444
1 0.267969 0.0814815 0.00572917 0.0111111
2 0.0765625 0.272685 0.015625 0.0861111
2 0.269792 0.107407 0.0125 0.0592593
2 0.269531 0.0986111 0.00989583 0.025
2 0.0763021 0.263426 0.0119792 0.0324074
1 0.182031 0.178241 0.00989583 0.0212963
1 0.0755208 0.236574 0.00833333 0.0175926
2 0.323438 0.808333 0.11875 0.22963
3 0.24375 0.109722 0.0135417 0.0601852
2 0.182031 0.209259 0.0171875 0.0462963
3 0.269792 0.108333 0.0135417 0.062963
3 0.0768229 0.274074 0.0161458 0.087037
3 0.328646 0.827315 0.1375 0.328704
3 0.184375 0.23287 0.0260417 0.128704
1 0.303646 0.699537 0.0479167 0.0805556
2 0.374479 0.60787 0.08125 0.19537
1 0.384375 0.47037 0.0427083 0.0833333
3 0.384635 0.665278 0.117188 0.476852
