2 0.185938 0.130556 0.010417 0.025926
3 0.161198 0.254630 0.020313 0.094444
4 0.509115 0.057870 0.007812 0.023148
3 0.186719 0.142130 0.015104 0.069444
3 0.375521 0.334259 0.040625 0.274074
2 0.373437 0.279167 0.032292 0.112037
2 0.221094 0.298148 0.035937 0.081481
3 0.225000 0.339815 0.053125 0.214815
1 0.431510 0.246759 0.020313 0.045370
3 0.508594 0.073611 0.011979 0.062037
1 0.206510 0.244444 0.017188 0.029630
1 0.367448 0.207870 0.022396 0.034259
0 0.347135 0.255093 0.027604 0.039815
4 0.437760 0.321759 0.034896 0.108333
3 0.438542 0.375926 0.048958 0.312963
3 0.349740 0.391667 0.071354 0.331481
2 0.347396 0.351852 0.056250 0.144444
