3 0.231510 0.117593 0.009896 0.057407
2 0.287760 0.112963 0.010937 0.027778
3 0.273698 0.083796 0.009896 0.043519
3 0.304167 0.080556 0.015625 0.044444
2 0.129688 0.241204 0.014583 0.041667
1 0.127344 0.210648 0.008854 0.017593
3 0.129688 0.254630 0.017708 0.105556
3 0.289062 0.127315 0.016667 0.082407
1 0.430208 0.245370 0.020833 0.038889
1 0.365885 0.219907 0.019271 0.045370
0 0.341667 0.275463 0.031250 0.047222
2 0.370573 0.282870 0.036979 0.110185
2 0.346094 0.381019 0.064062 0.158333
4 0.437240 0.318981 0.034896 0.113889
3 0.344010 0.424537 0.068229 0.356481
3 0.368490 0.333333 0.051562 0.268519
3 0.437500 0.380093 0.050000 0.300926
2 0.274740 0.080093 0.005729 0.019444
