3 0.241146 0.110648 0.011458 0.067593
2 0.259635 0.100000 0.009896 0.027778
3 0.260156 0.112963 0.014063 0.066667
2 0.127865 0.241667 0.014063 0.038889
1 0.123438 0.212037 0.009375 0.018519
3 0.129688 0.256944 0.020833 0.108333
1 0.367708 0.204630 0.022917 0.031481
1 0.422917 0.264352 0.021875 0.043519
0 0.247917 0.307870 0.032292 0.047222
3 0.261719 0.442593 0.072396 0.322222
4 0.429948 0.345833 0.036979 0.112037
2 0.256510 0.416667 0.055729 0.155556
3 0.430208 0.395833 0.048958 0.312037
2 0.368490 0.282870 0.045312 0.113889
3 0.367188 0.329630 0.057292 0.283333
4 0.240104 0.098611 0.009375 0.021296
0 0.240885 0.081944 0.004687 0.008333
