2 0.185156 0.130093 0.009896 0.025000
3 0.185156 0.140741 0.014063 0.068519
1 0.232292 0.231944 0.017708 0.030556
1 0.430990 0.244907 0.019271 0.043519
3 0.374740 0.332407 0.042188 0.268519
1 0.368490 0.208796 0.022396 0.034259
0 0.347917 0.255093 0.027083 0.039815
2 0.372917 0.280093 0.032292 0.108333
2 0.236719 0.291204 0.036979 0.084259
4 0.438021 0.321759 0.035417 0.108333
3 0.438021 0.376389 0.048958 0.313889
3 0.348958 0.392593 0.067708 0.325926
3 0.240365 0.330093 0.051562 0.226852
2 0.347917 0.353704 0.054167 0.142593
1 0.183854 0.112500 0.005208 0.010185
