4 0.517188 0.064815 0.008333 0.020370
3 0.186458 0.141204 0.014583 0.067593
3 0.516406 0.075463 0.014063 0.067593
1 0.164583 0.193056 0.010417 0.023148
2 0.169792 0.226852 0.017708 0.046296
2 0.372917 0.279167 0.032292 0.108333
1 0.430208 0.246296 0.019792 0.042593
1 0.367969 0.208333 0.022396 0.033333
2 0.272135 0.281019 0.030729 0.082407
3 0.374740 0.333796 0.040104 0.273148
1 0.264062 0.223148 0.018750 0.031481
3 0.171615 0.246759 0.021354 0.121296
3 0.274219 0.315741 0.046354 0.214815
4 0.438021 0.320833 0.035417 0.108333
0 0.345313 0.253704 0.029167 0.040741
3 0.437760 0.375000 0.049479 0.316667
2 0.344792 0.351389 0.053125 0.143519
3 0.347135 0.391204 0.069271 0.332407
2 0.186198 0.128704 0.009896 0.020370
1 0.185938 0.112037 0.005208 0.011111
