2 0.184375 0.231019 0.025 0.128704
1 0.26875 0.0810185 0.00625 0.012037
2 0.388802 0.662037 0.108854 0.464815
2 0.0763021 0.271296 0.0151042 0.0851852
2 0.269792 0.106944 0.0125 0.0601852
2 0.323177 0.813889 0.113021 0.224074
1 0.30625 0.706944 0.0510417 0.0842593
2 0.0763021 0.2625 0.0119792 0.0324074
1 0.0755208 0.236111 0.00833333 0.0185185
2 0.269792 0.0981481 0.0104167 0.0259259
1 0.183594 0.172685 0.0109375 0.0231481
3 0.329427 0.831481 0.138021 0.32037
3 0.24401 0.109722 0.0130208 0.0601852
3 0.0768229 0.273148 0.0161458 0.087037
2 0.183073 0.210185 0.0182292 0.05
3 0.269792 0.108333 0.0135417 0.0648148
3 0.185156 0.231481 0.0265625 0.135185
1 0.392708 0.472685 0.04375 0.0824074
3 0.390104 0.665278 0.116667 0.469444
2 0.379948 0.608333 0.0796875 0.198148
