2 0.259115 0.103241 0.013021 0.028704
4 0.235937 0.103704 0.010417 0.024074
2 0.082812 0.260185 0.015625 0.042593
3 0.236979 0.112963 0.013542 0.064815
1 0.080990 0.228704 0.007812 0.018519
3 0.085417 0.273611 0.020833 0.108333
3 0.260417 0.113889 0.014583 0.068519
0 0.025000 0.493519 0.034375 0.059259
1 0.326562 0.255093 0.022917 0.041667
1 0.395313 0.340741 0.027083 0.051852
2 0.332031 0.329167 0.047396 0.113889
3 0.071354 0.664352 0.122917 0.402778
2 0.050260 0.622222 0.065104 0.164815
3 0.332031 0.391667 0.064062 0.324074
4 0.408073 0.438889 0.049479 0.137037
3 0.407292 0.501389 0.065625 0.375000
0 0.234896 0.083796 0.005208 0.008333
1 0.258594 0.084722 0.005729 0.010185
1 0.251302 0.085185 0.004687 0.009259
2 0.251042 0.101389 0.005208 0.021296
3 0.250521 0.110185 0.006250 0.057407
