2 0.327865 0.213426 0.028646 0.063889
3 0.328385 0.214815 0.034896 0.120370
3 0.173437 0.143519 0.012500 0.068519
1 0.126823 0.214815 0.008854 0.018519
2 0.128385 0.236111 0.013021 0.035185
1 0.432812 0.244907 0.018750 0.043519
3 0.129688 0.252315 0.016667 0.097222
2 0.370833 0.275463 0.034375 0.108333
1 0.367708 0.210185 0.020833 0.037037
3 0.376042 0.330093 0.040625 0.258333
0 0.341667 0.255556 0.026042 0.037037
4 0.439323 0.321759 0.034896 0.108333
3 0.439323 0.375926 0.048438 0.312963
2 0.340365 0.350463 0.054688 0.143519
3 0.345313 0.392130 0.070833 0.328704
2 0.172917 0.134722 0.006250 0.025000
1 0.171354 0.116667 0.006250 0.012963
1 0.327344 0.169444 0.014063 0.025926
