3 0.259375 0.110185 0.012500 0.064815
2 0.128906 0.241204 0.014063 0.039815
1 0.126302 0.210648 0.009896 0.017593
3 0.129948 0.254167 0.017188 0.104630
1 0.414583 0.251852 0.019792 0.042593
1 0.363281 0.205093 0.023438 0.032407
0 0.285938 0.285648 0.034375 0.047222
2 0.367448 0.281481 0.045312 0.114815
3 0.365885 0.328704 0.056771 0.281481
4 0.424219 0.331019 0.038021 0.117593
2 0.291146 0.394907 0.063542 0.154630
3 0.424740 0.388889 0.048438 0.318519
3 0.294271 0.431019 0.076042 0.334259
2 0.258854 0.099537 0.011458 0.026852
3 0.240885 0.110185 0.013021 0.064815
4 0.240104 0.097685 0.009375 0.023148
0 0.240104 0.081944 0.006250 0.008333
