3 0.178125 0.143056 0.012500 0.067593
2 0.132292 0.231944 0.014583 0.039815
1 0.128906 0.206481 0.008854 0.018519
1 0.281771 0.198148 0.015625 0.029630
3 0.133594 0.255556 0.018229 0.116667
2 0.372656 0.278241 0.032813 0.106481
1 0.432812 0.245370 0.019792 0.042593
2 0.284375 0.253704 0.031250 0.079630
3 0.374740 0.332407 0.042188 0.264815
1 0.368490 0.208796 0.023438 0.034259
0 0.346615 0.254167 0.027604 0.039815
4 0.438542 0.321759 0.034375 0.108333
3 0.285938 0.291667 0.042708 0.218519
3 0.437760 0.375926 0.048438 0.312963
2 0.345833 0.351852 0.052083 0.144444
3 0.348438 0.392130 0.068750 0.332407
2 0.176563 0.132870 0.007292 0.023148
1 0.175521 0.115741 0.005208 0.012963
