1 0.573177 0.950926 0.064062 0.098148
2 0.280990 0.092593 0.007812 0.024074
2 0.077344 0.261574 0.013021 0.037963
3 0.247917 0.105556 0.011458 0.059259
3 0.077604 0.275926 0.014583 0.101852
0 0.251302 0.157407 0.013021 0.020370
1 0.076563 0.234259 0.009375 0.018519
3 0.254167 0.230556 0.040625 0.168519
3 0.281510 0.098148 0.014063 0.055556
3 0.615365 0.742593 0.120313 0.442593
2 0.614323 0.701852 0.102604 0.233333
2 0.251563 0.203241 0.021875 0.056481
1 0.618750 0.581944 0.055208 0.117593
4 0.247135 0.093981 0.009896 0.021296
1 0.281771 0.075000 0.004167 0.009259
3 0.542188 0.951852 0.128125 0.096296
4 0.513021 0.973611 0.063542 0.052778
