3 0.242708 0.118981 0.012500 0.067593
2 0.129167 0.241667 0.014583 0.040741
3 0.129688 0.254630 0.017708 0.103704
1 0.126042 0.209259 0.009375 0.020370
1 0.431510 0.243056 0.019271 0.043519
1 0.364063 0.213889 0.021875 0.042593
3 0.337240 0.418056 0.083854 0.349074
2 0.335938 0.387037 0.063542 0.155556
0 0.331510 0.279167 0.033854 0.045370
3 0.369792 0.337500 0.055208 0.275000
2 0.366146 0.288426 0.040625 0.123148
4 0.437760 0.318519 0.034896 0.112963
3 0.436719 0.378241 0.051562 0.306481
3 0.251563 0.106481 0.009375 0.057407
4 0.251823 0.097222 0.008854 0.016667
