3 0.295573 0.079630 0.009896 0.038889
3 0.264844 0.079167 0.007812 0.028704
2 0.270573 0.113426 0.010937 0.026852
3 0.238021 0.116667 0.013542 0.055556
1 0.125781 0.211111 0.008854 0.018519
2 0.128385 0.242130 0.014063 0.041667
3 0.129948 0.255556 0.018229 0.107407
3 0.269792 0.127315 0.015625 0.071296
1 0.365365 0.218981 0.019271 0.047222
1 0.428646 0.244444 0.018750 0.042593
2 0.346615 0.379167 0.063021 0.156481
4 0.437240 0.319444 0.034896 0.112963
0 0.341146 0.271296 0.031250 0.044444
2 0.369531 0.283333 0.036979 0.112963
3 0.344531 0.423611 0.069271 0.356481
3 0.369271 0.331944 0.051042 0.267593
3 0.437500 0.380556 0.050000 0.300000
1 0.268750 0.094907 0.004167 0.010185
4 0.295573 0.078241 0.008854 0.017593
0 0.294792 0.062500 0.005208 0.006481
1 0.264583 0.068981 0.004167 0.006481
2 0.265104 0.082407 0.008333 0.018519
2 0.237760 0.112037 0.007812 0.027778
1 0.241406 0.096296 0.005729 0.011111
