2 0.257292 0.099074 0.010417 0.020370
3 0.068490 0.604167 0.065104 0.176852
3 0.235156 0.112963 0.011979 0.064815
2 0.076302 0.258796 0.013021 0.036111
1 0.076042 0.231944 0.008333 0.017593
3 0.076302 0.270370 0.016146 0.096296
3 0.257812 0.110648 0.011458 0.056481
1 0.398438 0.366667 0.029167 0.059259
1 0.318490 0.252778 0.026562 0.044444
0 0.046875 0.470833 0.034375 0.060185
3 0.328385 0.392593 0.066146 0.320370
4 0.414844 0.471296 0.049479 0.144444
2 0.067187 0.605556 0.062500 0.172222
2 0.324740 0.333333 0.048438 0.124074
3 0.081250 0.647685 0.106250 0.419444
3 0.415365 0.531481 0.067187 0.388889
0 0.234115 0.084259 0.005729 0.007407
4 0.234115 0.100463 0.009896 0.021296
1 0.257292 0.085648 0.005208 0.008333
1 0.250781 0.085648 0.003646 0.008333
