2 0.128646 0.240278 0.014583 0.037963
3 0.246615 0.115741 0.015104 0.061111
1 0.126302 0.211111 0.009896 0.022222
1 0.425521 0.249537 0.018750 0.043519
3 0.129948 0.253241 0.018229 0.102778
1 0.367188 0.206481 0.023958 0.035185
3 0.300000 0.418056 0.068750 0.323148
0 0.292969 0.281019 0.030729 0.045370
2 0.367188 0.281019 0.041667 0.110185
4 0.438542 0.319444 0.034375 0.111111
3 0.437240 0.378241 0.050521 0.304630
2 0.298438 0.389815 0.055208 0.150000
3 0.365365 0.330556 0.057813 0.275926
2 0.246094 0.108796 0.009896 0.023148
