3 0.240365 0.109722 0.011979 0.067593
3 0.259896 0.106481 0.013542 0.062963
1 0.105990 0.219444 0.009896 0.022222
2 0.112240 0.246296 0.015104 0.044444
3 0.114062 0.258333 0.026042 0.101852
1 0.358073 0.221296 0.023438 0.038889
1 0.425260 0.270370 0.022396 0.042593
2 0.361458 0.296296 0.046875 0.122222
0 0.204687 0.325926 0.032292 0.048148
3 0.217708 0.480093 0.080208 0.362037
4 0.433073 0.351389 0.038021 0.110185
3 0.363542 0.341667 0.060417 0.281481
3 0.431510 0.398611 0.052604 0.306481
2 0.213542 0.436574 0.064583 0.158333
4 0.240365 0.099074 0.009896 0.022222
2 0.259375 0.100000 0.012500 0.029630
