3 0.376563 0.351389 0.042708 0.306481
3 0.078385 0.278241 0.031771 0.106481
3 0.497917 0.098148 0.014583 0.083333
1 0.232031 0.190741 0.014063 0.027778
2 0.523438 0.083333 0.012500 0.031481
2 0.240625 0.219907 0.027083 0.058333
2 0.374740 0.280093 0.033854 0.102778
3 0.176302 0.250463 0.024479 0.126852
3 0.861979 0.807870 0.147917 0.384259
1 0.172396 0.195370 0.009375 0.020370
3 0.522917 0.094907 0.016667 0.080556
2 0.173437 0.228704 0.019792 0.046296
3 0.240365 0.268519 0.032813 0.183333
1 0.910417 0.665278 0.041667 0.086111
0 0.339844 0.255093 0.027604 0.043519
1 0.431771 0.245370 0.020833 0.042593
3 0.344010 0.390278 0.069271 0.326852
1 0.365885 0.209259 0.023438 0.033333
2 0.340365 0.350463 0.053646 0.134259
4 0.438281 0.322222 0.034896 0.111111
3 0.436458 0.373148 0.048958 0.314815
2 0.072917 0.272222 0.015625 0.048148
0 0.069271 0.235185 0.010417 0.014815
2 0.195833 0.125926 0.008333 0.020370
3 0.195833 0.141204 0.011458 0.062037
4 0.498698 0.081481 0.011979 0.027778
0 0.500000 0.062037 0.008333 0.011111
1 0.524479 0.060185 0.006250 0.011111
2 0.864062 0.793056 0.065625 0.184259
