2 0.262240 0.100926 0.010937 0.025926
3 0.244792 0.107870 0.012500 0.058333
2 0.077344 0.262500 0.014063 0.037963
1 0.075781 0.231481 0.008854 0.022222
3 0.263021 0.108796 0.013542 0.063889
3 0.079687 0.266667 0.018750 0.090741
1 0.279167 0.358796 0.034375 0.062037
0 0.031250 0.550463 0.040625 0.067593
1 0.393490 0.429630 0.038021 0.064815
4 0.404948 0.545833 0.061979 0.162037
3 0.075000 0.738426 0.138542 0.456481
2 0.059115 0.700000 0.086979 0.194444
3 0.402865 0.605093 0.076563 0.402778
2 0.298698 0.465278 0.070312 0.176852
3 0.302865 0.530556 0.090104 0.401852
3 0.084115 0.244444 0.020313 0.101852
4 0.081771 0.226852 0.014583 0.035185
4 0.243229 0.095833 0.008333 0.019444
