2 0.259115 0.095833 0.008854 0.025000
3 0.259896 0.106481 0.013542 0.062963
1 0.107813 0.218519 0.009375 0.020370
2 0.113021 0.247222 0.015625 0.044444
3 0.117188 0.259722 0.022917 0.100926
1 0.359635 0.218519 0.023438 0.037037
1 0.424740 0.269907 0.022396 0.041667
2 0.364063 0.296296 0.046875 0.122222
3 0.218490 0.469444 0.080729 0.338889
0 0.204948 0.325926 0.032813 0.048148
3 0.365365 0.341667 0.058854 0.281481
4 0.432812 0.350463 0.037500 0.108333
3 0.432031 0.398611 0.051562 0.306481
2 0.213542 0.437037 0.064583 0.159259
3 0.240104 0.110185 0.012500 0.066667
4 0.240104 0.099074 0.009375 0.022222
