3 0.157292 0.146759 0.010417 0.054630
2 0.354687 0.168519 0.022917 0.050000
3 0.355469 0.178241 0.028646 0.102778
2 0.129167 0.232407 0.013542 0.037037
1 0.127344 0.207407 0.008854 0.018519
1 0.352865 0.137963 0.010937 0.024074
1 0.367188 0.215278 0.018750 0.034259
1 0.433073 0.247685 0.019271 0.043519
2 0.371615 0.277778 0.031771 0.100000
3 0.130990 0.250000 0.017188 0.101852
3 0.375781 0.331481 0.042188 0.261111
4 0.439323 0.320370 0.032813 0.109259
0 0.342708 0.254630 0.029167 0.040741
3 0.439323 0.376852 0.048438 0.312963
2 0.342187 0.355093 0.057292 0.150926
3 0.346094 0.395370 0.073438 0.335185
2 0.157292 0.141204 0.008333 0.023148
