3 0.448177 0.931944 0.108854 0.136111
2 0.276823 0.094907 0.007812 0.025000
3 0.248698 0.105093 0.011979 0.062037
3 0.078125 0.276852 0.014583 0.100000
2 0.076823 0.264815 0.011979 0.037037
1 0.076563 0.234722 0.008333 0.019444
0 0.228906 0.155093 0.010937 0.013889
3 0.277865 0.103704 0.014063 0.061111
2 0.227344 0.201389 0.022396 0.052778
3 0.528125 0.733796 0.101042 0.467593
3 0.227604 0.227778 0.023958 0.159259
2 0.524219 0.681481 0.079687 0.200000
1 0.542448 0.553704 0.053646 0.105556
4 0.250000 0.093981 0.008333 0.019444
1 0.277344 0.076852 0.003646 0.009259
1 0.461719 0.920833 0.069271 0.108333
