2 0.444792 0.327778 0.039583 0.103704
1 0.364323 0.214815 0.020313 0.033333
1 0.435156 0.248148 0.023438 0.033333
4 0.364583 0.280556 0.038542 0.092593
2 0.262240 0.350463 0.043229 0.117593
2 0.607812 0.262037 0.031250 0.092593
4 0.444792 0.330093 0.038542 0.106481
3 0.365365 0.333796 0.046354 0.280556
3 0.605990 0.303704 0.039062 0.240741
3 0.446615 0.371296 0.048438 0.290741
3 0.268750 0.389352 0.064583 0.297222
3 0.175521 0.249074 0.021875 0.127778
2 0.174219 0.231944 0.016146 0.045370
1 0.170573 0.196296 0.009896 0.024074
3 0.132292 0.238889 0.019792 0.112963
2 0.132031 0.220370 0.016146 0.048148
1 0.132812 0.189352 0.009375 0.015741
0 0.301042 0.145370 0.012500 0.024074
2 0.303125 0.182407 0.014583 0.046296
3 0.305729 0.193056 0.021875 0.121296
1 0.612240 0.209722 0.014063 0.037963
0 0.251042 0.260648 0.022917 0.037963
