3 0.171094 0.142593 0.011979 0.066667
1 0.127344 0.213889 0.008854 0.018519
2 0.131510 0.243981 0.013021 0.036111
2 0.372917 0.275926 0.029167 0.100000
1 0.433594 0.244907 0.020313 0.043519
3 0.130208 0.252315 0.016667 0.097222
1 0.367448 0.215278 0.019271 0.037963
3 0.376823 0.331019 0.040104 0.256481
4 0.439063 0.321759 0.035417 0.108333
0 0.343490 0.253704 0.028646 0.040741
3 0.439323 0.376389 0.048438 0.312037
2 0.342708 0.350463 0.053125 0.143519
3 0.346615 0.392130 0.068229 0.328704
2 0.172135 0.136574 0.005729 0.028704
1 0.334896 0.165741 0.011458 0.024074
2 0.336979 0.208333 0.019792 0.051852
3 0.336458 0.224537 0.034375 0.139815
1 0.169271 0.117593 0.006250 0.011111
