2 0.128646 0.241204 0.014583 0.039815
3 0.129688 0.253704 0.017708 0.107407
1 0.126042 0.209722 0.009375 0.021296
1 0.364583 0.213889 0.021875 0.040741
1 0.430990 0.242593 0.020313 0.044444
3 0.335938 0.417593 0.082292 0.353704
2 0.335938 0.385185 0.063542 0.151852
0 0.330990 0.277778 0.033854 0.044444
4 0.437760 0.319444 0.034896 0.112963
2 0.365365 0.286111 0.039062 0.118519
3 0.367969 0.337037 0.051562 0.285185
3 0.437240 0.379167 0.051562 0.312037
3 0.252344 0.100926 0.009896 0.053704
4 0.252604 0.095833 0.008333 0.017593
