3 0.241406 0.109259 0.010937 0.064815
3 0.259635 0.114352 0.014063 0.073148
2 0.128906 0.240278 0.014063 0.037963
1 0.126562 0.209259 0.009375 0.020370
3 0.129688 0.254167 0.017708 0.104630
1 0.418490 0.257407 0.020313 0.042593
1 0.368490 0.207870 0.023438 0.036111
0 0.297656 0.280556 0.031771 0.044444
2 0.368490 0.281944 0.043229 0.113889
3 0.297656 0.423148 0.074479 0.333333
3 0.367448 0.331019 0.055729 0.276852
3 0.427865 0.392593 0.048438 0.318519
4 0.426563 0.338426 0.037500 0.119444
2 0.296615 0.389815 0.060937 0.151852
4 0.240885 0.098611 0.009896 0.021296
0 0.241406 0.081944 0.006771 0.010185
2 0.259635 0.101389 0.013021 0.028704
