2 0.102865 0.244444 0.013021 0.053704
1 0.427865 0.248148 0.017188 0.033333
0 0.305990 0.265278 0.022396 0.050926
1 0.362240 0.218519 0.023438 0.037037
3 0.101562 0.255556 0.017708 0.105556
1 0.170313 0.195370 0.010417 0.022222
3 0.172917 0.243981 0.021875 0.123148
3 0.518750 0.096296 0.018750 0.079630
2 0.173437 0.228241 0.020833 0.045370
2 0.368490 0.285185 0.043229 0.107407
3 0.371354 0.333796 0.054167 0.269444
2 0.310417 0.369444 0.051042 0.116667
4 0.437240 0.321296 0.035937 0.112963
3 0.311979 0.400000 0.065625 0.316667
3 0.435677 0.375926 0.047396 0.307407
2 0.519531 0.082870 0.009896 0.028704
1 0.520833 0.061574 0.006250 0.010185
4 0.493750 0.084722 0.012500 0.030556
3 0.494010 0.100463 0.017188 0.086111
0 0.494792 0.064352 0.007292 0.015741
1 0.229167 0.187963 0.011458 0.025926
2 0.238802 0.219907 0.022396 0.049074
3 0.241146 0.251389 0.036458 0.156481
0 0.100000 0.215278 0.009375 0.021296
1 0.794010 0.558796 0.031771 0.080556
2 0.765365 0.668981 0.064062 0.186111
3 0.751042 0.737037 0.121875 0.420370
