2 0.0763021 0.272222 0.0151042 0.087037
1 0.271354 0.0805556 0.00625 0.0111111
2 0.411198 0.660648 0.0953125 0.460185
1 0.075 0.235648 0.00833333 0.0175926
4 0.334115 0.860648 0.124479 0.213889
2 0.335677 0.851389 0.125521 0.287963
2 0.0757812 0.262037 0.0119792 0.0333333
3 0.245833 0.109722 0.0135417 0.0601852
2 0.271615 0.0962963 0.00989583 0.0259259
1 0.192708 0.169444 0.0125 0.0259259
3 0.334635 0.848611 0.129688 0.293519
3 0.0765625 0.273611 0.0166667 0.0898148
1 0.328385 0.752315 0.0515625 0.0953704
3 0.271875 0.107407 0.0135417 0.0648148
2 0.190885 0.208333 0.0192708 0.0518519
3 0.192448 0.232407 0.0255208 0.142593
2 0.409375 0.605093 0.078125 0.200926
1 0.43151 0.466204 0.0473958 0.0824074
3 0.411198 0.660648 0.0963542 0.460185
