1 0.433594 0.247685 0.020313 0.034259
1 0.364844 0.208796 0.026562 0.037963
1 0.616146 0.216667 0.017708 0.027778
2 0.611719 0.276852 0.031771 0.094444
2 0.262240 0.349537 0.043229 0.115741
4 0.440365 0.325000 0.034896 0.100000
2 0.365365 0.284722 0.042188 0.102778
3 0.366146 0.331944 0.051042 0.286111
3 0.440885 0.368519 0.045312 0.292593
3 0.273177 0.387963 0.068229 0.298148
3 0.612760 0.318519 0.040104 0.231481
1 0.250521 0.258796 0.022917 0.041667
3 0.175260 0.250000 0.020313 0.129630
2 0.174740 0.230556 0.016146 0.050000
1 0.171354 0.196296 0.010417 0.020370
3 0.294010 0.198611 0.031771 0.119444
0 0.287500 0.149537 0.013542 0.023148
2 0.292448 0.185648 0.025521 0.049074
