2 0.526042 0.072685 0.009375 0.032407
3 0.174219 0.244444 0.021354 0.124074
2 0.502865 0.073148 0.010937 0.027778
3 0.503906 0.087037 0.015104 0.075926
1 0.171615 0.194444 0.010937 0.022222
3 0.525260 0.081481 0.016146 0.068519
2 0.173698 0.227778 0.019271 0.050000
1 0.362240 0.217130 0.024479 0.041667
1 0.205990 0.192593 0.010937 0.024074
1 0.433073 0.248148 0.020313 0.042593
2 0.208594 0.226389 0.023438 0.056481
3 0.208073 0.255556 0.027604 0.155556
3 0.344531 0.391204 0.070312 0.323148
4 0.437760 0.324074 0.034896 0.109259
0 0.341667 0.255093 0.028125 0.039815
2 0.342448 0.355093 0.055729 0.141667
3 0.438802 0.376389 0.049479 0.308333
2 0.367969 0.285648 0.034896 0.110185
3 0.374740 0.334722 0.051562 0.263889
1 0.527083 0.052778 0.004167 0.009259
0 0.504167 0.054167 0.006250 0.008333
2 0.187240 0.129167 0.007812 0.023148
3 0.185677 0.141204 0.011979 0.063889
