2 0.187760 0.127778 0.009896 0.022222
2 0.519792 0.070370 0.010417 0.027778
3 0.505990 0.083333 0.010937 0.068519
3 0.519010 0.078704 0.014063 0.064815
3 0.187760 0.139815 0.013021 0.062963
2 0.255469 0.216204 0.024479 0.056481
1 0.430990 0.245370 0.018229 0.038889
1 0.255990 0.178241 0.011979 0.025000
0 0.337240 0.253241 0.029687 0.036111
2 0.173698 0.228241 0.019271 0.047222
3 0.254688 0.256481 0.036458 0.181481
3 0.173698 0.248611 0.022396 0.130556
2 0.369792 0.280093 0.037500 0.108333
1 0.171615 0.194444 0.009896 0.018519
1 0.367188 0.210648 0.020833 0.030556
4 0.438021 0.323148 0.033333 0.111111
3 0.341146 0.391204 0.067708 0.321296
3 0.372135 0.333333 0.048438 0.270370
3 0.437240 0.375000 0.047396 0.309259
2 0.337240 0.352315 0.052604 0.136111
4 0.506771 0.069444 0.009375 0.022222
0 0.506771 0.051852 0.006250 0.007407
1 0.519531 0.051852 0.005729 0.011111
