2 0.525521 0.072685 0.008333 0.030556
4 0.503906 0.070370 0.010937 0.022222
3 0.504427 0.084722 0.015104 0.078704
3 0.174219 0.249537 0.020313 0.119444
3 0.525781 0.081944 0.014063 0.069444
1 0.171615 0.193981 0.010937 0.023148
2 0.173437 0.228241 0.018750 0.050926
1 0.433594 0.248611 0.020313 0.045370
1 0.362240 0.215278 0.023438 0.039815
1 0.205208 0.193519 0.012500 0.025926
2 0.207813 0.227315 0.022917 0.056481
3 0.207292 0.257870 0.029167 0.149074
3 0.346094 0.391667 0.069271 0.322222
4 0.439063 0.325000 0.034375 0.105556
0 0.341406 0.256019 0.028646 0.041667
2 0.342969 0.355093 0.053646 0.141667
3 0.439323 0.377778 0.048438 0.305556
2 0.367188 0.284722 0.036458 0.106481
3 0.372656 0.332870 0.048438 0.263889
2 0.187500 0.130093 0.008333 0.023148
3 0.185938 0.140741 0.012500 0.062963
1 0.526042 0.052315 0.004167 0.008333
0 0.504167 0.053241 0.005208 0.006481
