3 0.193229 0.137037 0.013542 0.068519
2 0.129688 0.242593 0.014583 0.038889
1 0.125260 0.212963 0.008854 0.018519
3 0.129688 0.254630 0.018750 0.103704
1 0.366927 0.217130 0.019271 0.047222
2 0.347917 0.381944 0.061458 0.158333
1 0.430990 0.244907 0.019271 0.043519
0 0.340885 0.272685 0.031771 0.047222
4 0.437760 0.319444 0.033854 0.111111
2 0.371094 0.282870 0.036979 0.112037
3 0.368490 0.343056 0.051562 0.297222
3 0.343490 0.426852 0.065104 0.357407
3 0.437500 0.379167 0.052083 0.306481
2 0.196094 0.125000 0.006771 0.024074
3 0.296875 0.082407 0.010417 0.048148
2 0.298698 0.075000 0.005729 0.020370
1 0.296615 0.061574 0.003646 0.006481
