1 0.234896 0.181019 0.011458 0.023148
0 0.365365 0.207870 0.021354 0.034259
1 0.427865 0.245370 0.018229 0.035185
1 0.365365 0.209722 0.021354 0.036111
3 0.240885 0.244444 0.030729 0.148148
3 0.174740 0.250463 0.022396 0.125000
1 0.170833 0.196759 0.010417 0.023148
1 0.697917 0.417593 0.036458 0.064815
3 0.512760 0.100463 0.018229 0.087963
2 0.173958 0.229167 0.019792 0.047222
0 0.273438 0.271296 0.029167 0.038889
2 0.367708 0.280556 0.040625 0.107407
2 0.678906 0.510185 0.052604 0.148148
2 0.278906 0.374537 0.050521 0.136111
3 0.368490 0.331019 0.055729 0.276852
4 0.437240 0.322222 0.036979 0.114815
3 0.674740 0.574537 0.072396 0.380556
3 0.280208 0.409259 0.065625 0.316667
3 0.441146 0.375000 0.048958 0.318519
2 0.515104 0.087037 0.009375 0.035185
1 0.515104 0.062963 0.007292 0.011111
2 0.238281 0.206944 0.022396 0.050926
