3 0.277865 0.084259 0.011979 0.046296
2 0.128646 0.238889 0.014583 0.038889
1 0.126562 0.212963 0.009375 0.018519
3 0.128646 0.254167 0.016667 0.104630
1 0.431250 0.245833 0.020833 0.041667
1 0.366927 0.219444 0.020313 0.050000
2 0.346615 0.381019 0.060937 0.158333
4 0.437500 0.318519 0.034375 0.111111
0 0.340365 0.271296 0.029687 0.044444
2 0.369531 0.282407 0.036979 0.111111
3 0.369531 0.333333 0.052604 0.268519
3 0.341667 0.425463 0.063542 0.358333
3 0.437760 0.379630 0.052604 0.300000
2 0.280469 0.079630 0.006771 0.022222
1 0.278906 0.065278 0.003646 0.006481
0 0.302604 0.059722 0.004167 0.002778
3 0.308073 0.078241 0.017188 0.039815
3 0.299740 0.125926 0.018229 0.075926
2 0.300000 0.113889 0.010417 0.027778
1 0.298177 0.093519 0.005729 0.011111
