2 0.128646 0.240278 0.014583 0.037963
3 0.246615 0.115278 0.015104 0.062037
1 0.126302 0.210648 0.009896 0.021296
3 0.129688 0.253241 0.017708 0.102778
1 0.424219 0.250000 0.019271 0.042593
1 0.367188 0.206944 0.023958 0.036111
3 0.296615 0.434722 0.067187 0.356481
0 0.290365 0.281019 0.030729 0.045370
2 0.367188 0.280556 0.041667 0.109259
4 0.438542 0.319907 0.035417 0.112037
3 0.437240 0.379630 0.050521 0.312963
3 0.365365 0.330556 0.057813 0.274074
2 0.296615 0.389815 0.055729 0.150000
2 0.246615 0.109722 0.009896 0.026852
