2 0.164844 0.22037 0.0203125 0.0740741
2 0.0768229 0.273148 0.0151042 0.087037
2 0.269531 0.0976852 0.00989583 0.025
4 0.242448 0.0981481 0.00989583 0.0222222
3 0.320833 0.584722 0.0927083 0.365741
2 0.0763021 0.262963 0.0119792 0.0333333
1 0.0760417 0.236574 0.00833333 0.0175926
3 0.166146 0.234259 0.0229167 0.135185
3 0.269271 0.107407 0.0135417 0.062963
2 0.35651 0.739352 0.0817708 0.193519
3 0.242708 0.108796 0.0135417 0.062037
3 0.0768229 0.274074 0.0161458 0.0888889
3 0.354948 0.798148 0.100521 0.403704
4 0.355729 0.74213 0.0864583 0.197222
1 0.326042 0.4375 0.0427083 0.0787037
