4 0.43724 0.364815 0.0442708 0.261111
2 0.17526 0.246759 0.0213542 0.108333
2 0.525521 0.0810185 0.0125 0.0361111
3 0.515104 0.0888889 0.0229167 0.0759259
2 0.375781 0.266667 0.0307292 0.0925926
3 0.501302 0.0925926 0.0130208 0.0666667
3 0.37474 0.26713 0.0317708 0.117593
3 0.240104 0.241204 0.025 0.134259
2 0.174219 0.230093 0.0192708 0.0453704
1 0.235156 0.187037 0.0119792 0.0240741
1 0.172135 0.198148 0.00989583 0.0203704
3 0.523958 0.0912037 0.015625 0.0731481
1 0.365104 0.214352 0.0229167 0.0324074
1 0.430469 0.247685 0.0192708 0.0398148
3 0.17526 0.250926 0.0234375 0.131481
3 0.241927 0.256019 0.0390625 0.202778
2 0.239583 0.222222 0.0197917 0.0592593
0 0.345052 0.256481 0.0276042 0.0388889
4 0.43776 0.325926 0.0328125 0.109259
3 0.345573 0.393056 0.0692708 0.319444
2 0.342187 0.353704 0.0541667 0.140741
3 0.4375 0.377315 0.046875 0.306481
