2 0.075000 0.263426 0.012500 0.043519
2 0.257552 0.098611 0.009896 0.019444
4 0.238281 0.096759 0.009896 0.021296
1 0.075781 0.235185 0.009896 0.016667
3 0.075260 0.273611 0.016146 0.091667
3 0.239063 0.106019 0.011458 0.060185
3 0.258594 0.111111 0.013021 0.064815
2 0.070052 0.595833 0.060937 0.173148
0 0.049740 0.468519 0.034896 0.059259
1 0.323437 0.280556 0.028125 0.044444
3 0.423958 0.537963 0.071875 0.375926
4 0.427344 0.485185 0.052604 0.144444
1 0.417187 0.380093 0.034375 0.058333
3 0.082292 0.648148 0.102083 0.420370
3 0.328646 0.439815 0.076042 0.370370
2 0.329948 0.375000 0.057813 0.144444
0 0.239063 0.082407 0.005208 0.007407
1 0.257292 0.084259 0.005208 0.009259
