3 0.332031 0.213426 0.034896 0.113889
3 0.173177 0.144444 0.014063 0.066667
2 0.330990 0.209722 0.029687 0.062037
1 0.127344 0.213889 0.008854 0.018519
2 0.129167 0.235185 0.013542 0.035185
1 0.434115 0.245833 0.020313 0.041667
2 0.371615 0.277778 0.031771 0.103704
1 0.367188 0.213889 0.020833 0.038889
3 0.130208 0.252315 0.016667 0.097222
3 0.375260 0.330556 0.041146 0.257407
0 0.341667 0.255093 0.027083 0.039815
4 0.439063 0.321759 0.035417 0.108333
3 0.439323 0.376389 0.048438 0.312037
2 0.340365 0.350463 0.053646 0.143519
3 0.345573 0.391667 0.070312 0.327778
2 0.173177 0.136111 0.007812 0.029630
1 0.170573 0.117130 0.006771 0.012037
1 0.330208 0.168056 0.013542 0.025000
