3 0.305469 0.078704 0.013021 0.042593
3 0.276562 0.082870 0.009375 0.041667
1 0.126823 0.209722 0.008854 0.017593
2 0.128906 0.240278 0.014063 0.041667
3 0.294792 0.121296 0.016667 0.079630
3 0.129688 0.254167 0.017708 0.106481
1 0.430208 0.243056 0.019792 0.043519
1 0.366667 0.218519 0.019792 0.048148
2 0.346875 0.380093 0.062500 0.156481
0 0.340625 0.271759 0.031250 0.045370
2 0.369531 0.283333 0.038021 0.111111
4 0.437240 0.318056 0.034896 0.112037
3 0.345313 0.424537 0.065625 0.356481
3 0.368490 0.331944 0.051562 0.267593
3 0.437500 0.380556 0.050000 0.300000
2 0.296615 0.114352 0.010937 0.030556
2 0.278906 0.079630 0.005729 0.020370
0 0.301042 0.060185 0.005208 0.005556
