2 0.169271 0.137037 0.009375 0.027778
1 0.376563 0.097685 0.009375 0.019444
2 0.378385 0.122685 0.011979 0.026852
2 0.129427 0.241204 0.014063 0.037963
3 0.168750 0.145370 0.012500 0.061111
1 0.126302 0.209722 0.008854 0.019444
3 0.377865 0.141667 0.023438 0.109259
2 0.341667 0.387037 0.057292 0.155556
1 0.365885 0.207407 0.021354 0.038889
2 0.366667 0.281481 0.037500 0.109259
3 0.130469 0.250926 0.018229 0.105556
0 0.334115 0.281019 0.031771 0.047222
1 0.433073 0.248611 0.020313 0.045370
3 0.368750 0.333333 0.056250 0.275926
4 0.439063 0.324537 0.034375 0.106481
3 0.343490 0.419444 0.073438 0.329630
3 0.439323 0.378241 0.049479 0.313889
3 0.386719 0.061574 0.011979 0.032407
4 0.389062 0.063889 0.006250 0.018519
0 0.387760 0.048611 0.006771 0.006481
