2 0.156510 0.139352 0.007812 0.023148
2 0.373177 0.132407 0.015104 0.029630
1 0.372917 0.106481 0.007292 0.016667
3 0.157812 0.149074 0.012500 0.064815
3 0.375260 0.152778 0.026562 0.112963
2 0.128646 0.233333 0.013542 0.037037
1 0.126823 0.210648 0.008854 0.019444
1 0.366146 0.209722 0.021875 0.036111
3 0.362760 0.330556 0.061979 0.272222
0 0.352865 0.262037 0.030729 0.046296
2 0.354167 0.368056 0.051042 0.150926
4 0.439063 0.323611 0.033333 0.106481
1 0.431771 0.248611 0.019792 0.043519
3 0.129688 0.247685 0.017708 0.100926
3 0.354948 0.406019 0.069271 0.339815
3 0.439323 0.377778 0.048438 0.314815
2 0.367708 0.279630 0.034375 0.096296
1 0.158594 0.122222 0.004687 0.011111
3 0.360677 0.068519 0.007812 0.042593
2 0.361458 0.065741 0.005208 0.018519
1 0.360417 0.052315 0.005208 0.008333
