2 0.244792 0.107407 0.008333 0.025926
2 0.128906 0.240741 0.014063 0.038889
3 0.244271 0.117130 0.013542 0.063889
1 0.125781 0.209259 0.008854 0.020370
1 0.427865 0.246296 0.019271 0.040741
3 0.129948 0.253704 0.018229 0.103704
1 0.364583 0.209259 0.022917 0.035185
0 0.311198 0.284259 0.030729 0.046296
4 0.437760 0.323148 0.033854 0.107407
3 0.437500 0.379630 0.050000 0.311111
3 0.319531 0.424074 0.067187 0.320370
2 0.316667 0.398148 0.051042 0.150000
2 0.366146 0.282407 0.040625 0.109259
3 0.366406 0.331019 0.054688 0.275000
1 0.247917 0.090278 0.005208 0.010185
