3 0.510417 0.943056 0.123958 0.113889
1 0.539583 0.938889 0.060417 0.098148
3 0.249219 0.104167 0.010937 0.063889
2 0.278646 0.091667 0.008333 0.020370
2 0.594271 0.693056 0.089583 0.208333
3 0.076563 0.274537 0.017708 0.102778
2 0.076302 0.265278 0.014063 0.037963
1 0.076823 0.235185 0.008854 0.022222
3 0.592187 0.749537 0.113542 0.469444
0 0.243229 0.157407 0.011458 0.016667
3 0.247396 0.231019 0.034375 0.165741
3 0.279427 0.097685 0.014063 0.054630
2 0.244271 0.203704 0.023958 0.057407
1 0.607031 0.575926 0.049479 0.122222
4 0.479948 0.971759 0.060937 0.056481
4 0.248958 0.093519 0.008333 0.020370
1 0.279948 0.075000 0.004687 0.009259
