2 0.172396 0.137037 0.009375 0.027778
1 0.376823 0.096296 0.008854 0.018519
2 0.377604 0.121296 0.012500 0.025926
2 0.129427 0.241204 0.014063 0.037963
3 0.172396 0.144907 0.012500 0.056481
3 0.378385 0.140741 0.023438 0.112963
1 0.126042 0.211111 0.009375 0.020370
2 0.341406 0.387500 0.056771 0.156481
1 0.366667 0.209259 0.020833 0.038889
2 0.366667 0.281481 0.037500 0.109259
3 0.129948 0.254630 0.018229 0.107407
0 0.334635 0.281481 0.032813 0.048148
4 0.439063 0.324074 0.033333 0.105556
1 0.432031 0.248148 0.020313 0.044444
3 0.343490 0.420833 0.071354 0.325000
3 0.366667 0.328241 0.058333 0.282407
3 0.439323 0.377778 0.049479 0.314815
3 0.385937 0.061574 0.009375 0.034259
4 0.386458 0.062963 0.007292 0.020370
0 0.385417 0.049074 0.005208 0.007407
