2 0.258073 0.101389 0.009896 0.028704
3 0.258333 0.113426 0.013542 0.069444
2 0.124740 0.241667 0.015104 0.042593
3 0.123438 0.259259 0.018750 0.107407
1 0.119531 0.215741 0.008854 0.018519
1 0.369010 0.205093 0.023438 0.032407
1 0.423438 0.265278 0.020833 0.043519
0 0.224219 0.307407 0.030729 0.046296
2 0.370312 0.283796 0.045833 0.115741
4 0.430990 0.345833 0.035937 0.112037
3 0.240365 0.450000 0.080729 0.340741
2 0.230990 0.417130 0.051562 0.150926
3 0.430990 0.398611 0.048438 0.308333
3 0.368490 0.329630 0.057813 0.285185
4 0.240104 0.098148 0.009375 0.024074
0 0.240625 0.082407 0.004167 0.007407
3 0.241146 0.111111 0.011458 0.062963
