2 0.320312 0.241667 0.027083 0.087037
3 0.320573 0.223148 0.039062 0.125926
3 0.174740 0.144444 0.010937 0.057407
1 0.126562 0.213889 0.008333 0.018519
2 0.128646 0.235185 0.012500 0.035185
1 0.432812 0.243981 0.019792 0.043519
2 0.371615 0.276389 0.032813 0.106481
1 0.368490 0.211111 0.022396 0.038889
3 0.129688 0.251852 0.016667 0.096296
3 0.374740 0.331019 0.042188 0.265741
0 0.342448 0.252778 0.026562 0.038889
4 0.439063 0.321759 0.035417 0.108333
2 0.341406 0.351389 0.055729 0.143519
3 0.439063 0.376389 0.048958 0.313889
3 0.345313 0.392593 0.076042 0.327778
2 0.174740 0.134259 0.006771 0.024074
1 0.318229 0.175463 0.014583 0.030556
