3 0.258073 0.108796 0.013021 0.062037
2 0.129167 0.241204 0.014583 0.039815
1 0.126042 0.209259 0.009375 0.020370
3 0.129688 0.254630 0.017708 0.105556
1 0.417969 0.252778 0.020313 0.042593
1 0.364063 0.205556 0.022917 0.031481
0 0.282031 0.286111 0.033854 0.048148
4 0.425260 0.331019 0.036979 0.115741
2 0.289844 0.396759 0.065104 0.160185
3 0.365885 0.329167 0.055729 0.280556
2 0.367188 0.281019 0.043750 0.113889
3 0.425781 0.383333 0.048438 0.305556
3 0.293750 0.430556 0.081250 0.333333
3 0.241146 0.110648 0.012500 0.065741
4 0.240104 0.100000 0.010417 0.020370
2 0.257812 0.101389 0.011458 0.025000
1 0.257292 0.084259 0.006250 0.011111
0 0.240104 0.081944 0.006250 0.008333
