3 0.402344 0.610938 0.154688 0.709375
4 0.707031 0.517969 0.085938 0.264062
3 0.690625 0.607031 0.137500 0.670312
3 0.213281 0.567187 0.132812 0.603125
4 0.406250 0.556250 0.134375 0.303125
0 0.590625 0.275781 0.081250 0.070312
0 0.693750 0.323437 0.084375 0.075000
0 0.223438 0.307812 0.071875 0.065625
0 0.413281 0.342187 0.082812 0.100000
2 0.210938 0.485938 0.109375 0.250000
4 0.603906 0.465625 0.098437 0.240625
3 0.600781 0.591406 0.114062 0.701562
