2 0.554427 0.091667 0.010937 0.035185
4 0.207292 0.375463 0.036458 0.073148
0 0.191927 0.409722 0.023438 0.049074
4 0.491667 0.312963 0.033333 0.100000
0 0.323958 0.187037 0.017708 0.025926
3 0.467969 0.165278 0.024479 0.158333
3 0.262240 0.356944 0.034896 0.291667
0 0.520833 0.061111 0.009375 0.012963
0 0.484375 0.231019 0.027083 0.043519
2 0.158594 0.405556 0.045312 0.109259
4 0.262240 0.306481 0.030729 0.088889
0 0.331510 0.164815 0.016146 0.027778
3 0.411719 0.393519 0.065104 0.357407
0 0.229948 0.144907 0.010937 0.012037
1 0.154427 0.316667 0.027604 0.031481
0 0.386198 0.478704 0.059896 0.101852
3 0.221094 0.397222 0.066146 0.200000
4 0.233333 0.188889 0.021875 0.053704
0 0.288542 0.262963 0.025000 0.038889
4 0.521354 0.083796 0.012500 0.028704
4 0.295312 0.343519 0.039583 0.101852
4 0.401562 0.344907 0.045833 0.139815
4 0.329688 0.250000 0.031250 0.074074
0 0.261719 0.226852 0.021354 0.031481
3 0.298177 0.392593 0.054688 0.296296
0 0.201042 0.312963 0.023958 0.035185
3 0.490625 0.370370 0.052083 0.320370
3 0.231250 0.216204 0.028125 0.154630
3 0.331250 0.288889 0.040625 0.218519
3 0.554688 0.102315 0.021875 0.097222
4 0.395313 0.669907 0.095833 0.237963
3 0.521615 0.100926 0.019271 0.090741
3 0.385937 0.712500 0.155208 0.575000
3 0.169010 0.471759 0.074479 0.341667
0 0.398698 0.237963 0.032813 0.044444
1 0.281250 0.197685 0.016667 0.034259
4 0.283073 0.225926 0.024479 0.042593
3 0.287500 0.240278 0.034375 0.119444
0 0.321875 0.150926 0.014583 0.022222
4 0.464844 0.143056 0.021354 0.050926
0 0.464323 0.098148 0.011979 0.020370
