0 0.316146 0.281944 0.031250 0.036111
0 0.486198 0.371296 0.056771 0.081481
0 0.602865 0.093519 0.009896 0.014815
4 0.164062 0.423148 0.037500 0.120370
4 0.441406 0.281481 0.029687 0.096296
0 0.238802 0.301389 0.027604 0.047222
0 0.382031 0.243981 0.025521 0.032407
0 0.317708 0.250926 0.029167 0.035185
0 0.285938 0.159259 0.015625 0.025926
4 0.606510 0.130093 0.019271 0.043519
0 0.258073 0.346759 0.042188 0.058333
3 0.205729 0.455556 0.071875 0.353704
3 0.492708 0.223148 0.046875 0.159259
4 0.291667 0.212963 0.022917 0.068519
0 0.187760 0.296759 0.030729 0.034259
3 0.293750 0.237963 0.040625 0.185185
0 0.490104 0.157407 0.016667 0.024074
4 0.200260 0.759259 0.095312 0.240741
0 0.375260 0.193056 0.025521 0.034259
0 0.439844 0.198611 0.029687 0.032407
3 0.273698 0.546759 0.090104 0.462037
0 0.152865 0.334259 0.023438 0.033333
4 0.195312 0.398148 0.047917 0.118519
0 0.416927 0.246759 0.034896 0.041667
0 0.253906 0.249537 0.028646 0.039815
4 0.327344 0.396759 0.051562 0.130556
3 0.604688 0.157870 0.034375 0.143519
4 0.421094 0.369444 0.051562 0.142593
4 0.487500 0.536574 0.064583 0.212037
3 0.421875 0.416667 0.054167 0.383333
3 0.332031 0.450463 0.067187 0.378704
0 0.155990 0.581944 0.048438 0.099074
3 0.213021 0.764352 0.171875 0.471296
4 0.268490 0.483333 0.057813 0.151852
3 0.484115 0.595370 0.073438 0.537037
0 0.490625 0.240278 0.034375 0.041667
3 0.488542 0.283333 0.048958 0.129630
3 0.441146 0.333796 0.034375 0.306481
4 0.379688 0.347685 0.040625 0.126852
3 0.384896 0.387500 0.053125 0.321296
3 0.168750 0.457407 0.065625 0.281481
