3 0.168490 0.197222 0.017188 0.059259
1 0.295833 0.209722 0.018750 0.026852
0 0.038542 0.269444 0.011458 0.018519
4 0.190625 0.455556 0.054167 0.142593
2 0.463281 0.146759 0.019271 0.065741
4 0.163802 0.236574 0.020313 0.047222
3 0.165365 0.237963 0.025521 0.088889
3 0.464583 0.163426 0.022917 0.156481
0 0.168490 0.173148 0.009896 0.011111
4 0.211198 0.195833 0.020313 0.050926
0 0.208594 0.152778 0.011979 0.014815
0 0.179688 0.336111 0.031250 0.044444
4 0.308594 0.268981 0.028646 0.078704
3 0.212240 0.218981 0.025521 0.149074
3 0.308854 0.309722 0.044792 0.230556
3 0.200521 0.508333 0.081250 0.388889
4 0.043490 0.300926 0.022396 0.040741
3 0.045312 0.306944 0.026042 0.099074
0 0.097396 0.291204 0.012500 0.017593
0 0.129688 0.255556 0.010417 0.022222
0 0.144271 0.195833 0.011458 0.017593
4 0.145833 0.237963 0.020833 0.050000
3 0.147135 0.241204 0.024479 0.106481
0 0.157292 0.200000 0.009375 0.014815
0 0.458333 0.093519 0.009375 0.016667
