4 0.156250 0.233796 0.021875 0.056481
4 0.130208 0.265741 0.012500 0.048148
0 0.520573 0.081481 0.011979 0.016667
0 0.073958 0.209722 0.009375 0.013889
4 0.522917 0.127315 0.018750 0.054630
0 0.094010 0.291204 0.009896 0.015741
0 0.125781 0.223148 0.008854 0.014815
0 0.165885 0.171296 0.009896 0.012963
3 0.156510 0.236574 0.028646 0.102778
4 0.188542 0.222685 0.016667 0.043519
0 0.185417 0.184722 0.011458 0.015741
1 0.427865 0.176852 0.019271 0.033333
0 0.155990 0.196759 0.014063 0.021296
3 0.190885 0.239815 0.023438 0.127778
0 0.208333 0.152315 0.012500 0.013889
4 0.210938 0.197222 0.018750 0.053704
4 0.429688 0.235648 0.030208 0.084259
3 0.214583 0.218519 0.025000 0.146296
3 0.524740 0.148611 0.026562 0.147222
3 0.432031 0.279167 0.044271 0.241667
4 0.078906 0.236111 0.017188 0.035185
3 0.079427 0.251852 0.020313 0.098148
