0 0.093229 0.213426 0.010417 0.017593
4 0.371615 0.237963 0.029687 0.066667
0 0.459115 0.118519 0.010937 0.024074
4 0.166667 0.206019 0.015625 0.043519
4 0.134115 0.263426 0.018229 0.049074
0 0.095052 0.293056 0.014063 0.019444
3 0.135156 0.274074 0.022396 0.127778
4 0.187760 0.223611 0.017188 0.043519
4 0.465365 0.157870 0.018229 0.041667
0 0.163021 0.175926 0.009375 0.012963
0 0.184896 0.186111 0.010417 0.012963
0 0.209115 0.151389 0.010937 0.013889
3 0.468229 0.184259 0.028125 0.161111
3 0.190885 0.243981 0.026562 0.128704
3 0.166667 0.224537 0.021875 0.112037
0 0.132292 0.218981 0.014583 0.019444
3 0.520312 0.118519 0.021875 0.116667
1 0.367448 0.184259 0.018229 0.035185
1 0.359115 0.295833 0.032813 0.058333
4 0.211719 0.196759 0.019271 0.054630
3 0.372396 0.220370 0.034375 0.107407
2 0.372917 0.409259 0.063542 0.162963
3 0.213281 0.223611 0.027604 0.158333
3 0.371094 0.469444 0.088021 0.409259
3 0.090885 0.246759 0.033854 0.084259
4 0.520312 0.100000 0.012500 0.033333
0 0.521615 0.066204 0.008854 0.012037
