0 0.167448 0.175000 0.009896 0.012963
0 0.142187 0.201389 0.011458 0.021296
3 0.145573 0.244907 0.022396 0.110185
1 0.345052 0.182407 0.019271 0.029630
4 0.144792 0.239815 0.019792 0.050000
4 0.163802 0.238889 0.017188 0.046296
4 0.280469 0.239815 0.026562 0.064815
3 0.164323 0.238889 0.028646 0.085185
1 0.278385 0.195370 0.011979 0.029630
0 0.471875 0.090278 0.012500 0.017593
4 0.211719 0.195833 0.017188 0.047222
4 0.474740 0.139352 0.017188 0.045370
0 0.208854 0.151852 0.009375 0.014815
3 0.546094 0.074537 0.015104 0.065741
3 0.278385 0.250000 0.031771 0.138889
4 0.337760 0.231019 0.030729 0.076852
3 0.213021 0.217593 0.025000 0.146296
3 0.476042 0.159259 0.029167 0.153704
3 0.340885 0.272685 0.049479 0.210185
0 0.041927 0.267593 0.009896 0.024074
4 0.046875 0.304630 0.021875 0.040741
3 0.047656 0.307407 0.025521 0.103704
0 0.094531 0.292130 0.013021 0.017593
0 0.128646 0.256019 0.008333 0.017593
0 0.155729 0.204630 0.010417 0.012963
0 0.268750 0.241667 0.010417 0.025926
2 0.548438 0.061111 0.008333 0.020370
3 0.545312 0.048611 0.009375 0.041667
3 0.595313 0.050926 0.008333 0.037037
