3 0.496875 0.419907 0.045833 0.376852
3 0.368490 0.233796 0.033854 0.112037
3 0.441667 0.350000 0.037500 0.275926
0 0.982292 0.626852 0.035417 0.120370
3 0.523958 0.047222 0.011458 0.042593
0 0.514844 0.300000 0.039062 0.057407
4 0.952344 0.806019 0.095312 0.180556
0 0.664323 0.238889 0.030729 0.040741
3 0.945052 0.783796 0.109896 0.432407
0 0.257812 0.250926 0.026042 0.038889
0 0.374479 0.247685 0.025000 0.028704
0 0.439063 0.196296 0.027083 0.033333
0 0.508073 0.183333 0.019271 0.022222
0 0.523177 0.236574 0.032813 0.039815
0 0.256250 0.315741 0.038542 0.048148
0 0.311719 0.260185 0.025521 0.042593
4 0.223698 0.318981 0.029687 0.071296
2 0.421875 0.391667 0.040625 0.159259
0 0.409635 0.260185 0.027604 0.029630
0 0.326823 0.266204 0.035937 0.036111
3 0.225000 0.362963 0.037500 0.253704
0 0.166927 0.327778 0.036979 0.042593
0 0.374740 0.325000 0.047396 0.068519
0 0.253385 0.220370 0.024479 0.029630
0 0.440104 0.229167 0.032292 0.032407
0 0.220573 0.251852 0.022396 0.029630
0 0.372396 0.193519 0.025000 0.029630
0 0.325000 0.215741 0.027083 0.033333
4 0.436198 0.333796 0.031771 0.125000
3 0.183594 0.508333 0.071354 0.407407
4 0.254948 0.687963 0.077604 0.194444
0 0.229167 0.525926 0.047917 0.092593
4 0.501563 0.415741 0.050000 0.172222
4 0.532813 0.512037 0.065625 0.205556
0 0.395052 0.294444 0.033854 0.053704
3 0.330990 0.436111 0.049479 0.377778
4 0.330729 0.380093 0.048958 0.123148
0 0.498958 0.254167 0.039583 0.041667
3 0.270313 0.738426 0.133333 0.523148
3 0.647917 0.379167 0.072917 0.326852
3 0.503125 0.492593 0.062500 0.440741
4 0.378646 0.496759 0.062500 0.189815
4 0.659635 0.327778 0.041146 0.109259
0 0.541927 0.351389 0.047396 0.082407
3 0.532031 0.579167 0.071354 0.539815
3 0.389323 0.572222 0.079687 0.566667
4 0.178646 0.450000 0.052083 0.150000
4 0.269531 0.442593 0.060937 0.144444
4 0.526042 0.040741 0.005208 0.014815
0 0.517448 0.203704 0.022396 0.031481
3 0.418750 0.438889 0.046875 0.388889
4 0.411979 0.437963 0.029167 0.124074
3 0.405469 0.489815 0.056771 0.448148
0 0.330729 0.164352 0.018750 0.023148
4 0.336458 0.225463 0.029167 0.071296
3 0.335938 0.207870 0.030208 0.112037
4 0.310417 0.348148 0.019792 0.103704
3 0.315625 0.394444 0.035417 0.314815
0 0.267188 0.300463 0.022917 0.026852
3 0.275521 0.483333 0.080208 0.385185
