0 0.596615 0.069444 0.007812 0.011111
1 0.526823 0.049074 0.005729 0.012963
4 0.595573 0.093981 0.010937 0.030556
3 0.189844 0.246759 0.021354 0.136111
4 0.212760 0.197222 0.019271 0.051852
0 0.209635 0.150926 0.009896 0.014815
4 0.518750 0.081019 0.011458 0.026852
0 0.486719 0.162037 0.022396 0.046296
3 0.213542 0.213426 0.025000 0.130556
3 0.593229 0.115741 0.021875 0.105556
3 0.520052 0.093056 0.017188 0.089815
1 0.361719 0.218519 0.024479 0.040741
4 0.362240 0.289352 0.036979 0.106481
3 0.364323 0.337963 0.048438 0.281481
2 0.484115 0.237037 0.046354 0.109259
3 0.484896 0.287037 0.061458 0.298148
0 0.088802 0.243981 0.013021 0.023148
0 0.134375 0.218981 0.014583 0.021296
0 0.160677 0.176389 0.010937 0.017593
0 0.185938 0.187500 0.012500 0.017593
4 0.133073 0.265741 0.015104 0.051852
4 0.093750 0.280556 0.023958 0.038889
3 0.093490 0.267130 0.025521 0.071296
3 0.135937 0.259722 0.022917 0.102778
3 0.164583 0.227778 0.020833 0.124074
4 0.164323 0.214352 0.019271 0.043519
4 0.187500 0.225926 0.014583 0.042593
0 0.517708 0.053241 0.007292 0.010185
