4 0.512500 0.101852 0.015625 0.037037
3 0.492448 0.145370 0.020313 0.059259
4 0.530469 0.081019 0.013021 0.036111
0 0.091927 0.213426 0.010937 0.015741
4 0.164583 0.206019 0.014583 0.045370
3 0.086458 0.252778 0.023958 0.098148
0 0.484635 0.107870 0.011979 0.023148
3 0.495312 0.173611 0.033333 0.154630
4 0.187240 0.227778 0.017188 0.044444
0 0.162500 0.175926 0.009375 0.012963
4 0.134635 0.264815 0.019271 0.050000
0 0.209896 0.153241 0.011458 0.015741
3 0.166667 0.225000 0.019792 0.112963
3 0.135156 0.273148 0.022396 0.131481
0 0.182031 0.189815 0.013021 0.014815
3 0.512240 0.116667 0.021354 0.112963
3 0.189062 0.243519 0.027083 0.125926
1 0.375260 0.198611 0.023438 0.037963
0 0.132812 0.218519 0.014583 0.020370
3 0.531250 0.098148 0.021875 0.092593
4 0.211458 0.197222 0.019792 0.053704
1 0.450521 0.242593 0.029167 0.044444
3 0.212240 0.221296 0.026562 0.155556
4 0.375260 0.267593 0.036979 0.090741
3 0.375781 0.311111 0.051562 0.262963
2 0.458333 0.348611 0.058333 0.147222
3 0.459115 0.406019 0.079687 0.375000
0 0.095573 0.292593 0.010937 0.018519
0 0.513542 0.065741 0.009375 0.011111
1 0.529687 0.057870 0.007292 0.012037
1 0.530208 0.033796 0.004167 0.008333
2 0.530990 0.045370 0.006771 0.012963
3 0.530469 0.040278 0.009896 0.023148
