4 0.351042 0.255093 0.027083 0.082407
3 0.345052 0.300926 0.040104 0.253704
4 0.164323 0.425000 0.032813 0.109259
3 0.386719 0.386111 0.034896 0.322222
3 0.261198 0.300000 0.044271 0.133333
3 0.442188 0.270833 0.033333 0.182407
4 0.384896 0.348148 0.030208 0.127778
0 0.259115 0.342130 0.038021 0.047222
0 0.491927 0.238426 0.031771 0.037963
0 0.511458 0.121759 0.013542 0.019444
0 0.319271 0.283796 0.031250 0.041667
0 0.306510 0.261574 0.030729 0.039815
0 0.615365 0.111111 0.014063 0.018519
0 0.251563 0.154630 0.014583 0.022222
3 0.258073 0.215741 0.033854 0.146296
4 0.514583 0.174074 0.027083 0.061111
0 0.351562 0.190741 0.021875 0.029630
3 0.199479 0.454630 0.069792 0.353704
0 0.254688 0.247685 0.028125 0.036111
0 0.388281 0.243056 0.025521 0.034259
0 0.382292 0.195370 0.029167 0.033333
0 0.440625 0.197685 0.028125 0.032407
4 0.418229 0.363426 0.044792 0.143519
4 0.444792 0.555556 0.075000 0.207407
4 0.186458 0.399537 0.048958 0.121296
0 0.243490 0.294444 0.027604 0.038889
0 0.182292 0.297685 0.028125 0.036111
0 0.153125 0.332870 0.023958 0.034259
3 0.646875 0.813426 0.218750 0.373148
3 0.452865 0.625000 0.114062 0.561111
0 0.416667 0.243981 0.033333 0.039815
4 0.325781 0.392593 0.050521 0.133333
4 0.617969 0.161574 0.021354 0.052778
4 0.682031 0.920370 0.105729 0.157407
3 0.275260 0.550926 0.088021 0.455556
4 0.491146 0.323148 0.034375 0.094444
3 0.516406 0.203704 0.041146 0.185185
3 0.332552 0.451852 0.065104 0.381481
3 0.614844 0.193981 0.029687 0.187963
3 0.491146 0.385648 0.054167 0.334259
0 0.700781 0.704630 0.098437 0.140741
4 0.261719 0.481019 0.063021 0.145370
4 0.444531 0.288426 0.026562 0.087963
0 0.438802 0.389352 0.047396 0.089815
3 0.415625 0.350000 0.048958 0.250000
3 0.378906 0.273148 0.039062 0.190741
4 0.257292 0.202778 0.021875 0.062963
3 0.168750 0.456944 0.063542 0.282407
