0 0.167448 0.173611 0.008854 0.012037
4 0.280208 0.236111 0.026042 0.066667
0 0.142448 0.201389 0.010937 0.023148
0 0.338802 0.181481 0.018229 0.029630
3 0.164323 0.236111 0.027604 0.088889
0 0.129948 0.255093 0.008854 0.017593
3 0.554167 0.076389 0.013542 0.067593
2 0.278385 0.192130 0.014063 0.019444
4 0.473438 0.137037 0.018750 0.050000
0 0.469792 0.092130 0.012500 0.015741
4 0.210156 0.195833 0.021354 0.050926
0 0.209375 0.154167 0.010417 0.019444
3 0.278646 0.251389 0.032292 0.143519
4 0.333594 0.233796 0.031771 0.075000
3 0.210938 0.217130 0.026042 0.141667
3 0.476562 0.158796 0.027083 0.152778
3 0.340104 0.274537 0.055208 0.213889
0 0.037500 0.271759 0.010417 0.026852
0 0.095052 0.291667 0.013021 0.016667
4 0.130990 0.297222 0.009896 0.057407
4 0.144531 0.242130 0.018229 0.045370
3 0.144531 0.247685 0.020313 0.113889
0 0.155469 0.201389 0.010937 0.013889
4 0.161979 0.239815 0.018750 0.050000
0 0.268490 0.241204 0.010937 0.025000
2 0.555729 0.062963 0.008333 0.020370
3 0.544010 0.050463 0.010937 0.045370
3 0.597656 0.055556 0.008854 0.042593
