0 0.165625 0.175463 0.009375 0.015741
4 0.184115 0.228241 0.016146 0.041667
0 0.142187 0.200000 0.011458 0.018519
0 0.498177 0.066667 0.007812 0.014815
0 0.554167 0.082870 0.010417 0.015741
3 0.149479 0.242130 0.028125 0.100926
3 0.182812 0.249537 0.028125 0.128704
4 0.506510 0.127778 0.018229 0.042593
4 0.211719 0.198148 0.020313 0.050000
4 0.555990 0.116667 0.017188 0.042593
4 0.430208 0.237963 0.030208 0.085185
0 0.208594 0.151852 0.010937 0.012963
1 0.428906 0.178704 0.019271 0.033333
3 0.506250 0.150463 0.029167 0.141667
3 0.213021 0.218056 0.022917 0.147222
3 0.554948 0.140278 0.027604 0.126852
3 0.434635 0.280556 0.049479 0.237037
0 0.093229 0.292130 0.014583 0.013889
0 0.131510 0.255093 0.013021 0.015741
4 0.130990 0.298148 0.008854 0.055556
3 0.134635 0.292593 0.020313 0.094444
0 0.175521 0.191204 0.012500 0.012037
4 0.164323 0.214815 0.016146 0.044444
4 0.496615 0.090278 0.010937 0.025000
0 0.509115 0.085648 0.013021 0.013889
