3 0.081510 0.250000 0.020313 0.090741
0 0.093229 0.293519 0.014583 0.020370
3 0.129948 0.256481 0.017188 0.077778
0 0.125260 0.227315 0.006771 0.015741
0 0.185938 0.185648 0.010417 0.013889
4 0.169271 0.212963 0.019792 0.044444
0 0.167708 0.175463 0.010417 0.013889
1 0.415625 0.178704 0.021875 0.035185
0 0.513281 0.085185 0.010937 0.016667
3 0.191406 0.241667 0.024479 0.127778
0 0.209115 0.151852 0.011979 0.016667
3 0.169010 0.224074 0.024479 0.111111
4 0.211198 0.197222 0.019271 0.053704
4 0.515365 0.127778 0.020313 0.055556
3 0.212500 0.218519 0.028125 0.155556
4 0.415365 0.243056 0.029687 0.078704
3 0.516406 0.149537 0.026562 0.147222
3 0.415625 0.284259 0.040625 0.244444
0 0.075260 0.210185 0.007812 0.012963
4 0.080469 0.236574 0.017188 0.036111
0 0.064844 0.321759 0.013021 0.017593
