4 0.527865 0.075926 0.011979 0.031481
3 0.513542 0.085185 0.015625 0.081481
0 0.209115 0.150000 0.014063 0.016667
3 0.575521 0.106481 0.020833 0.094444
2 0.354167 0.382407 0.065625 0.155556
3 0.529167 0.089352 0.017708 0.086111
3 0.366146 0.443981 0.091667 0.425000
0 0.089844 0.243519 0.014063 0.022222
0 0.133333 0.218056 0.015625 0.021296
0 0.163542 0.174074 0.008333 0.014815
0 0.184115 0.185648 0.014063 0.017593
4 0.092188 0.281019 0.020833 0.036111
4 0.134115 0.266204 0.017188 0.049074
4 0.164844 0.213426 0.020313 0.045370
4 0.188542 0.227315 0.014583 0.041667
4 0.211719 0.196296 0.018229 0.048148
3 0.094792 0.268056 0.027083 0.073148
3 0.138542 0.255093 0.027083 0.093519
3 0.166667 0.223611 0.025000 0.115741
3 0.190365 0.238889 0.026562 0.122222
3 0.214323 0.218519 0.024479 0.153704
1 0.358073 0.218519 0.022396 0.033333
3 0.370833 0.326389 0.046875 0.249074
0 0.527865 0.050000 0.006771 0.007407
2 0.514062 0.069444 0.010417 0.024074
1 0.515365 0.052315 0.005729 0.012037
4 0.576042 0.088426 0.014583 0.030556
0 0.574740 0.065278 0.007812 0.010185
0 0.358854 0.253241 0.033333 0.041667
