4 0.187240 0.222685 0.015104 0.037963
0 0.074219 0.211111 0.007812 0.014815
3 0.130208 0.268519 0.011458 0.048148
3 0.150781 0.244444 0.023438 0.101852
4 0.522396 0.127778 0.018750 0.053704
4 0.167187 0.213889 0.015625 0.042593
0 0.517969 0.081481 0.010937 0.012963
0 0.184896 0.188426 0.010417 0.013889
0 0.165365 0.172222 0.009896 0.012963
0 0.127344 0.224537 0.009896 0.015741
4 0.420573 0.240278 0.027604 0.080556
0 0.209375 0.152778 0.012500 0.016667
0 0.095052 0.292593 0.010937 0.020370
0 0.148438 0.202778 0.013542 0.020370
3 0.189062 0.243981 0.020833 0.125000
1 0.415885 0.179167 0.019271 0.036111
4 0.211719 0.196759 0.019271 0.052778
3 0.213802 0.218981 0.024479 0.149074
3 0.524479 0.149537 0.027083 0.149074
3 0.424479 0.281481 0.047917 0.238889
3 0.079687 0.252315 0.018750 0.097222
4 0.079427 0.236111 0.017188 0.033333
3 0.131510 0.277778 0.018229 0.122222
3 0.168229 0.225463 0.017708 0.119444
