0 0.163281 0.176852 0.013021 0.018519
4 0.212760 0.197685 0.019271 0.050926
0 0.185417 0.190741 0.012500 0.022222
3 0.528906 0.076389 0.010937 0.069444
4 0.515104 0.081481 0.012500 0.029630
4 0.598958 0.099074 0.011458 0.029630
3 0.190104 0.245833 0.020833 0.136111
0 0.209115 0.150926 0.011979 0.012963
1 0.497917 0.145370 0.017708 0.033333
3 0.214323 0.219444 0.023438 0.148148
3 0.515885 0.095370 0.017188 0.094444
3 0.598958 0.118981 0.020833 0.099074
2 0.500521 0.214352 0.041667 0.097222
4 0.363281 0.287500 0.038021 0.091667
1 0.364583 0.219907 0.026042 0.037963
3 0.369010 0.339352 0.053646 0.278704
3 0.499740 0.266204 0.060937 0.273148
3 0.093229 0.268056 0.026042 0.067593
3 0.135156 0.258796 0.021354 0.099074
0 0.088281 0.244907 0.016146 0.023148
0 0.134375 0.219444 0.014583 0.020370
4 0.093229 0.282407 0.021875 0.038889
4 0.134896 0.267593 0.018750 0.053704
3 0.166406 0.224537 0.021354 0.115741
4 0.188802 0.227315 0.014063 0.047222
0 0.512240 0.053704 0.006771 0.009259
2 0.528385 0.063889 0.010937 0.024074
1 0.528125 0.047685 0.005208 0.012037
