4 0.189323 0.225463 0.014063 0.043519
0 0.135417 0.218519 0.014583 0.022222
3 0.529167 0.075926 0.011458 0.068519
4 0.514062 0.082407 0.011458 0.031481
3 0.136719 0.274074 0.021354 0.133333
0 0.185156 0.186574 0.011979 0.013889
1 0.497656 0.143981 0.016146 0.034259
4 0.599740 0.098611 0.011979 0.034259
3 0.213281 0.219907 0.024479 0.147222
3 0.189844 0.243519 0.021354 0.125926
0 0.210156 0.152315 0.010937 0.013889
3 0.600000 0.117593 0.019792 0.103704
3 0.515104 0.094444 0.016667 0.094444
1 0.363542 0.221759 0.025000 0.039815
4 0.364063 0.288889 0.037500 0.096296
2 0.500781 0.205093 0.041146 0.087963
3 0.366406 0.337963 0.048438 0.277778
3 0.500521 0.258333 0.055208 0.264815
0 0.088542 0.205093 0.010417 0.015741
0 0.088802 0.243981 0.014063 0.019444
3 0.094271 0.269444 0.026042 0.070370
4 0.093229 0.282407 0.022917 0.044444
4 0.135156 0.265741 0.018229 0.046296
0 0.162500 0.176389 0.010417 0.013889
3 0.167448 0.226852 0.021354 0.114815
4 0.212760 0.195833 0.019271 0.049074
0 0.511979 0.054167 0.007292 0.012037
2 0.528646 0.062963 0.010417 0.022222
1 0.528385 0.045833 0.004687 0.010185
