3 0.152344 0.240278 0.028646 0.108333
4 0.178906 0.231944 0.019271 0.045370
4 0.149219 0.240278 0.021354 0.049074
0 0.095052 0.293519 0.014063 0.020370
1 0.605990 0.120370 0.010937 0.029630
3 0.135156 0.293056 0.017188 0.084259
0 0.135417 0.262500 0.012500 0.021296
0 0.515365 0.081019 0.010937 0.019444
0 0.167969 0.173148 0.009896 0.012963
2 0.603385 0.165741 0.025521 0.072222
0 0.210938 0.151389 0.011458 0.013889
1 0.427344 0.179167 0.020313 0.036111
3 0.181771 0.253704 0.032292 0.135185
4 0.520573 0.126852 0.020313 0.053704
4 0.427865 0.243519 0.027604 0.085185
4 0.212240 0.193981 0.019271 0.052778
3 0.604948 0.189815 0.032813 0.172222
0 0.148698 0.196296 0.015104 0.020370
3 0.519792 0.145833 0.028125 0.150926
3 0.213021 0.218519 0.028125 0.150000
3 0.432031 0.281019 0.041146 0.239815
4 0.133333 0.298611 0.011458 0.052778
0 0.171615 0.195370 0.010937 0.018519
