1 0.283594 0.193519 0.011979 0.027778
0 0.130208 0.254630 0.009375 0.018519
0 0.143490 0.200000 0.010937 0.020370
1 0.324740 0.188889 0.017188 0.035185
3 0.166406 0.236574 0.027604 0.091667
4 0.284375 0.238426 0.020833 0.065741
4 0.164583 0.240278 0.021875 0.050926
0 0.471094 0.092130 0.013021 0.017593
4 0.473958 0.136111 0.015625 0.051852
3 0.285938 0.264815 0.038542 0.170370
4 0.211198 0.195370 0.021354 0.050000
3 0.557552 0.081944 0.017188 0.075000
0 0.208594 0.151852 0.009896 0.014815
4 0.326823 0.243056 0.031771 0.082407
3 0.328385 0.280093 0.044271 0.221296
3 0.212240 0.216204 0.025521 0.145370
3 0.476302 0.162500 0.031771 0.156481
0 0.039583 0.262500 0.011458 0.017593
4 0.043229 0.300463 0.019792 0.041667
3 0.045312 0.310185 0.026042 0.112963
0 0.095052 0.290741 0.013021 0.016667
4 0.131510 0.297685 0.008854 0.054630
4 0.142187 0.237963 0.019792 0.051852
3 0.142708 0.242593 0.018750 0.105556
0 0.158854 0.199074 0.011458 0.012963
0 0.165625 0.175463 0.010417 0.015741
0 0.273438 0.241204 0.010417 0.023148
2 0.558594 0.067593 0.009896 0.022222
3 0.548177 0.052778 0.010937 0.048148
4 0.548438 0.045833 0.006250 0.017593
0 0.547917 0.031944 0.003125 0.006481
