0 0.404167 0.450926 0.053125 0.103704
4 0.371615 0.340741 0.047396 0.111111
0 0.372917 0.247685 0.031250 0.036111
3 0.231771 0.191204 0.029167 0.104630
3 0.434896 0.394907 0.060417 0.325000
0 0.310156 0.250926 0.024479 0.031481
0 0.488542 0.243056 0.034375 0.045370
0 0.229687 0.146296 0.011458 0.016667
3 0.163281 0.485185 0.083854 0.350000
4 0.140625 0.424074 0.035417 0.096296
0 0.430469 0.255556 0.036979 0.042593
4 0.183333 0.393519 0.040625 0.112963
0 0.183594 0.311111 0.028646 0.046296
0 0.294792 0.225463 0.019792 0.028704
0 0.196875 0.272685 0.021875 0.037963
0 0.136458 0.333333 0.029167 0.042593
0 0.368750 0.197222 0.029167 0.029630
0 0.238021 0.254167 0.023958 0.034259
3 0.372917 0.378704 0.048958 0.300000
4 0.433854 0.380093 0.055208 0.143519
0 0.438281 0.196296 0.027604 0.035185
4 0.314063 0.337963 0.040625 0.100000
3 0.253906 0.392130 0.069271 0.312037
3 0.558073 0.090278 0.017188 0.075000
4 0.244010 0.334259 0.039062 0.109259
3 0.184896 0.442593 0.050000 0.307407
3 0.315625 0.394907 0.055208 0.319444
3 0.403646 0.698148 0.163542 0.603704
4 0.410938 0.632407 0.089583 0.220370
3 0.489323 0.385185 0.054688 0.333333
4 0.487240 0.327778 0.038021 0.101852
4 0.233073 0.191667 0.021354 0.051852
3 0.215625 0.406944 0.061458 0.308333
3 0.292708 0.260648 0.031250 0.100926
