0 0.396354 0.243056 0.022917 0.028704
4 0.352083 0.276852 0.037500 0.090741
0 0.429948 0.258796 0.036979 0.045370
0 0.229687 0.145370 0.011458 0.014815
2 0.090625 0.693519 0.071875 0.181481
3 0.207292 0.407407 0.059375 0.305556
0 0.488802 0.243056 0.033854 0.045370
3 0.386979 0.710185 0.169792 0.579630
0 0.319271 0.179630 0.018750 0.022222
0 0.354167 0.188889 0.028125 0.031481
0 0.192188 0.269907 0.027083 0.030556
0 0.240365 0.251852 0.025521 0.037037
0 0.138021 0.337963 0.030208 0.044444
2 0.152083 0.446759 0.052083 0.134259
3 0.354167 0.300000 0.050000 0.255556
4 0.196094 0.354630 0.040104 0.103704
4 0.430469 0.381944 0.050521 0.145370
0 0.311979 0.250000 0.029167 0.042593
0 0.443490 0.199537 0.027604 0.034259
1 0.061198 0.581481 0.031771 0.087037
0 0.357812 0.473611 0.057292 0.104630
4 0.243750 0.333796 0.037500 0.093519
3 0.432552 0.434722 0.054688 0.399074
4 0.313021 0.339815 0.035417 0.105556
4 0.382812 0.662037 0.092708 0.233333
3 0.162500 0.484259 0.086458 0.342593
3 0.315885 0.387500 0.043229 0.313889
4 0.486458 0.327778 0.037500 0.100000
3 0.251302 0.390278 0.059896 0.315741
3 0.489323 0.385185 0.053646 0.331481
3 0.120313 0.758333 0.152083 0.446296
1 0.279687 0.207407 0.013542 0.031481
4 0.270573 0.248148 0.023438 0.070370
3 0.272135 0.261111 0.029687 0.137037
0 0.231771 0.167593 0.014583 0.020370
4 0.241667 0.204167 0.020833 0.050926
3 0.241406 0.216667 0.034896 0.118519
4 0.319792 0.232407 0.027083 0.061111
3 0.319010 0.215278 0.028646 0.093519
3 0.396354 0.391667 0.046875 0.327778
4 0.396094 0.347685 0.035937 0.123148
