4 0.222656 0.318519 0.030729 0.070370
3 0.264062 0.266204 0.033333 0.134259
0 0.331250 0.268981 0.034375 0.041667
0 0.483333 0.296296 0.034375 0.055556
0 0.377083 0.355556 0.048958 0.064815
3 0.539583 0.062500 0.014583 0.058333
0 0.314844 0.257407 0.023438 0.040741
3 0.224740 0.364815 0.034896 0.259259
0 0.261198 0.215278 0.026562 0.030556
0 0.699740 0.230093 0.026562 0.032407
0 0.538281 0.351389 0.049479 0.082407
0 0.254948 0.248148 0.023438 0.033333
4 0.963542 0.793519 0.071875 0.187037
0 0.261458 0.310185 0.039583 0.048148
0 0.518229 0.201389 0.026042 0.030556
0 0.428906 0.228704 0.032813 0.037037
0 0.374740 0.193981 0.024479 0.032407
0 0.310417 0.217130 0.028125 0.032407
0 0.441927 0.196296 0.026562 0.035185
0 0.175521 0.321296 0.032292 0.042593
0 0.411719 0.263426 0.027604 0.039815
3 0.329427 0.431481 0.044271 0.368519
3 0.936979 0.784259 0.126042 0.431481
0 0.219792 0.250926 0.023958 0.029630
3 0.415885 0.437500 0.052604 0.389815
0 0.494531 0.251852 0.030729 0.040741
4 0.329167 0.383333 0.044792 0.118519
4 0.697135 0.325000 0.032813 0.105556
4 0.534896 0.505556 0.059375 0.201852
4 0.491406 0.415741 0.055729 0.151852
4 0.183594 0.441667 0.049479 0.151852
3 0.529687 0.577778 0.070833 0.538889
3 0.687760 0.372222 0.053646 0.324074
4 0.376302 0.524537 0.073438 0.191667
4 0.272917 0.442593 0.057292 0.148148
3 0.491146 0.489815 0.059375 0.448148
3 0.383333 0.587500 0.116667 0.536111
3 0.278125 0.497685 0.078125 0.428704
3 0.117969 0.488426 0.084896 0.415741
3 0.103385 0.250000 0.019271 0.090741
0 0.350000 0.189352 0.018750 0.028704
4 0.351042 0.235185 0.026042 0.038889
0 0.370312 0.244444 0.027083 0.029630
0 0.380990 0.308333 0.039062 0.051852
4 0.441146 0.338889 0.031250 0.118519
0 0.522917 0.237500 0.033333 0.041667
3 0.434635 0.388889 0.045312 0.359259
4 0.540365 0.052778 0.007812 0.020370
4 0.102604 0.243981 0.012500 0.032407
0 0.540104 0.037500 0.006250 0.008333
