4 0.144792 0.240741 0.018750 0.046296
1 0.280729 0.198611 0.012500 0.030556
3 0.278906 0.254630 0.021354 0.140741
3 0.145833 0.245370 0.020833 0.112963
0 0.166927 0.174537 0.008854 0.013889
3 0.129948 0.287037 0.009896 0.081481
3 0.167187 0.245370 0.025000 0.105556
4 0.164583 0.236574 0.018750 0.047222
1 0.470313 0.092130 0.011458 0.019444
3 0.540104 0.067593 0.016667 0.061111
4 0.210938 0.197222 0.020833 0.050000
0 0.209896 0.152315 0.011458 0.015741
4 0.313281 0.237963 0.028646 0.083333
3 0.211979 0.218981 0.025000 0.145370
3 0.314844 0.275463 0.040104 0.206481
3 0.471354 0.162037 0.029167 0.159259
0 0.041406 0.264352 0.010937 0.015741
4 0.044792 0.301852 0.017708 0.048148
3 0.048438 0.307407 0.026042 0.101852
0 0.077865 0.316204 0.010937 0.015741
0 0.094271 0.291667 0.010417 0.018519
0 0.129427 0.256019 0.007812 0.017593
4 0.130990 0.298611 0.006771 0.054630
0 0.142448 0.198611 0.010937 0.019444
0 0.158333 0.199074 0.010417 0.011111
1 0.305729 0.190741 0.018750 0.031481
2 0.540625 0.057407 0.007292 0.018519
3 0.541146 0.039352 0.011458 0.021296
