4 0.376042 0.881944 0.130208 0.236111
0 0.202344 0.309259 0.020313 0.025926
3 0.432812 0.368981 0.058333 0.278704
3 0.426042 0.681944 0.086458 0.589815
0 0.421875 0.442593 0.065625 0.088889
3 0.372917 0.288889 0.038542 0.227778
0 0.895573 0.519444 0.052604 0.079630
0 0.237240 0.295833 0.028646 0.039815
3 0.380208 0.382870 0.053125 0.308333
0 0.485677 0.240278 0.028646 0.037963
3 0.234115 0.197222 0.025521 0.120370
0 0.319271 0.288889 0.030208 0.042593
0 0.218490 0.179630 0.015104 0.024074
3 0.215885 0.234722 0.029687 0.137963
0 0.375521 0.251852 0.025000 0.042593
4 0.432552 0.374537 0.053646 0.130556
0 0.229948 0.144907 0.010937 0.015741
0 0.429167 0.254630 0.035417 0.044444
0 0.372656 0.191204 0.024479 0.032407
4 0.379688 0.352778 0.048958 0.129630
4 0.876563 0.715741 0.092708 0.207407
3 0.207813 0.352778 0.031250 0.112963
3 0.384635 0.824537 0.149479 0.350926
0 0.252604 0.247685 0.022917 0.036111
0 0.314063 0.250463 0.030208 0.032407
0 0.178385 0.294444 0.026562 0.033333
2 0.255990 0.410648 0.048438 0.121296
0 0.443490 0.198148 0.031771 0.035185
3 0.854688 0.736574 0.160417 0.521296
4 0.186979 0.393519 0.043750 0.112963
4 0.427083 0.623611 0.069792 0.241667
4 0.326042 0.391667 0.050000 0.125926
3 0.330729 0.452315 0.069792 0.376852
3 0.551042 0.118056 0.021875 0.108333
4 0.486198 0.329630 0.038021 0.100000
3 0.488281 0.385648 0.057813 0.334259
1 0.349219 0.707870 0.067187 0.112037
3 0.257292 0.458796 0.070833 0.367593
4 0.552344 0.102778 0.013021 0.035185
4 0.263542 0.330556 0.032292 0.088889
3 0.261979 0.327315 0.043750 0.197222
4 0.209896 0.373611 0.025000 0.069444
3 0.198698 0.448611 0.070312 0.345370
4 0.217969 0.221759 0.022396 0.052778
4 0.234115 0.191204 0.019271 0.052778
