4 0.157552 0.238889 0.021354 0.044444
3 0.132292 0.293981 0.016667 0.095370
4 0.235937 0.227778 0.022917 0.051852
4 0.132031 0.289815 0.014063 0.048148
3 0.464062 0.168056 0.017708 0.152778
3 0.159635 0.244444 0.029687 0.100000
0 0.616406 0.111574 0.014063 0.023148
0 0.097917 0.293056 0.011458 0.021296
0 0.230208 0.146759 0.011458 0.015741
0 0.071615 0.314352 0.015104 0.015741
0 0.130990 0.254630 0.010937 0.020370
3 0.241667 0.234722 0.034375 0.119444
3 0.222396 0.715741 0.143750 0.559259
4 0.207031 0.644444 0.064062 0.211111
4 0.615625 0.164352 0.018750 0.058333
0 0.175781 0.466667 0.050521 0.062963
0 0.339583 0.249537 0.031250 0.037963
3 0.612240 0.197685 0.043229 0.193519
4 0.342187 0.349537 0.041667 0.121296
3 0.344792 0.394907 0.062500 0.328704
0 0.151302 0.201389 0.011979 0.015741
0 0.234896 0.182407 0.012500 0.016667
1 0.333854 0.189352 0.018750 0.036111
4 0.338281 0.226389 0.024479 0.054630
3 0.340365 0.213889 0.031771 0.083333
