4 0.278646 0.206481 0.018750 0.055556
4 0.209115 0.374537 0.032813 0.071296
0 0.519010 0.056481 0.007812 0.011111
0 0.323437 0.153241 0.014583 0.025000
2 0.547917 0.082870 0.011458 0.030556
4 0.487500 0.315278 0.031250 0.100926
4 0.519792 0.078241 0.011458 0.028704
2 0.157031 0.419907 0.046354 0.121296
4 0.315365 0.255556 0.024479 0.072222
3 0.318229 0.305093 0.051042 0.252778
3 0.396875 0.376389 0.048958 0.323148
0 0.308073 0.190278 0.017188 0.028704
0 0.281250 0.154630 0.018750 0.020370
0 0.230208 0.146759 0.012500 0.017593
0 0.497396 0.231944 0.023958 0.039815
3 0.279948 0.197222 0.021354 0.103704
3 0.221094 0.398148 0.072396 0.200000
3 0.298438 0.392593 0.055208 0.294444
4 0.298438 0.345833 0.038542 0.099074
1 0.149740 0.318056 0.022396 0.030556
4 0.397396 0.667593 0.103125 0.246296
4 0.232292 0.190741 0.018750 0.050000
0 0.381771 0.483333 0.055208 0.111111
4 0.398438 0.339352 0.042708 0.139815
0 0.200260 0.308796 0.020313 0.028704
3 0.520052 0.092593 0.016146 0.085185
0 0.400521 0.236111 0.032292 0.042593
3 0.168229 0.475000 0.072917 0.340741
0 0.286719 0.263426 0.030729 0.036111
3 0.548958 0.091667 0.021875 0.088889
3 0.230990 0.213889 0.027604 0.153704
3 0.495573 0.369444 0.050521 0.318519
3 0.389323 0.712963 0.164062 0.574074
0 0.322656 0.166667 0.014063 0.016667
3 0.331250 0.241667 0.032292 0.166667
4 0.464583 0.142130 0.018750 0.050926
3 0.466667 0.167593 0.025000 0.157407
0 0.464062 0.096759 0.011458 0.017593
