4 0.585677 0.079630 0.009896 0.020370
3 0.130729 0.281944 0.011458 0.073148
3 0.133854 0.253241 0.026042 0.106481
4 0.040104 0.305556 0.017708 0.057407
3 0.041667 0.307870 0.021875 0.095370
3 0.162500 0.243519 0.030208 0.103704
3 0.464062 0.171296 0.019792 0.150000
0 0.124219 0.209722 0.006771 0.019444
4 0.132031 0.294444 0.008854 0.048148
0 0.096094 0.293056 0.011979 0.021296
4 0.232813 0.187963 0.019792 0.055556
0 0.038281 0.268519 0.010937 0.016667
0 0.229687 0.145833 0.010417 0.013889
0 0.072656 0.312500 0.013021 0.019444
3 0.235677 0.213889 0.032813 0.150000
1 0.437240 0.177315 0.018229 0.032407
0 0.195573 0.362963 0.034896 0.050000
4 0.196615 0.475000 0.049479 0.135185
4 0.440365 0.231019 0.029687 0.087963
3 0.586198 0.096296 0.018229 0.083333
3 0.200260 0.521759 0.083854 0.371296
3 0.449740 0.274537 0.057813 0.254630
0 0.129948 0.257407 0.008854 0.024074
4 0.160417 0.240278 0.018750 0.049074
0 0.153906 0.198148 0.013021 0.014815
