3 0.373177 0.237037 0.028646 0.114815
0 0.393490 0.293981 0.041146 0.045370
0 0.517969 0.235185 0.032813 0.038889
0 0.519531 0.202778 0.025521 0.031481
0 0.984375 0.627315 0.031250 0.110185
3 0.496615 0.418981 0.045312 0.378704
0 0.503906 0.191667 0.022396 0.035185
0 0.313802 0.256481 0.023438 0.040741
0 0.511198 0.299537 0.045312 0.056481
4 0.953646 0.809259 0.092708 0.183333
3 0.215104 0.324537 0.039583 0.156481
4 0.436719 0.338889 0.036979 0.120370
4 0.417708 0.402778 0.051042 0.175926
4 0.233073 0.563889 0.052604 0.151852
0 0.261458 0.249537 0.029167 0.039815
0 0.251563 0.317130 0.036458 0.047222
0 0.329427 0.268056 0.035937 0.039815
0 0.360938 0.250926 0.028125 0.035185
0 0.373437 0.325926 0.048958 0.066667
0 0.640625 0.225463 0.031250 0.036111
3 0.944792 0.785185 0.110417 0.429630
0 0.411458 0.167593 0.023958 0.033333
0 0.254427 0.220833 0.023438 0.032407
0 0.405990 0.268056 0.036979 0.037963
0 0.429167 0.230093 0.033333 0.036111
0 0.438021 0.195833 0.028125 0.032407
0 0.372135 0.194444 0.025521 0.027778
0 0.303125 0.225000 0.028125 0.035185
0 0.148438 0.337500 0.033333 0.054630
0 0.207552 0.262500 0.023438 0.028704
3 0.247656 0.612037 0.095312 0.451852
0 0.221875 0.422685 0.042708 0.069444
4 0.537500 0.506944 0.059375 0.200926
4 0.330990 0.387037 0.042188 0.112963
3 0.638542 0.374537 0.055208 0.337963
4 0.502083 0.417593 0.048958 0.159259
0 0.498698 0.253704 0.040104 0.044444
3 0.502604 0.490741 0.063542 0.442593
4 0.642969 0.317130 0.035937 0.104630
3 0.335417 0.407870 0.052083 0.321296
3 0.274740 0.503241 0.083854 0.425000
0 0.541406 0.352778 0.046354 0.085185
4 0.377604 0.500463 0.061458 0.187963
3 0.531771 0.578241 0.072917 0.541667
3 0.175000 0.516204 0.088542 0.413889
3 0.402865 0.492593 0.063021 0.446296
4 0.265365 0.444444 0.061979 0.146296
4 0.158854 0.460185 0.051042 0.148148
4 0.447135 0.286111 0.017188 0.074074
3 0.433854 0.390741 0.044792 0.359259
3 0.414844 0.440741 0.056771 0.387037
3 0.411458 0.203704 0.025000 0.107407
3 0.381510 0.575000 0.096354 0.562963
4 0.379948 0.256019 0.013021 0.041667
3 0.358073 0.288426 0.033854 0.112037
4 0.309375 0.350926 0.023958 0.105556
3 0.315104 0.394907 0.035417 0.319444
3 0.298698 0.340741 0.038021 0.268519
3 0.269010 0.333796 0.045312 0.210185
4 0.216667 0.325926 0.035417 0.074074
