0 0.985677 0.627315 0.028646 0.106481
3 0.435156 0.390278 0.043229 0.358333
4 0.220833 0.319907 0.031250 0.076852
0 0.514323 0.298148 0.044271 0.053704
0 0.521354 0.233796 0.033333 0.041667
4 0.439583 0.338426 0.034375 0.121296
4 0.501563 0.412037 0.043750 0.153704
4 0.952865 0.805556 0.094271 0.183333
3 0.391927 0.210648 0.041146 0.115741
0 0.506771 0.185648 0.020833 0.028704
0 0.332031 0.266204 0.035937 0.036111
3 0.945312 0.785648 0.109375 0.428704
3 0.220052 0.312037 0.032813 0.144444
0 0.667448 0.249074 0.033854 0.040741
0 0.262240 0.250463 0.028646 0.039815
0 0.256510 0.314815 0.040104 0.051852
3 0.420573 0.440278 0.048438 0.387963
0 0.396615 0.293981 0.038021 0.050926
3 0.497396 0.421296 0.042708 0.381481
0 0.264844 0.216667 0.024479 0.029630
0 0.311458 0.259259 0.026042 0.042593
4 0.239844 0.555093 0.058854 0.143519
0 0.228385 0.412963 0.046354 0.068519
0 0.373437 0.194907 0.023958 0.030556
0 0.410938 0.267593 0.028125 0.038889
0 0.214583 0.255093 0.020833 0.028704
4 0.333333 0.382870 0.038542 0.113889
0 0.438802 0.194907 0.028646 0.030556
0 0.356250 0.247685 0.025000 0.030556
0 0.498698 0.253241 0.039062 0.041667
0 0.168229 0.331481 0.035417 0.051852
0 0.431771 0.230093 0.034375 0.036111
4 0.414844 0.428241 0.038021 0.136111
3 0.275781 0.501389 0.078646 0.426852
3 0.336458 0.407407 0.045833 0.322222
0 0.324740 0.219444 0.025521 0.035185
4 0.534896 0.511574 0.063542 0.206481
4 0.176823 0.451389 0.053646 0.149074
0 0.376563 0.328241 0.045833 0.067593
4 0.663802 0.342130 0.039062 0.112037
4 0.378906 0.494444 0.065104 0.203704
0 0.538281 0.346759 0.054688 0.078704
3 0.656771 0.386111 0.058333 0.318519
3 0.188281 0.508333 0.082812 0.409259
3 0.251042 0.606944 0.093750 0.458333
3 0.379427 0.573148 0.096354 0.562963
4 0.269010 0.443981 0.059896 0.147222
0 0.519010 0.203241 0.025521 0.034259
3 0.504687 0.491204 0.065625 0.441667
3 0.533073 0.577778 0.072396 0.544444
3 0.405469 0.490278 0.056771 0.447222
0 0.381510 0.167130 0.019271 0.026852
4 0.394271 0.229630 0.017708 0.061111
3 0.376563 0.237500 0.031250 0.117593
3 0.316406 0.395833 0.036979 0.319444
3 0.268750 0.328704 0.043750 0.196296
