3 0.539323 0.047222 0.011979 0.044444
3 0.158073 0.241204 0.030729 0.097222
4 0.158594 0.239815 0.018229 0.042593
0 0.506510 0.109722 0.009896 0.015741
4 0.207813 0.371296 0.030208 0.072222
3 0.464062 0.169907 0.020833 0.149074
4 0.133854 0.262037 0.015625 0.055556
3 0.138542 0.276852 0.025000 0.124074
1 0.320833 0.188889 0.015625 0.035185
4 0.505990 0.722685 0.094271 0.254630
0 0.136458 0.222222 0.012500 0.018519
4 0.232292 0.191204 0.019792 0.050926
3 0.220312 0.395833 0.066667 0.195370
0 0.231250 0.148148 0.012500 0.016667
0 0.545312 0.112963 0.014583 0.018519
0 0.098177 0.293519 0.010937 0.020370
0 0.073177 0.312963 0.014063 0.016667
0 0.202865 0.313889 0.021354 0.029630
4 0.548438 0.164815 0.022917 0.062963
0 0.332292 0.238426 0.030208 0.037963
3 0.497917 0.732407 0.196875 0.535185
3 0.510677 0.185648 0.028646 0.165741
3 0.233333 0.212500 0.028125 0.145370
4 0.339062 0.333796 0.044792 0.123148
3 0.550521 0.202315 0.032292 0.197222
3 0.340625 0.389352 0.053125 0.337963
0 0.150260 0.200463 0.014063 0.017593
4 0.311719 0.236574 0.023438 0.073148
3 0.314063 0.275926 0.029167 0.205556
0 0.510938 0.531019 0.062500 0.130556
