4 0.475781 0.629167 0.042188 0.060185
0 0.506510 0.613426 0.013021 0.030556
3 0.747396 0.495833 0.026042 0.082407
3 0.691146 0.238889 0.028125 0.057407
3 0.484375 0.648148 0.063542 0.100000
0 0.700260 0.220833 0.008854 0.019444
2 0.686458 0.225000 0.017708 0.025926
0 0.818229 0.350463 0.007292 0.013889
2 0.829427 0.359259 0.013021 0.027778
3 0.825521 0.359259 0.021875 0.031481
0 0.747917 0.462963 0.007292 0.014815
4 0.742969 0.494444 0.015104 0.038889
