4 0.138542 0.668056 0.041667 0.100926
2 0.703646 0.206019 0.013542 0.039815
0 0.159115 0.618519 0.018229 0.033333
3 0.139583 0.669444 0.047917 0.146296
3 0.702083 0.227315 0.019792 0.095370
0 0.413021 0.575926 0.018750 0.027778
3 0.417708 0.660185 0.046875 0.212963
4 0.423438 0.623611 0.031250 0.075000
0 0.719531 0.306481 0.009896 0.018519
3 0.719010 0.337500 0.016146 0.078704
