4 0.670573 0.098148 0.014063 0.029630
3 0.498698 0.085648 0.027604 0.110185
3 0.809375 0.042593 0.016667 0.083333
3 0.670573 0.113889 0.023438 0.096296
0 0.492969 0.038426 0.009896 0.013889
3 0.572396 0.078241 0.022917 0.112037
4 0.570052 0.064352 0.015104 0.039815
0 0.663802 0.070833 0.007812 0.008333
