0 0.669271 0.175463 0.009375 0.012037
0 0.727344 0.293519 0.010937 0.016667
4 0.403385 0.605556 0.026562 0.064815
0 0.394010 0.555556 0.014063 0.024074
3 0.401562 0.597685 0.036458 0.106481
2 0.670833 0.201852 0.012500 0.031481
3 0.671615 0.217593 0.017188 0.096296
0 0.384635 0.578704 0.011979 0.018519
3 0.378125 0.600000 0.022917 0.059259
2 0.718229 0.318981 0.014583 0.034259
3 0.722135 0.331481 0.022396 0.092593
0 0.965365 0.455093 0.009896 0.015741
