3 0.473438 0.618519 0.053125 0.125926
0 0.488021 0.569907 0.014583 0.030556
4 0.464062 0.618519 0.035417 0.087037
3 0.824740 0.355556 0.024479 0.040741
0 0.817187 0.343056 0.007292 0.013889
0 0.927083 0.458796 0.010417 0.012037
4 0.927604 0.482870 0.014583 0.017593
3 0.927604 0.473148 0.014583 0.040741
