0 0.571615 0.575463 0.017188 0.028704
4 0.590365 0.637963 0.038021 0.094444
3 0.586719 0.647222 0.049479 0.172222
3 0.709115 0.223611 0.014063 0.093519
0 0.708594 0.181019 0.009896 0.012037
2 0.707292 0.206481 0.011458 0.031481
3 0.830729 0.350000 0.018750 0.050000
0 0.826042 0.330556 0.009375 0.011111
2 0.833073 0.353704 0.014063 0.035185
