0 0.785156 0.090741 0.006771 0.009259
3 0.701562 0.125463 0.026042 0.075000
3 0.786198 0.131019 0.019271 0.091667
0 0.709896 0.098148 0.008333 0.020370
4 0.697135 0.104630 0.016146 0.022222
3 0.718750 0.104167 0.028125 0.062037
3 0.830469 0.139815 0.016146 0.088889
0 0.963542 0.452778 0.007292 0.011111
3 0.960156 0.498148 0.015104 0.101852
