2 0.191667 0.656019 0.021875 0.075000
3 0.949219 0.476389 0.021354 0.041667
4 0.400521 0.610185 0.023958 0.062963
3 0.398698 0.600463 0.031771 0.093519
0 0.392708 0.564815 0.017708 0.027778
3 0.704167 0.219444 0.016667 0.103704
0 0.206250 0.595833 0.015625 0.025000
3 0.194792 0.663426 0.038542 0.160185
0 0.956250 0.460648 0.008333 0.012037
4 0.947135 0.483796 0.015104 0.026852
0 0.726562 0.290278 0.009375 0.017593
2 0.722135 0.317130 0.014063 0.041667
3 0.721354 0.328704 0.021875 0.092593
2 0.703906 0.206019 0.013021 0.032407
