0 0.494792 0.587500 0.017708 0.032407
4 0.467187 0.627315 0.040625 0.065741
3 0.474479 0.628241 0.057292 0.112037
0 0.735938 0.181019 0.008333 0.010185
2 0.734896 0.207870 0.012500 0.036111
3 0.735677 0.224537 0.016146 0.097222
0 0.822917 0.343981 0.008333 0.015741
3 0.890885 0.511111 0.011979 0.092593
4 0.890625 0.504630 0.011458 0.046296
0 0.894531 0.472685 0.006771 0.017593
