3 0.885938 0.527778 0.011458 0.062963
0 0.583073 0.568519 0.016146 0.025926
3 0.587240 0.644444 0.048438 0.177778
2 0.585938 0.642130 0.028125 0.097222
3 0.714063 0.223611 0.020833 0.097222
2 0.713542 0.208796 0.010417 0.030556
3 0.833073 0.350463 0.014063 0.050926
0 0.829948 0.331019 0.006771 0.012037
