3 0.409375 0.652778 0.056250 0.190741
0 0.393750 0.567593 0.013542 0.018519
4 0.400000 0.625000 0.014583 0.037037
3 0.808854 0.355556 0.017708 0.042593
0 0.803906 0.340278 0.008854 0.013889
3 0.753906 0.226389 0.018229 0.095370
