0 0.781771 0.474537 0.012500 0.017593
0 0.715885 0.180556 0.008854 0.012963
4 0.780469 0.506481 0.018229 0.042593
4 0.579688 0.557870 0.023958 0.071296
3 0.779687 0.524537 0.020833 0.117593
2 0.714063 0.205556 0.015625 0.038889
3 0.578125 0.577315 0.033333 0.160185
3 0.713281 0.222685 0.022396 0.099074
1 0.581250 0.510185 0.012500 0.025926
0 0.588021 0.603704 0.010417 0.020370
0 0.722135 0.287037 0.009896 0.011111
2 0.725000 0.316667 0.012500 0.040741
3 0.723437 0.328241 0.014583 0.093519
