0 0.700260 0.071759 0.006771 0.010185
4 0.694792 0.096296 0.010417 0.027778
4 0.723437 0.493981 0.017708 0.047222
3 0.695312 0.116204 0.017708 0.095370
0 0.723437 0.465741 0.009375 0.012963
3 0.721615 0.516204 0.021354 0.115741
3 0.772396 0.128241 0.026042 0.091667
0 0.769271 0.086111 0.007292 0.009259
0 0.981771 0.554167 0.014583 0.021296
3 0.973698 0.566667 0.031771 0.050000
