4 0.694792 0.098148 0.012500 0.033333
3 0.694271 0.115278 0.018750 0.097222
3 0.759115 0.129630 0.017188 0.090741
0 0.755990 0.091204 0.008854 0.012037
3 0.913802 0.472222 0.026562 0.046296
0 0.914583 0.455556 0.009375 0.014815
4 0.915885 0.481481 0.013021 0.025926
