4 0.902344 0.479167 0.011979 0.036111
0 0.662240 0.170833 0.009896 0.012037
2 0.661719 0.198611 0.014063 0.036111
4 0.449219 0.607407 0.021354 0.062963
3 0.902083 0.487963 0.014583 0.074074
3 0.452865 0.633796 0.032813 0.176852
0 0.448958 0.558796 0.014583 0.025000
3 0.662240 0.214352 0.018229 0.099074
0 0.776563 0.288426 0.007292 0.008333
2 0.773698 0.316667 0.015104 0.037037
3 0.773438 0.330556 0.015625 0.090741
0 0.901042 0.456944 0.008333 0.012037
