4 0.694792 0.099537 0.012500 0.036111
3 0.695573 0.113889 0.022396 0.096296
0 0.702083 0.072685 0.007292 0.012037
3 0.761198 0.129630 0.018229 0.090741
0 0.975260 0.559722 0.015104 0.025000
3 0.966667 0.563889 0.032292 0.035185
