3 0.717969 0.138889 0.031771 0.057407
3 0.779427 0.131944 0.024479 0.089815
0 0.968229 0.454167 0.008333 0.013889
3 0.964583 0.485185 0.016667 0.077778
0 0.778385 0.092130 0.008854 0.010185
0 0.715104 0.118056 0.009375 0.013889
4 0.711198 0.138426 0.014063 0.023148
