0 0.481771 0.547685 0.013542 0.025000
4 0.478385 0.614815 0.032813 0.092593
3 0.480990 0.610185 0.039062 0.150000
3 0.735677 0.237500 0.028646 0.067593
0 0.820312 0.344444 0.007292 0.014815
3 0.890365 0.511111 0.014063 0.090741
4 0.890104 0.506019 0.012500 0.047222
