3 0.363281 0.583333 0.028646 0.068519
4 0.360938 0.600000 0.020833 0.035185
1 0.359896 0.563889 0.013542 0.027778
3 0.786198 0.234259 0.017188 0.087037
3 0.810677 0.354167 0.010937 0.045370
0 0.810156 0.337963 0.008854 0.011111
