4 0.495833 0.063889 0.015625 0.033333
0 0.552083 0.051389 0.009375 0.013889
3 0.551302 0.096759 0.027604 0.104630
3 0.497917 0.086111 0.023958 0.111111
0 0.501042 0.037963 0.009375 0.012963
3 0.723958 0.033333 0.016667 0.064815
3 0.984896 0.470370 0.014583 0.048148
0 0.986979 0.454630 0.009375 0.016667
4 0.984375 0.478241 0.012500 0.032407
