0 0.995573 0.520370 0.008854 0.018519
4 0.986719 0.560185 0.024479 0.046296
0 0.770052 0.085185 0.007812 0.012963
4 0.745052 0.506481 0.021354 0.037037
0 0.709115 0.079167 0.008854 0.017593
0 0.730990 0.490278 0.007812 0.017593
4 0.701302 0.100926 0.011979 0.035185
3 0.985156 0.562037 0.029687 0.103704
3 0.744271 0.509722 0.034375 0.056481
3 0.773438 0.125463 0.029167 0.093519
3 0.704167 0.115278 0.019792 0.089815
