0 0.489063 0.553241 0.017708 0.030556
4 0.478385 0.612963 0.028646 0.090741
3 0.480469 0.616204 0.052604 0.156481
4 0.891406 0.501852 0.017188 0.044444
3 0.891406 0.519907 0.018229 0.078704
0 0.819792 0.343056 0.006250 0.012037
3 0.733073 0.224074 0.019271 0.100000
0 0.732292 0.181944 0.008333 0.010185
2 0.732552 0.210648 0.016146 0.032407
3 0.827865 0.355556 0.023438 0.038889
