3 0.603906 0.098611 0.020313 0.099074
3 0.733594 0.129630 0.025521 0.081481
4 0.606771 0.083796 0.014583 0.032407
0 0.603906 0.055556 0.008854 0.012963
3 0.616667 0.085185 0.014583 0.109259
0 0.726302 0.095833 0.009896 0.013889
4 0.733854 0.112963 0.013542 0.024074
