0 0.788021 0.477778 0.009375 0.018519
0 0.718229 0.180093 0.008333 0.012037
4 0.786198 0.512037 0.019271 0.044444
4 0.556771 0.562963 0.021875 0.066667
3 0.555729 0.578241 0.027083 0.152778
3 0.784896 0.528704 0.023958 0.122222
2 0.716667 0.208333 0.013542 0.033333
3 0.717187 0.223148 0.021875 0.098148
1 0.555729 0.514352 0.011458 0.025000
0 0.722917 0.286111 0.008333 0.011111
2 0.723958 0.317130 0.010417 0.037963
3 0.724219 0.330556 0.014063 0.100000
0 0.561458 0.600000 0.012500 0.018519
