4 0.706250 0.102778 0.015625 0.031481
0 0.712240 0.083796 0.009896 0.017593
3 0.706510 0.120833 0.028646 0.091667
3 0.783333 0.131019 0.020833 0.091667
3 0.845313 0.141204 0.014583 0.089815
0 0.978906 0.459259 0.006771 0.012963
3 0.968750 0.500926 0.028125 0.098148
