3 0.713542 0.120833 0.031250 0.093519
3 0.784115 0.133333 0.021354 0.092593
0 0.721615 0.087963 0.007812 0.018519
0 0.712500 0.085648 0.009375 0.015741
4 0.705990 0.104630 0.014063 0.029630
3 0.839323 0.139815 0.013021 0.092593
0 0.842708 0.100926 0.007292 0.012963
0 0.974479 0.456019 0.008333 0.015741
3 0.969271 0.472685 0.018750 0.049074
