0 0.784635 0.472222 0.009896 0.014815
4 0.782292 0.509259 0.019792 0.046296
4 0.619792 0.565278 0.021875 0.067593
2 0.695312 0.205093 0.014583 0.037963
3 0.782292 0.524074 0.021875 0.116667
3 0.623698 0.581944 0.045312 0.162037
3 0.694792 0.218056 0.021875 0.097222
0 0.639323 0.599074 0.014063 0.020370
1 0.621354 0.515278 0.010417 0.023148
0 0.694531 0.296296 0.009896 0.016667
2 0.702344 0.315741 0.010937 0.037037
3 0.698698 0.330556 0.018229 0.087037
