4 0.706510 0.103241 0.015104 0.037963
0 0.783854 0.090741 0.009375 0.011111
3 0.833073 0.137500 0.019271 0.093519
3 0.712500 0.117593 0.029167 0.092593
3 0.786198 0.131019 0.019271 0.091667
0 0.713021 0.078704 0.008333 0.012963
0 0.828125 0.097222 0.008333 0.012963
