0 0.682292 0.177315 0.009375 0.013889
0 0.781250 0.471759 0.010417 0.013889
2 0.679948 0.203704 0.010937 0.033333
3 0.782031 0.525000 0.017188 0.120370
4 0.782292 0.512037 0.016667 0.046296
3 0.679167 0.218056 0.017708 0.097222
0 0.612500 0.179630 0.008333 0.016667
2 0.621354 0.200463 0.013542 0.032407
3 0.618229 0.195833 0.019792 0.050926
1 0.892188 0.503704 0.010417 0.020370
4 0.892188 0.548148 0.018750 0.062963
3 0.892188 0.542593 0.018750 0.096296
