4 0.764323 0.492130 0.011979 0.036111
0 0.714583 0.074537 0.009375 0.015741
3 0.766146 0.503704 0.015625 0.127778
0 0.768750 0.465741 0.009375 0.016667
4 0.710417 0.099074 0.012500 0.031481
3 0.711458 0.116667 0.016667 0.100000
3 0.761719 0.127778 0.021354 0.088889
0 0.755208 0.089815 0.007292 0.012963
