4 0.759635 0.498148 0.017188 0.037037
0 0.709375 0.080093 0.008333 0.017593
0 0.767969 0.085648 0.006771 0.010185
4 0.702083 0.100926 0.012500 0.033333
4 0.986458 0.565278 0.023958 0.052778
3 0.985938 0.567130 0.028125 0.089815
0 0.751563 0.473611 0.009375 0.017593
3 0.757812 0.514352 0.022917 0.099074
3 0.772656 0.127315 0.024479 0.093519
3 0.704948 0.115278 0.018229 0.086111
