0 0.667188 0.173148 0.009375 0.012963
3 0.346094 0.581481 0.031771 0.064815
2 0.664062 0.202778 0.013542 0.035185
0 0.339062 0.562963 0.015625 0.029630
0 0.647135 0.526389 0.013021 0.019444
3 0.664583 0.216204 0.017708 0.097222
3 0.642188 0.573611 0.032292 0.110185
4 0.641406 0.565741 0.018229 0.051852
0 0.744010 0.291667 0.008854 0.012963
0 0.814323 0.477778 0.009896 0.016667
