0 0.703906 0.216667 0.005729 0.016667
3 0.827344 0.355093 0.022396 0.045370
0 0.461458 0.545833 0.015625 0.026852
3 0.692969 0.237037 0.029687 0.064815
3 0.456771 0.630556 0.041667 0.200000
4 0.459115 0.600463 0.027604 0.084259
0 0.821094 0.341204 0.008854 0.013889
