0 0.588021 0.568056 0.016667 0.021296
4 0.601042 0.641667 0.030208 0.094444
3 0.597917 0.645833 0.038542 0.175000
3 0.704167 0.223148 0.014583 0.096296
0 0.701042 0.180556 0.008333 0.012963
2 0.702865 0.206944 0.011979 0.036111
3 0.831771 0.349074 0.020833 0.055556
0 0.826302 0.330093 0.010937 0.015741
