0 0.463542 0.551852 0.013542 0.025926
4 0.465104 0.617593 0.027083 0.094444
3 0.465885 0.619907 0.042188 0.160185
3 0.737500 0.224537 0.016667 0.097222
2 0.736719 0.209722 0.013021 0.032407
0 0.733073 0.182407 0.006771 0.012963
0 0.821615 0.344444 0.008854 0.016667
3 0.889062 0.512037 0.013542 0.098148
4 0.889323 0.505093 0.013021 0.047222
4 0.892708 0.470833 0.004167 0.012037
