4 0.726823 0.111574 0.019271 0.023148
3 0.730729 0.132870 0.033333 0.069444
3 0.791146 0.132870 0.027083 0.091667
0 0.740625 0.106481 0.007292 0.016667
0 0.830990 0.095370 0.007812 0.009259
3 0.832552 0.138426 0.016146 0.095370
4 0.835417 0.118056 0.010417 0.028704
