4 0.701823 0.101389 0.013021 0.030556
0 0.704948 0.075926 0.007812 0.012963
0 0.786198 0.090278 0.008854 0.013889
3 0.830990 0.137500 0.019271 0.097222
3 0.706250 0.116667 0.021875 0.094444
3 0.785677 0.130556 0.019271 0.094444
0 0.826042 0.097222 0.009375 0.018519
4 0.832292 0.117593 0.013542 0.029630
