3 0.827344 0.136111 0.019271 0.096296
0 0.788802 0.092593 0.007812 0.009259
3 0.727083 0.132870 0.029167 0.065741
3 0.790104 0.132870 0.029167 0.091667
0 0.736458 0.108796 0.009375 0.015741
4 0.723958 0.117593 0.014583 0.022222
0 0.825260 0.093056 0.008854 0.006481
0 0.966146 0.453241 0.009375 0.015741
3 0.963281 0.497685 0.016146 0.106481
