3 0.559896 0.078241 0.023958 0.113889
3 0.623958 0.104167 0.022917 0.100926
3 0.484896 0.083796 0.027083 0.115741
0 0.482812 0.034259 0.009375 0.012963
4 0.484635 0.061111 0.014063 0.037037
4 0.559896 0.058333 0.015625 0.033333
0 0.620573 0.061111 0.008854 0.012963
3 0.789323 0.048611 0.024479 0.065741
0 0.781510 0.023148 0.007812 0.014815
