0 0.694271 0.180556 0.007292 0.012963
3 0.652083 0.246759 0.015625 0.104630
4 0.786458 0.510648 0.020833 0.047222
0 0.789062 0.472685 0.009375 0.012037
2 0.694010 0.207407 0.015104 0.033333
4 0.658594 0.562037 0.024479 0.072222
3 0.655990 0.570370 0.029687 0.133333
3 0.694531 0.220370 0.021354 0.090741
3 0.786719 0.522685 0.023438 0.113889
1 0.657292 0.518056 0.012500 0.028704
0 0.667708 0.601852 0.013542 0.018519
0 0.648698 0.201852 0.009896 0.014815
2 0.652865 0.233333 0.011979 0.042593
