3 0.475521 0.622222 0.047917 0.131481
4 0.467969 0.617593 0.032813 0.077778
0 0.491146 0.571759 0.017708 0.034259
3 0.711198 0.225463 0.018229 0.100926
0 0.707031 0.181019 0.009896 0.013889
2 0.709115 0.209259 0.014063 0.037037
3 0.825521 0.349074 0.016667 0.048148
0 0.821354 0.332870 0.008333 0.015741
2 0.828906 0.352315 0.008854 0.030556
