4 0.698438 0.103704 0.013542 0.037037
0 0.705729 0.077315 0.008333 0.015741
3 0.700000 0.116204 0.019792 0.095370
0 0.220052 0.492130 0.016146 0.023148
4 0.224740 0.544444 0.020313 0.062963
3 0.223958 0.554167 0.025000 0.147222
3 0.760156 0.128241 0.019271 0.087963
0 0.753125 0.089352 0.006250 0.010185
