0 0.710677 0.181944 0.008854 0.012037
0 0.781510 0.471759 0.009896 0.013889
3 0.782292 0.525000 0.017708 0.120370
4 0.782292 0.512500 0.016667 0.047222
2 0.707552 0.208796 0.011979 0.032407
3 0.708594 0.224074 0.019271 0.098148
0 0.614583 0.168056 0.007292 0.008333
2 0.614323 0.198611 0.014063 0.039815
3 0.616146 0.216204 0.017708 0.104630
3 0.887240 0.521296 0.015104 0.077778
4 0.887500 0.510185 0.012500 0.044444
4 0.953125 0.546296 0.018750 0.059259
3 0.954688 0.538426 0.036458 0.086111
0 0.974479 0.571759 0.010417 0.015741
1 0.957812 0.505093 0.010417 0.019444
