3 0.377604 0.591204 0.040625 0.078704
4 0.376302 0.606019 0.023438 0.047222
1 0.377604 0.569444 0.016667 0.031481
3 0.786458 0.232870 0.013542 0.089815
3 0.807552 0.356944 0.023438 0.037963
0 0.800260 0.344907 0.007812 0.013889
