4 0.886198 0.508796 0.009896 0.023148
3 0.885156 0.525926 0.013021 0.068519
3 0.552083 0.680556 0.048958 0.218519
0 0.554948 0.585648 0.017188 0.028704
4 0.553385 0.661574 0.030729 0.100926
3 0.718750 0.225000 0.017708 0.098148
0 0.722135 0.182407 0.008854 0.011111
2 0.719271 0.212037 0.012500 0.035185
