0 0.733594 0.079630 0.009896 0.011111
3 0.603906 0.099074 0.021354 0.101852
3 0.732812 0.121296 0.025000 0.094444
4 0.606771 0.082407 0.013542 0.033333
0 0.606771 0.054630 0.009375 0.012963
3 0.629167 0.091204 0.022917 0.104630
4 0.626823 0.069444 0.015104 0.031481
4 0.735677 0.106019 0.015104 0.030556
