4 0.706771 0.098611 0.009375 0.032407
3 0.710417 0.118519 0.017708 0.098148
3 0.762500 0.128241 0.023958 0.091667
0 0.711979 0.078704 0.008333 0.018519
0 0.754427 0.088889 0.006771 0.011111
3 0.940365 0.473148 0.019271 0.046296
0 0.945573 0.458796 0.007812 0.015741
