0 0.714063 0.076852 0.008333 0.018519
3 0.772135 0.513889 0.021354 0.111111
0 0.774740 0.466204 0.010937 0.013889
4 0.775260 0.500000 0.014063 0.038889
3 0.761719 0.128704 0.023438 0.088889
4 0.708594 0.100000 0.013021 0.033333
3 0.710677 0.117130 0.017188 0.097222
0 0.754167 0.089815 0.008333 0.012963
