4 0.720573 0.506019 0.015104 0.023148
4 0.701302 0.100000 0.015104 0.035185
3 0.699219 0.117130 0.018229 0.093519
3 0.722135 0.535185 0.027604 0.077778
0 0.732552 0.506944 0.005729 0.019444
0 0.976562 0.534259 0.012500 0.020370
4 0.977344 0.569907 0.022396 0.030556
3 0.976042 0.557407 0.032292 0.066667
3 0.772135 0.127315 0.022396 0.091667
0 0.765625 0.085648 0.008333 0.008333
