0 0.681771 0.176852 0.011458 0.018519
2 0.683333 0.204167 0.013542 0.037963
3 0.683333 0.215741 0.019792 0.090741
0 0.289583 0.542593 0.016667 0.022222
0 0.724219 0.470833 0.009896 0.015741
4 0.722396 0.504630 0.012500 0.040741
3 0.720313 0.511574 0.017708 0.095370
0 0.686458 0.281019 0.010417 0.008333
2 0.683594 0.313889 0.011979 0.040741
3 0.683594 0.329630 0.017188 0.105556
