4 0.707812 0.102778 0.013542 0.027778
0 0.715885 0.083333 0.009896 0.016667
3 0.712240 0.121296 0.022396 0.092593
3 0.788021 0.131481 0.028125 0.090741
0 0.784635 0.091667 0.007812 0.009259
0 0.959896 0.454630 0.009375 0.016667
3 0.956771 0.498611 0.015625 0.104630
