4 0.700781 0.100926 0.011979 0.035185
3 0.700521 0.117130 0.013542 0.095370
4 0.721094 0.506944 0.018229 0.021296
3 0.724219 0.534259 0.029687 0.075926
3 0.774479 0.126852 0.023958 0.090741
0 0.773177 0.087037 0.007812 0.009259
0 0.734635 0.509722 0.006771 0.019444
0 0.976302 0.535648 0.013021 0.019444
4 0.976562 0.568056 0.021875 0.030556
3 0.975521 0.556944 0.032292 0.063889
