4 0.759635 0.497222 0.016146 0.037037
3 0.762500 0.130093 0.022917 0.089815
0 0.713281 0.076389 0.008854 0.013889
4 0.707031 0.100000 0.011979 0.031481
0 0.755208 0.470370 0.011458 0.020370
3 0.755208 0.514352 0.027083 0.106481
3 0.709375 0.117593 0.016667 0.098148
0 0.754948 0.090278 0.007812 0.012037
