3 0.488281 0.644907 0.063021 0.104630
0 0.507552 0.611574 0.014063 0.034259
4 0.476823 0.634722 0.039062 0.071296
3 0.888802 0.511111 0.013021 0.094444
4 0.889323 0.503704 0.010937 0.046296
0 0.825781 0.336111 0.008854 0.014815
3 0.735938 0.223611 0.020833 0.099074
0 0.729948 0.182407 0.008854 0.011111
2 0.735156 0.207870 0.011979 0.034259
