0 0.790365 0.476852 0.010937 0.016667
0 0.726562 0.182870 0.009375 0.012037
4 0.786198 0.506944 0.020313 0.041667
2 0.721615 0.209259 0.011979 0.035185
3 0.682031 0.199537 0.020313 0.099074
3 0.785937 0.524537 0.022917 0.113889
2 0.612500 0.195833 0.013542 0.036111
3 0.611458 0.215741 0.014583 0.103704
0 0.933333 0.490741 0.010417 0.012963
4 0.936719 0.535185 0.017188 0.050000
3 0.934896 0.537963 0.020833 0.107407
