4 0.726823 0.111574 0.018229 0.023148
0 0.787760 0.091204 0.007812 0.010185
3 0.729688 0.131944 0.032292 0.069444
3 0.790365 0.132407 0.026562 0.092593
0 0.740885 0.106481 0.006771 0.016667
0 0.831771 0.094444 0.008333 0.007407
4 0.835677 0.118981 0.008854 0.032407
3 0.834115 0.137500 0.013021 0.093519
