3 0.831771 0.137500 0.018750 0.095370
3 0.725260 0.131481 0.043229 0.064815
3 0.782292 0.133796 0.018750 0.086111
0 0.733854 0.107870 0.007292 0.015741
4 0.720313 0.113426 0.016667 0.021296
0 0.827344 0.094444 0.008854 0.011111
4 0.833854 0.116667 0.010417 0.027778
