4 0.836458 0.126852 0.012500 0.029630
0 0.789323 0.092593 0.006771 0.009259
3 0.722396 0.128704 0.026042 0.077778
3 0.790885 0.132870 0.027604 0.091667
3 0.836979 0.144444 0.019792 0.081481
0 0.730729 0.098148 0.008333 0.016667
4 0.720833 0.113426 0.017708 0.030556
0 0.840104 0.110185 0.007292 0.012963
