0 0.708854 0.078241 0.008333 0.015741
4 0.699479 0.097222 0.013542 0.031481
3 0.702083 0.117130 0.021875 0.093519
3 0.784896 0.131944 0.026042 0.091667
3 0.838802 0.141204 0.017188 0.087963
0 0.837500 0.102778 0.009375 0.011111
2 0.839583 0.125926 0.012500 0.035185
