4 0.694531 0.096759 0.010937 0.030556
3 0.696354 0.112963 0.017708 0.096296
0 0.947396 0.550926 0.015625 0.018519
3 0.943490 0.566667 0.023438 0.051852
0 0.700781 0.070833 0.007812 0.013889
3 0.763542 0.126852 0.025000 0.087037
