3 0.784635 0.131944 0.024479 0.087963
0 0.717448 0.106481 0.008854 0.018519
4 0.704167 0.109722 0.017708 0.019444
3 0.712500 0.131944 0.034375 0.067593
4 0.740625 0.090741 0.011458 0.022222
3 0.741927 0.114352 0.014063 0.075000
0 0.779167 0.092130 0.007292 0.006481
3 0.831250 0.140741 0.013542 0.088889
0 0.827344 0.104167 0.005729 0.013889
