4 0.601562 0.672656 0.059375 0.095312
3 0.594531 0.682813 0.082812 0.165625
0 0.562500 0.613281 0.028125 0.023438
4 0.906250 0.547656 0.162500 0.148438
0 0.525000 0.589844 0.028125 0.023438
0 0.367969 0.581250 0.032813 0.034375
3 0.239063 0.803125 0.215625 0.390625
0 0.858594 0.385156 0.085938 0.089063
0 0.248438 0.671875 0.112500 0.125000
3 0.505469 0.660937 0.073438 0.168750
3 0.360156 0.657031 0.076563 0.179688
4 0.226562 0.881250 0.162500 0.237500
3 0.843750 0.657813 0.312500 0.643750
4 0.496094 0.645312 0.057813 0.096875
2 0.350000 0.659375 0.053125 0.100000
