1 0.153125 0.175000 0.087500 0.087500
2 0.184375 0.439844 0.250000 0.351562
1 0.900781 0.235156 0.073438 0.076563
0 0.653906 0.163281 0.139063 0.129688
2 0.699219 0.563281 0.176563 0.454688
2 0.859375 0.450781 0.125000 0.270313
3 0.864844 0.585938 0.179688 0.781250
3 0.677344 0.542969 0.217188 0.898438
3 0.188281 0.551562 0.264062 0.896875
