0 0.925000 0.085938 0.087500 0.078125
0 0.261719 0.196094 0.051562 0.064062
4 0.247656 0.342969 0.104688 0.217188
3 0.121875 0.467969 0.196875 0.804688
3 0.897656 0.381250 0.135937 0.687500
3 0.257812 0.402344 0.125000 0.564063
4 0.915625 0.268750 0.096875 0.228125
3 0.385937 0.391406 0.115625 0.507812
4 0.392188 0.297656 0.068750 0.157812
3 0.475781 0.392188 0.129688 0.534375
4 0.125781 0.324219 0.154688 0.295312
0 0.464844 0.178125 0.060937 0.075000
4 0.676562 0.296875 0.115625 0.234375
0 0.669531 0.126562 0.067187 0.065625
0 0.149219 0.115625 0.082812 0.071875
4 0.473438 0.310937 0.084375 0.190625
3 0.667188 0.381250 0.162500 0.578125
0 0.396094 0.161719 0.042188 0.045312
0 0.872656 0.189844 0.045312 0.048438
