3 0.248438 0.836719 0.309375 0.298438
0 0.737500 0.145313 0.118750 0.053125
0 0.725000 0.725000 0.112500 0.053125
3 0.714844 0.836719 0.289062 0.282813
3 0.728125 0.256250 0.300000 0.281250
4 0.253125 0.862500 0.246875 0.196875
4 0.719531 0.868750 0.254688 0.175000
4 0.732812 0.292187 0.287500 0.196875
4 0.253125 0.595313 0.250000 0.181250
4 0.753125 0.595313 0.246875 0.168750
1 0.757812 0.440625 0.106250 0.046875
1 0.266406 0.445312 0.120313 0.065625
1 0.246094 0.153906 0.098437 0.060937
4 0.245312 0.294531 0.253125 0.179688
3 0.259375 0.556250 0.321875 0.275000
3 0.250000 0.258594 0.303125 0.276562
3 0.753906 0.553906 0.317188 0.267188
