1 0.738281 0.718750 0.114062 0.071875
1 0.264062 0.135156 0.143750 0.067187
1 0.240625 0.431250 0.143750 0.053125
3 0.735156 0.553906 0.323437 0.292187
1 0.241406 0.432031 0.139063 0.054688
3 0.746094 0.260937 0.320312 0.290625
3 0.744531 0.853125 0.301563 0.293750
3 0.267188 0.246094 0.309375 0.295312
3 0.243750 0.550000 0.325000 0.284375
1 0.271875 0.717187 0.112500 0.062500
3 0.287500 0.835938 0.293750 0.300000
4 0.753125 0.292187 0.265625 0.187500
4 0.756250 0.856250 0.240625 0.175000
4 0.273438 0.867188 0.221875 0.175000
4 0.242188 0.594531 0.296875 0.176563
4 0.739844 0.588281 0.273438 0.189062
4 0.265625 0.292969 0.290625 0.192188
1 0.747656 0.148438 0.101562 0.065625
1 0.732031 0.449219 0.114062 0.051562
