3 0.257812 0.464063 0.515625 0.88125
4 0.732031 0.567187 0.467187 0.490625
4 0.236719 0.558594 0.448438 0.551562
3 0.735156 0.446875 0.529688 0.8125
1 0.7375 0.136719 0.240625 0.176563
1 0.25625 0.0867188 0.259375 0.157813
