3 0.644531 0.5 0.389062 0.940625
3 0.320312 0.558594 0.365625 0.854688
4 0.635938 0.564844 0.353125 0.532812
4 0.319531 0.642187 0.351562 0.540625
1 0.339063 0.210938 0.1875 0.134375
1 0.604688 0.071875 0.18125 0.140625
