4 0.800000 0.702344 0.265625 0.379688
1 0.516406 0.384375 0.098437 0.078125
1 0.228906 0.385937 0.110937 0.081250
1 0.799219 0.371094 0.110937 0.089063
3 0.822656 0.653906 0.335938 0.689063
3 0.217188 0.662500 0.306250 0.675000
4 0.222656 0.761719 0.282813 0.476562
4 0.517188 0.739844 0.250000 0.401562
3 0.532813 0.666406 0.284375 0.667188
