1 0.775781 0.389844 0.117188 0.0921875
4 0.198437 0.739062 0.25625 0.44375
1 0.209375 0.375 0.125 0.096875
1 0.485938 0.385156 0.121875 0.0859375
3 0.478125 0.664844 0.3 0.657812
3 0.775781 0.66875 0.342187 0.6625
4 0.773438 0.761719 0.28125 0.439063
3 0.177344 0.659375 0.329688 0.68125
4 0.482031 0.739844 0.251563 0.423438
