3 0.095312 0.282031 0.128125 0.223438
3 0.708594 0.511719 0.445312 0.864062
3 0.946875 0.410156 0.106250 0.395313
4 0.685156 0.480469 0.367188 0.485938
0 0.553125 0.146094 0.231250 0.179688
1 0.732031 0.123438 0.145313 0.084375
