3 0.380469 0.525000 0.151562 0.262500
0 0.230469 0.361719 0.060937 0.051562
3 0.589063 0.756250 0.168750 0.450000
3 0.252344 0.483594 0.126562 0.267188
0 0.267969 0.401562 0.073438 0.059375
2 0.581250 0.725000 0.146875 0.190625
0 0.231250 0.299219 0.065625 0.057813
0 0.381250 0.407813 0.071875 0.050000
0 0.612500 0.573438 0.084375 0.068750
2 0.367969 0.525000 0.104688 0.153125
2 0.260937 0.522656 0.081250 0.173437
3 0.199219 0.357031 0.129688 0.182812
