3 0.297656 0.372656 0.154687 0.426562
0 0.936719 0.35625 0.107813 0.090625
0 0.707031 0.339844 0.0421875 0.0484375
0 0.65 0.400781 0.059375 0.0546875
3 0.935938 0.482812 0.128125 0.35625
0 0.314844 0.189063 0.0953125 0.075
3 0.776563 0.461719 0.184375 0.329688
