3 0.804688 0.675781 0.25 0.648438
2 0.06875 0.76875 0.1375 0.4
2 0.0679687 0.21875 0.135937 0.4
3 0.117188 0.4875 0.234375 0.975
1 0.582031 0.153906 0.0671875 0.0671875
3 0.323438 0.495313 0.278125 0.990625
1 0.484375 0.348437 0.0625 0.08125
1 0.31875 0.01875 0.065625 0.0375
2 0.436719 0.189844 0.110937 0.220313
2 0.682813 0.323438 0.153125 0.296875
1 0.421875 0.0242187 0.0625 0.0484375
1 0.674219 0.0773437 0.0796875 0.0703125
1 0.261719 0.115625 0.0703125 0.06875
1 0.821094 0.142969 0.0640625 0.0609375
1 0.541406 0.200781 0.0828125 0.0734375
1 0.775781 0.403125 0.0828125 0.09375
1 0.344531 0.101562 0.0796875 0.08125
1 0.930469 0.289062 0.0796875 0.090625
