2 0.621875 0.610156 0.165625 0.189063
3 0.866406 0.55625 0.189063 0.24375
3 0.636719 0.575781 0.204688 0.279687
2 0.217187 0.604688 0.1875 0.24375
3 0.444531 0.685156 0.239063 0.598437
0 0.6875 0.491406 0.0875 0.0734375
3 0.198437 0.688281 0.228125 0.592188
0 0.934375 0.484375 0.075 0.10625
0 0.258594 0.428906 0.117188 0.0890625
0 0.7625 0.403906 0.078125 0.0703125
0 0.521094 0.460156 0.101562 0.0890625
