2 0.223438 0.517187 0.33125 0.38125
3 0.813281 0.669531 0.126563 0.198437
3 0.223438 0.522656 0.39375 0.923437
0 0.586719 0.423438 0.0421875 0.040625
0 0.242969 0.182031 0.176563 0.204688
0 0.785156 0.596875 0.0546875 0.0625
