2 0.860156 0.539062 0.0328125 0.0875
0 0.857813 0.478906 0.0375 0.0265625
3 0.225781 0.703906 0.170312 0.592188
2 0.222656 0.735156 0.129688 0.467187
2 0.39375 0.646875 0.13125 0.278125
3 0.858594 0.566406 0.0453125 0.201562
3 0.386719 0.711719 0.170312 0.576563
1 0.215625 0.451562 0.059375 0.05625
1 0.388281 0.444531 0.0640625 0.0578125
