3 0.125781 0.69375 0.0796875 0.14375
4 0.122656 0.696875 0.0734375 0.10625
3 0.6875 0.727344 0.11875 0.339063
0 0.125 0.603125 0.05625 0.059375
3 0.128125 0.760938 0.103125 0.396875
4 0.697656 0.688281 0.0765625 0.101562
0 0.700781 0.583594 0.0453125 0.0546875
