3 0.28125 0.229687 0.203125 0.26875
3 0.570312 0.264844 0.0875 0.179688
3 0.76875 0.43125 0.215625 0.496875
3 0.220313 0.50625 0.390625 0.43125
2 0.93125 0.465625 0.1375 0.3
3 0.900781 0.419531 0.198437 0.517187
0 0.779688 0.267188 0.115625 0.115625
3 0.670313 0.264844 0.11875 0.260938
0 0.672656 0.158594 0.0609375 0.0421875
0 0.328906 0.350781 0.142188 0.0984375
0 0.300781 0.139844 0.101562 0.0671875
0 0.907031 0.228125 0.185937 0.121875
