0 0.809375 0.416406 0.0625 0.0671875
3 0.547656 0.615625 0.151562 0.7625
0 0.710156 0.292969 0.123438 0.101562
0 0.242969 0.274219 0.0890625 0.0890625
1 0.0164062 0.390625 0.0296875 0.04375
2 0.553906 0.496094 0.114063 0.226562
2 0.929688 0.503906 0.125 0.198437
0 0.5375 0.299219 0.06875 0.0640625
0 0.455469 0.3 0.0703125 0.075
1 0.0578125 0.382031 0.05 0.0546875
0 0.917969 0.336719 0.0671875 0.0578125
3 0.927344 0.627344 0.145313 0.673437
3 0.469531 0.623438 0.195312 0.746875
2 0.065625 0.497656 0.090625 0.142188
2 0.457812 0.519531 0.134375 0.223438
2 0.711719 0.523438 0.154687 0.26875
3 0.713281 0.635156 0.198437 0.717188
3 0.0640625 0.5875 0.125 0.48125
2 0.2375 0.53125 0.15625 0.275
3 0.229687 0.640625 0.203125 0.71875
