2 0.616406 0.646875 0.298438 0.2625
3 0.610156 0.597656 0.426562 0.423438
0 0.708594 0.332031 0.0984375 0.0734375
0 0.925781 0.330469 0.0984375 0.0953125
0 0.782812 0.441406 0.203125 0.173438
0 0.523438 0.460938 0.153125 0.103125
