2 0.576563 0.35625 0.128125 0.228125
3 0.725 0.247656 0.090625 0.195312
3 0.571875 0.358594 0.1375 0.254687
3 0.344531 0.529688 0.189063 0.74375
2 0.351562 0.428125 0.153125 0.26875
0 0.539844 0.264062 0.0609375 0.0875
0 0.328125 0.240625 0.078125 0.109375
