2 0.710938 0.471875 0.153125 0.20625
3 0.0601562 0.759375 0.117188 0.48125
3 0.698438 0.509375 0.203125 0.459375
0 0.939844 0.23125 0.110937 0.1
3 0.925 0.482031 0.15 0.642187
2 0.469531 0.422656 0.135937 0.157813
0 0.435937 0.294531 0.08125 0.0703125
3 0.464844 0.510938 0.182812 0.534375
