3 0.610937 0.560156 0.253125 0.879687
4 0.425 0.742969 0.44375 0.514063
4 0.821094 0.438281 0.167187 0.373437
0 0.589063 0.203125 0.115625 0.11875
3 0.832031 0.532031 0.239063 0.901563
0 0.785937 0.15 0.14375 0.140625
0 0.349219 0.114844 0.364062 0.220313
