3 0.209375 0.532812 0.4125 0.934375
0 0.196094 0.373437 0.354688 0.41875
0 0.464844 0.186719 0.129688 0.135937
3 0.798437 0.710938 0.321875 0.578125
0 0.801562 0.325 0.15 0.15
0 0.823438 0.524219 0.21875 0.170312
0 0.539062 0.2875 0.1625 0.175
