1 0.658594 0.521094 0.0359375 0.0609375
1 0.313281 0.584375 0.0546875 0.059375
3 0.739062 0.692969 0.171875 0.467187
3 0.64375 0.7125 0.115625 0.575
2 0.646875 0.663281 0.08125 0.207813
3 0.878906 0.705469 0.182812 0.507812
2 0.884375 0.68125 0.18125 0.309375
3 0.3125 0.764844 0.159375 0.385938
2 0.742188 0.692969 0.1375 0.301562
1 0.761719 0.440625 0.0640625 0.071875
1 0.885156 0.416406 0.0765625 0.0671875
