0 0.665625 0.11875 0.14375 0.08125
3 0.08671875 0.77265625 0.1671875 0.2265625
0 0.1640625 0.58984375 0.1140625 0.0703125
0 0.92265625 0.11953125 0.146875 0.084375
3 0.35 0.78671875 0.2171875 0.1796875
3 0.65546875 0.26640625 0.2375 0.1359375
3 0.9171875 0.28125 0.165625 0.1328125