0 0.5390625 0.28828125 0.134375 0.0984375
3 0.52109375 0.49609375 0.2109375 0.2796875
2 0.59375 0.9296875 0.134375 0.078125
2 0.46328125 0.8734375 0.0984375 0.078125
1 0.54296875 0.61171875 0.3859375 0.7765625