3 0.46875 0.44453125 0.1296875 0.3953125
0 0.484375 0.1140625 0.084375 0.10625
2 0.5859375 0.6078125 0.109375 0.1109375
2 0.5578125 0.67421875 0.090625 0.0984375
2 0.36953125 0.45234375 0.10625 0.1328125