3 0.51015625 0.45 0.1578125 0.31875
0 0.51328125 0.165625 0.0828125 0.078125
2 0.46484375 0.93671875 0.0453125 0.1109375
2 0.53828125 0.928125 0.0921875 0.090625
1 0.5265625 0.55546875 0.4421875 0.8890625