0 0.43984375 0.15625 0.0921875 0.08125
3 0.45390625 0.44296875 0.1765625 0.3171875
2 0.4390625 0.928125 0.046875 0.103125
2 0.49921875 0.94296875 0.0765625 0.1046875
1 0.44453125 0.54609375 0.3921875 0.9078125