0 0.3609375 0.18203125 0.090625 0.0953125
3 0.38984375 0.42421875 0.1765625 0.2671875
2 0.39140625 0.9125 0.0546875 0.084375
2 0.45 0.90703125 0.065625 0.0734375
1 0.37734375 0.54375 0.3421875 0.8703125