3 0.44609375 0.45234375 0.1703125 0.3234375
0 0.45625 0.56484375 0.096875 0.1109375
2 0.44296875 0.928125 0.0484375 0.10625
2 0.50078125 0.93203125 0.0640625 0.1140625
1 0.44453125 0.56640625 0.2890625 0.8671875