3 0.41953125 0.415625 0.1359375 0.228125
0 0.39296875 0.190625 0.0890625 0.06875
2 0.38203125 0.88671875 0.0953125 0.0640625
2 0.47890625 0.84921875 0.0828125 0.0578125
1 0.403125 0.5296875 0.2953125 0.8015625