3 0.4671875 0.509375 0.175 0.159375
0 0.45546875 0.228125 0.0984375 0.1
2 0.42421875 0.91171875 0.0734375 0.0921875
2 0.5015625 0.91328125 0.065625 0.0890625
1 0.47578125 0.56953125 0.5890625 0.7890625