0 0.7859375 0.565625 0.140625 0.128125
3 0.503125 0.46640625 0.184375 0.3640625
2 0.4453125 0.92734375 0.053125 0.1078125
2 0.53203125 0.953125 0.0734375 0.09375
1 0.52890625 0.56640625 0.3515625 0.8671875