0 0.51796875 0.16484375 0.0890625 0.0734375
3 0.51015625 0.44609375 0.1515625 0.3265625
2 0.50703125 0.953125 0.0890625 0.09375
2 0.54375 0.92890625 0.075 0.0890625
1 0.521875 0.55546875 0.290625 0.8890625