0 0.36640625 0.17890625 0.0859375 0.0859375
2 0.38984375 0.91015625 0.0515625 0.0796875
2 0.4453125 0.90703125 0.065625 0.0859375
3 0.39453125 0.428125 0.1640625 0.265625
1 0.3609375 0.5484375 0.4921875 0.871875