3 0.37421875 0.4140625 0.1609375 0.24375
0 0.34375 0.17890625 0.084375 0.0734375
2 0.365625 0.90859375 0.059375 0.0890625
2 0.42421875 0.9109375 0.0578125 0.078125
1 0.33515625 0.54296875 0.5546875 0.8390625