3 0.44140625 0.45 0.1640625 0.31875
0 0.44140625 0.64609375 0.1078125 0.1109375
2 0.440625 0.9328125 0.05 0.10625
2 0.49765625 0.94140625 0.0640625 0.1015625
1 0.44609375 0.56640625 0.2828125 0.8671875