0 0.384375 0.1875 0.10625 0.090625
3 0.38984375 0.41953125 0.1671875 0.2515625
2 0.3984375 0.91171875 0.096875 0.0640625
2 0.46015625 0.8703125 0.0859375 0.0625
1 0.4015625 0.54140625 0.2921875 0.8390625