0 0.7875 0.34296875 0.146875 0.1171875
3 0.7453125 0.59765625 0.278125 0.3453125
3 0.26875 0.6015625 0.2671875 0.3765625
1 0.75078125 0.59296875 0.4078125 0.6296875
1 0.27109375 0.59609375 0.3859375 0.646875