3 0.1984375 0.7390625 0.240625 0.4375
3 0.48046875 0.746875 0.25625 0.41875
3 0.77734375 0.76484375 0.2515625 0.4421875
1 0.184375 0.66171875 0.36875 0.6765625
1 0.4765625 0.65546875 0.384375 0.6890625
1 0.76484375 0.6640625 0.3796875 0.671875