0 0.31640625 0.14765625 0.040625 0.04375
0 0.6734375 0.1859375 0.04375 0.053125
0 0.46875 0.20703125 0.0375 0.0484375
1 0.32890625 0.52421875 0.13125 0.578125
1 0.47578125 0.596875 0.1546875 0.5
1 0.67578125 0.4078125 0.1171875 0.509375
1 0.46171875 0.26875 0.096875 0.16875
1 0.30234375 0.2671875 0.103125 0.275