3 0.7453125 0.6140625 0.509375 0.771875
3 0.1140625 0.63359375 0.0953125 0.359375
3 0.05703125 0.653125 0.0671875 0.328125
3 0.3875 0.659375 0.2984375 0.6796875
3 0.1640625 0.66796875 0.1484375 0.4859375
3 0.2578125 0.7234375 0.1359375 0.553125