3 0.746875 0.61640625 0.50625 0.765625
3 0.11171875 0.6375 0.08125 0.3953125
3 0.38125 0.6578125 0.29375 0.684375
3 0.065625 0.6625 0.0765625 0.3421875
3 0.16796875 0.66796875 0.1578125 0.4921875
3 0.25078125 0.7203125 0.1265625 0.559375