3 0.53359375 0.35703125 0.278125 0.3046875
2 0.61796875 0.73515625 0.203125 0.1359375
2 0.49140625 0.784375 0.171875 0.165625
0 0.4921875 0.078125 0.2234375 0.0953125
1 0.515625 0.4421875 0.453125 0.8421875