3 0.4609375 0.38125 0.2890625 0.25625
2 0.38359375 0.76171875 0.0890625 0.1515625
2 0.5484375 0.74921875 0.1140625 0.1421875
0 0.46328125 0.1390625 0.1953125 0.0796875
1 0.465625 0.4625 0.4828125 0.7546875