3 0.54609375 0.39921875 0.246875 0.2015625
2 0.6265625 0.7140625 0.103125 0.13125
2 0.50859375 0.70078125 0.10625 0.1234375
0 0.5296875 0.21328125 0.15 0.0640625
1 0.53984375 0.484375 0.359375 0.6078125