3 0.53046875 0.35546875 0.271875 0.2859375
2 0.61640625 0.73203125 0.1953125 0.1421875
2 0.484375 0.77421875 0.159375 0.1609375
0 0.49765625 0.0796875 0.23125 0.090625
1 0.52890625 0.453125 0.4796875 0.85