1 0.4859375 0.42265625 0.365625 0.603125
3 0.49296875 0.34765625 0.23125 0.2015625
2 0.428125 0.65703125 0.078125 0.1203125
2 0.578125 0.646875 0.1171875 0.115625
0 0.47890625 0.15390625 0.1375 0.0609375