3 0.496875 0.27734375 0.1453125 0.1296875
2 0.4734375 0.46796875 0.059375 0.0671875
2 0.5609375 0.4609375 0.0671875 0.059375
0 0.48359375 0.16328125 0.1125 0.0484375
1 0.4984375 0.321875 0.2234375 0.371875