3 0.5125 0.3515625 0.153125 0.121875
2 0.4859375 0.53515625 0.0609375 0.0734375
2 0.55859375 0.53828125 0.0609375 0.0765625
0 0.51171875 0.25 0.1015625 0.0546875
1 0.50703125 0.40703125 0.2171875 0.378125