3 0.4890625 0.34921875 0.184375 0.1578125
2 0.4609375 0.56640625 0.0609375 0.0796875
2 0.55 0.59609375 0.071875 0.0953125
0 0.48984375 0.209375 0.1234375 0.0484375
1 0.50078125 0.41171875 0.265625 0.465625