3 0.5015625 0.3640625 0.290625 0.284375
2 0.60390625 0.74140625 0.1640625 0.1484375
2 0.4375 0.76640625 0.1203125 0.1578125
0 0.45078125 0.10546875 0.21875 0.0890625
1 0.496875 0.45234375 0.475 0.7828125