3 0.57890625 0.35546875 0.246875 0.2734375
2 0.5359375 0.7515625 0.178125 0.128125
2 0.684375 0.65859375 0.1203125 0.1359375
0 0.56953125 0.09765625 0.21875 0.0875
1 0.57265625 0.4421875 0.3796875 0.7734375