3 0.49453125 0.45625 0.234375 0.215625
2 0.41953125 0.7359375 0.071875 0.115625
2 0.55703125 0.80546875 0.096875 0.1453125
0 0.51171875 0.2578125 0.146875 0.0703125
1 0.50078125 0.553125 0.3875 0.66875