3 0.5640625 0.32109375 0.25 0.2515625
2 0.4875 0.71796875 0.1875 0.1359375
2 0.61953125 0.66796875 0.0890625 0.1140625
0 0.503125 0.0890625 0.184375 0.0734375
1 0.5359375 0.42265625 0.315625 0.7484375