3 0.509375 0.28046875 0.1359375 0.1359375
2 0.48046875 0.471875 0.0609375 0.06875
2 0.58203125 0.484375 0.059375 0.08125
0 0.50234375 0.16328125 0.096875 0.0453125
1 0.50859375 0.3359375 0.265625 0.4046875