3 0.515625 0.34921875 0.1421875 0.1203125
2 0.484375 0.53671875 0.059375 0.0703125
2 0.54140625 0.52109375 0.0609375 0.0671875
0 0.50546875 0.24609375 0.0953125 0.0484375
1 0.515625 0.40078125 0.2203125 0.353125