3 0.5375 0.27421875 0.203125 0.1765625
2 0.48359375 0.52734375 0.078125 0.0953125
2 0.5984375 0.52578125 0.075 0.1015625
0 0.52265625 0.1140625 0.1171875 0.0546875
1 0.53671875 0.33359375 0.296875 0.496875