3 0.528125 0.38671875 0.3171875 0.2609375
2 0.4609375 0.7640625 0.0953125 0.159375
2 0.63359375 0.7578125 0.1390625 0.14375
0 0.503125 0.1328125 0.171875 0.0734375
1 0.53203125 0.47578125 0.4609375 0.7734375