3 0.51796875 0.29609375 0.16875 0.1546875
2 0.49453125 0.52109375 0.078125 0.0890625
2 0.5734375 0.51015625 0.053125 0.0703125
0 0.50625 0.153125 0.1140625 0.0453125
1 0.52109375 0.3484375 0.2953125 0.4484375