4 0.017448 0.881481 0.033854 0.227778
0 0.414844 0.055093 0.026562 0.043519
0 0.305990 0.143519 0.023438 0.044444
3 0.412240 0.169444 0.054688 0.277778
2 0.314063 0.211111 0.033333 0.105556
3 0.319271 0.255093 0.055208 0.276852
2 0.416146 0.118056 0.032292 0.075000
