0 0.422396 0.101389 0.026042 0.045370
4 0.218490 0.866667 0.119271 0.227778
2 0.426823 0.167130 0.029687 0.091667
0 0.310937 0.136111 0.025000 0.042593
3 0.425260 0.210648 0.051562 0.269444
3 0.202865 0.842593 0.161979 0.314815
0 0.147656 0.750926 0.061979 0.112963
3 0.319792 0.253241 0.059375 0.282407
2 0.314323 0.206481 0.033854 0.101852
