3 0.314844 0.906944 0.194271 0.184259
0 0.327083 0.140278 0.027083 0.043519
0 0.281250 0.874537 0.075000 0.106481
0 0.457031 0.132407 0.025521 0.035185
3 0.322917 0.256481 0.061458 0.277778
2 0.314583 0.206019 0.033333 0.091667
2 0.460938 0.201852 0.032292 0.077778
3 0.459896 0.246296 0.047917 0.251852
