0 0.414844 0.130556 0.022396 0.038889
0 0.357292 0.141204 0.023958 0.034259
3 0.359115 0.256481 0.068229 0.292593
3 0.434115 0.243056 0.064062 0.247222
2 0.427865 0.193056 0.034896 0.084259
2 0.359115 0.213426 0.043229 0.100926
