3 0.486719 0.805556 0.154688 0.388889
0 0.396615 0.159259 0.025521 0.042593
3 0.364063 0.258333 0.042708 0.288889
0 0.363542 0.139815 0.023958 0.044444
2 0.493750 0.825000 0.100000 0.185185
2 0.397917 0.230556 0.033333 0.100000
3 0.406510 0.276852 0.058854 0.281481
0 0.517708 0.699074 0.069792 0.140741
2 0.365365 0.207407 0.038021 0.098148
