0 0.390885 0.158333 0.025521 0.042593
3 0.488542 0.806944 0.136458 0.384259
3 0.363021 0.260648 0.039583 0.287963
3 0.401823 0.277778 0.053646 0.279630
2 0.490365 0.820370 0.102604 0.187037
0 0.364323 0.140741 0.022396 0.048148
2 0.394531 0.230556 0.030729 0.100000
0 0.515365 0.693056 0.071354 0.141667
2 0.364323 0.208796 0.035937 0.097222
