3 0.549219 0.874074 0.139063 0.251852
4 0.546094 0.937500 0.109896 0.119444
0 0.548698 0.829630 0.086979 0.159259
0 0.365365 0.137037 0.023438 0.042593
0 0.429167 0.139352 0.023958 0.032407
3 0.438542 0.252315 0.057292 0.260185
2 0.436458 0.207407 0.040625 0.096296
3 0.367188 0.255556 0.066667 0.290741
2 0.367188 0.214352 0.044792 0.102778
