0 0.309115 0.140741 0.024479 0.042593
2 0.314063 0.208333 0.033333 0.103704
3 0.319792 0.255556 0.055208 0.275926
0 0.390365 0.021759 0.021354 0.032407
2 0.409896 0.071296 0.026042 0.053704
3 0.402344 0.127778 0.051562 0.238889
