0 0.414583 0.055093 0.026042 0.043519
3 0.411198 0.170833 0.055729 0.278704
0 0.305208 0.143056 0.023958 0.043519
2 0.314844 0.208796 0.032813 0.100926
3 0.319792 0.255556 0.056250 0.277778
2 0.417187 0.118056 0.030208 0.075000
