0 0.304948 0.137037 0.022396 0.046296
4 0.154167 0.824537 0.102083 0.230556
3 0.416667 0.182407 0.056250 0.253704
3 0.142187 0.815278 0.151042 0.369444
2 0.315365 0.206944 0.033854 0.100926
0 0.405208 0.075000 0.028125 0.042593
3 0.321094 0.254167 0.056771 0.282407
0 0.090365 0.701389 0.057813 0.119444
2 0.418750 0.135648 0.032292 0.056481
