0 0.322135 0.134722 0.025521 0.034259
0 0.455990 0.128241 0.023438 0.034259
3 0.317708 0.251852 0.050000 0.253704
2 0.316667 0.205093 0.034375 0.093519
2 0.459115 0.193056 0.032813 0.082407
3 0.456510 0.243981 0.046354 0.252778
