0 0.334115 0.140278 0.023438 0.041667
0 0.426563 0.129167 0.023958 0.034259
3 0.430990 0.243056 0.054688 0.250926
3 0.341667 0.256019 0.060417 0.267593
2 0.434115 0.194907 0.038021 0.084259
2 0.342187 0.207870 0.046875 0.102778
0 0.459896 0.931019 0.084375 0.136111
