2 0.427083 0.173148 0.037500 0.090741
2 0.251563 0.905556 0.130208 0.187037
0 0.315365 0.137963 0.025521 0.042593
0 0.419531 0.104630 0.027604 0.038889
2 0.314063 0.207407 0.034375 0.101852
3 0.426042 0.215741 0.058333 0.262963
3 0.246615 0.847222 0.153646 0.294444
3 0.320573 0.253241 0.059896 0.280556
0 0.203125 0.758796 0.068750 0.110185
