0 0.337500 0.136574 0.025000 0.039815
0 0.416146 0.132407 0.026042 0.038889
3 0.424740 0.242593 0.060937 0.262963
2 0.430469 0.196759 0.039062 0.080556
2 0.343490 0.206944 0.046354 0.104630
3 0.345313 0.255556 0.063542 0.279630
