0 0.197135 0.950463 0.092188 0.099074
0 0.456510 0.128704 0.023438 0.033333
0 0.320312 0.131944 0.025000 0.037963
3 0.317708 0.255093 0.051042 0.282407
2 0.314063 0.207407 0.034375 0.098148
2 0.460417 0.195370 0.031250 0.083333
3 0.457813 0.245370 0.043750 0.253704
