3 0.285417 0.886111 0.184375 0.227778
0 0.429167 0.129167 0.026042 0.036111
0 0.329688 0.148611 0.028125 0.047222
2 0.313021 0.200926 0.034375 0.081481
3 0.320573 0.252778 0.064062 0.275926
0 0.234115 0.821296 0.069271 0.094444
2 0.439844 0.191204 0.033854 0.082407
3 0.436458 0.237037 0.059375 0.266667
