3 0.885938 0.524537 0.011458 0.063889
3 0.591146 0.644444 0.048958 0.177778
2 0.590625 0.643981 0.033333 0.106481
0 0.596875 0.572222 0.017708 0.027778
3 0.717969 0.223611 0.019271 0.097222
0 0.717969 0.180556 0.009896 0.012963
2 0.716406 0.210185 0.013021 0.033333
4 0.887760 0.511111 0.008854 0.022222
