0 0.783594 0.473148 0.011979 0.016667
0 0.707812 0.179630 0.009375 0.012963
4 0.782292 0.506481 0.019792 0.042593
4 0.597917 0.560185 0.023958 0.061111
2 0.708594 0.204630 0.015104 0.035185
3 0.708594 0.221296 0.020313 0.100000
3 0.781771 0.525463 0.020833 0.115741
3 0.595313 0.578241 0.032292 0.156481
0 0.605729 0.599074 0.011458 0.020370
1 0.594271 0.512500 0.011458 0.026852
0 0.722656 0.286111 0.008854 0.011111
2 0.724219 0.317130 0.011979 0.037963
3 0.720833 0.328704 0.019792 0.094444
