3 0.885938 0.523148 0.012500 0.068519
0 0.600260 0.573148 0.016146 0.029630
4 0.594792 0.646296 0.030208 0.101852
3 0.594271 0.650000 0.048958 0.185185
3 0.719531 0.224074 0.021354 0.100000
0 0.718490 0.180093 0.009896 0.012037
2 0.717187 0.208796 0.015625 0.032407
