0 0.722656 0.182870 0.008854 0.013889
0 0.786979 0.472222 0.010417 0.014815
4 0.784635 0.510648 0.020313 0.050926
2 0.716146 0.206944 0.014583 0.036111
3 0.784115 0.525926 0.022396 0.118519
3 0.715885 0.223148 0.024479 0.100000
0 0.620573 0.167593 0.007812 0.011111
2 0.616146 0.195370 0.012500 0.038889
3 0.618229 0.214815 0.017708 0.103704
