3 0.885938 0.526389 0.010417 0.063889
3 0.359896 0.581019 0.040625 0.075000
0 0.363802 0.555093 0.015104 0.019444
4 0.364844 0.598611 0.023438 0.039815
3 0.810677 0.353241 0.013021 0.045370
0 0.807292 0.337037 0.007292 0.011111
3 0.752604 0.226389 0.018750 0.093519
