0 0.671094 0.175926 0.008854 0.012963
0 0.783594 0.476852 0.010937 0.018519
3 0.782292 0.525463 0.020833 0.117593
4 0.782552 0.512500 0.019271 0.047222
2 0.670833 0.201389 0.013542 0.034259
3 0.671094 0.215278 0.020313 0.093519
0 0.617188 0.174537 0.009375 0.015741
2 0.624740 0.200463 0.013021 0.034259
3 0.621354 0.192593 0.018750 0.053704
