0 0.783073 0.478704 0.011979 0.016667
3 0.782552 0.527778 0.020313 0.118519
2 0.667969 0.201389 0.011979 0.030556
4 0.782813 0.512963 0.018750 0.046296
3 0.670052 0.218981 0.017188 0.093519
0 0.625260 0.179630 0.008854 0.014815
2 0.634635 0.202778 0.017188 0.031481
3 0.636719 0.218519 0.031771 0.092593
0 0.665625 0.175000 0.008333 0.009259
