2 0.692187 0.208796 0.012500 0.034259
3 0.397656 0.596759 0.033854 0.091667
4 0.402344 0.609722 0.024479 0.056481
0 0.692187 0.179630 0.009375 0.012963
3 0.690625 0.220370 0.019792 0.094444
0 0.329427 0.571759 0.010937 0.023148
0 0.386719 0.562963 0.011979 0.020370
0 0.693490 0.294907 0.006771 0.012037
3 0.699219 0.334722 0.018229 0.091667
2 0.703646 0.316667 0.010417 0.040741
0 0.962500 0.451389 0.007292 0.013889
4 0.962500 0.479630 0.015625 0.037037
3 0.962500 0.471759 0.015625 0.052778
