0 0.701823 0.212963 0.006771 0.016667
3 0.826823 0.355556 0.022396 0.046296
3 0.691927 0.236111 0.027604 0.062963
3 0.444271 0.634259 0.055208 0.194444
0 0.449479 0.548148 0.017708 0.022222
4 0.448437 0.615278 0.027083 0.097222
2 0.690104 0.220370 0.017708 0.024074
0 0.821875 0.340278 0.008333 0.013889
2 0.832812 0.361111 0.010417 0.031481
