4 0.088802 0.691667 0.030729 0.059259
0 0.695312 0.191204 0.008333 0.013889
0 0.105990 0.665741 0.018229 0.031481
0 0.435417 0.568056 0.017708 0.030556
3 0.091406 0.737037 0.048438 0.177778
3 0.437500 0.645370 0.047917 0.185185
2 0.689323 0.210185 0.017188 0.027778
4 0.436198 0.618981 0.024479 0.087963
3 0.690104 0.226389 0.019792 0.084259
0 0.740625 0.297222 0.009375 0.016667
3 0.744792 0.331944 0.017708 0.086111
