0 0.783073 0.479167 0.011979 0.015741
3 0.782292 0.528241 0.020833 0.121296
2 0.668750 0.201389 0.011458 0.032407
4 0.782292 0.509722 0.018750 0.047222
3 0.669531 0.218981 0.018229 0.095370
0 0.622135 0.174537 0.009896 0.012037
2 0.629948 0.200463 0.013021 0.034259
3 0.627083 0.217593 0.020833 0.100000
0 0.667448 0.175000 0.007812 0.011111
