4 0.545573 0.644444 0.028646 0.087037
0 0.540365 0.572685 0.016146 0.023148
3 0.532813 0.668056 0.053125 0.213889
0 0.737500 0.205093 0.009375 0.010185
2 0.727865 0.220833 0.018229 0.025000
3 0.729688 0.236574 0.026042 0.075000
3 0.831510 0.350463 0.019271 0.049074
0 0.825521 0.331944 0.007292 0.012037
2 0.834115 0.356481 0.013021 0.029630
