3 0.479687 0.631019 0.057292 0.108333
0 0.501563 0.596759 0.013542 0.034259
4 0.472917 0.625463 0.043750 0.067593
3 0.727083 0.225000 0.025000 0.096296
0 0.723958 0.182870 0.008333 0.013889
0 0.813802 0.342593 0.008854 0.014815
