0 0.704427 0.216204 0.006771 0.017593
3 0.827604 0.354167 0.018750 0.041667
3 0.693229 0.235648 0.031250 0.060185
0 0.469792 0.553704 0.016667 0.027778
3 0.452865 0.634259 0.054688 0.188889
4 0.462240 0.604167 0.028646 0.071296
2 0.690365 0.222685 0.019271 0.028704
0 0.822656 0.340741 0.008854 0.014815
0 0.961979 0.453241 0.009375 0.013889
