0 0.783854 0.478704 0.011458 0.018519
2 0.725260 0.205093 0.014063 0.036111
4 0.783073 0.512500 0.018229 0.045370
3 0.724479 0.223148 0.015625 0.092593
0 0.725781 0.182407 0.008854 0.011111
3 0.782292 0.526389 0.019792 0.115741
0 0.612500 0.166204 0.009375 0.010185
2 0.610938 0.194444 0.014583 0.040741
3 0.611719 0.216204 0.017188 0.108333
4 0.890104 0.501852 0.010417 0.031481
3 0.889844 0.515278 0.019271 0.089815
4 0.974219 0.543056 0.019271 0.058333
1 0.977344 0.500000 0.009896 0.018519
3 0.976562 0.538426 0.029167 0.093519
