3 0.827083 0.357407 0.021875 0.033333
0 0.497135 0.596759 0.013021 0.032407
4 0.468229 0.624537 0.042708 0.063889
3 0.778385 0.510185 0.027604 0.105556
3 0.474479 0.631481 0.057292 0.101852
3 0.690104 0.237963 0.028125 0.059259
0 0.699740 0.218056 0.008854 0.019444
2 0.685937 0.225463 0.018750 0.028704
0 0.820052 0.348611 0.007812 0.013889
0 0.779948 0.465278 0.009896 0.013889
4 0.775000 0.499074 0.016667 0.042593
