0 0.332031 0.560648 0.016146 0.023148
4 0.341667 0.596759 0.017708 0.039815
0 0.672656 0.179167 0.009896 0.013889
4 0.769792 0.507407 0.013542 0.038889
3 0.338542 0.582407 0.028125 0.070370
2 0.665365 0.203241 0.016146 0.034259
3 0.768229 0.522685 0.021875 0.112037
0 0.773438 0.475463 0.010417 0.017593
0 0.713281 0.288889 0.009896 0.014815
2 0.716146 0.318519 0.012500 0.038889
3 0.715365 0.325926 0.014063 0.088889
3 0.665885 0.218519 0.024479 0.092593
