3 0.638281 0.563426 0.022396 0.125000
4 0.641927 0.561574 0.016146 0.065741
0 0.653906 0.211111 0.010937 0.018519
4 0.786979 0.511574 0.019792 0.045370
0 0.788802 0.471759 0.008854 0.013889
3 0.653906 0.234722 0.017188 0.069444
2 0.698438 0.209722 0.013542 0.034259
3 0.699219 0.220370 0.017188 0.092593
3 0.788281 0.523611 0.024479 0.119444
1 0.643490 0.515278 0.011979 0.026852
2 0.657031 0.241204 0.008854 0.037963
0 0.696354 0.180556 0.008333 0.011111
