3 0.885156 0.528241 0.011979 0.060185
3 0.373437 0.587963 0.037500 0.081481
0 0.377865 0.559722 0.015104 0.023148
4 0.373177 0.606944 0.022396 0.041667
3 0.811719 0.355093 0.016146 0.043519
0 0.806250 0.337500 0.005208 0.008333
3 0.753646 0.225926 0.017708 0.090741
