3 0.915885 0.524537 0.024479 0.087963
0 0.724740 0.181944 0.008854 0.010185
0 0.790365 0.478241 0.010937 0.017593
4 0.785937 0.509259 0.019792 0.051852
2 0.720052 0.208796 0.014063 0.034259
3 0.785937 0.523611 0.023958 0.112037
3 0.719792 0.224537 0.017708 0.095370
0 0.612500 0.169444 0.008333 0.011111
2 0.616667 0.197222 0.015625 0.038889
3 0.616927 0.215278 0.017188 0.102778
0 0.919792 0.487500 0.011458 0.013889
4 0.919010 0.536111 0.017188 0.061111
