3 0.370312 0.587963 0.035417 0.081481
1 0.370052 0.565741 0.014063 0.031481
4 0.368750 0.604167 0.021875 0.045370
3 0.810417 0.353704 0.014583 0.044444
3 0.786458 0.233796 0.015625 0.087963
0 0.809115 0.336574 0.007812 0.010185
