0 0.463542 0.571296 0.016667 0.022222
4 0.463542 0.649537 0.032292 0.106481
3 0.463542 0.675000 0.060417 0.220370
3 0.714844 0.225926 0.019271 0.094444
0 0.710938 0.183796 0.008333 0.013889
3 0.831510 0.351852 0.017188 0.048148
0 0.827344 0.333796 0.007812 0.012037
2 0.833854 0.354630 0.013542 0.029630
