3 0.827604 0.359259 0.020833 0.037037
4 0.475521 0.619444 0.038542 0.062963
3 0.690104 0.238889 0.028125 0.059259
0 0.504167 0.596759 0.014583 0.030556
3 0.482292 0.632870 0.058333 0.102778
0 0.700260 0.217593 0.007812 0.016667
2 0.685677 0.225000 0.019271 0.033333
0 0.821615 0.348148 0.008854 0.014815
