3 0.623698 0.565741 0.026562 0.129630
4 0.622396 0.558333 0.021875 0.066667
0 0.788542 0.472685 0.011458 0.015741
4 0.786719 0.511111 0.021354 0.048148
3 0.699740 0.221296 0.017188 0.094444
2 0.699219 0.207870 0.016146 0.036111
3 0.786198 0.522685 0.022396 0.117593
1 0.628906 0.514815 0.014063 0.025926
0 0.636719 0.603704 0.011979 0.022222
0 0.662240 0.237500 0.009896 0.013889
3 0.664583 0.281944 0.014583 0.104630
