4 0.452865 0.618056 0.032813 0.089815
0 0.466667 0.561111 0.014583 0.029630
3 0.451042 0.641667 0.051042 0.190741
3 0.711198 0.227778 0.019271 0.088889
0 0.705990 0.190278 0.008854 0.012037
2 0.709635 0.215278 0.013021 0.030556
3 0.826042 0.351389 0.020833 0.049074
0 0.819792 0.335185 0.008333 0.014815
2 0.829167 0.352315 0.011458 0.034259
