2 0.723177 0.210185 0.013021 0.033333
0 0.783073 0.477778 0.009896 0.018519
4 0.783073 0.512500 0.018229 0.045370
0 0.728125 0.184259 0.009375 0.012963
3 0.724740 0.225000 0.016146 0.094444
3 0.783854 0.526852 0.018750 0.112963
2 0.611719 0.194907 0.016146 0.034259
3 0.612500 0.213889 0.017708 0.101852
3 0.960677 0.535648 0.031771 0.095370
4 0.963802 0.543056 0.018229 0.062037
0 0.962240 0.495833 0.009896 0.017593
