3 0.826042 0.360185 0.020833 0.037037
0 0.765365 0.463426 0.008854 0.017593
0 0.499219 0.601852 0.014063 0.027778
4 0.760156 0.497222 0.015104 0.037037
4 0.468750 0.631481 0.040625 0.066667
3 0.690365 0.238889 0.027604 0.061111
3 0.478125 0.639352 0.058333 0.099074
3 0.760677 0.506944 0.018229 0.102778
0 0.700260 0.218519 0.008854 0.018519
2 0.686458 0.226852 0.019792 0.037037
0 0.819271 0.350463 0.007292 0.015741
2 0.829688 0.358333 0.012500 0.027778
