0 0.520312 0.600926 0.014583 0.018519
3 0.532292 0.688889 0.045833 0.188889
3 0.731250 0.243056 0.031250 0.063889
0 0.741667 0.218519 0.007292 0.012963
2 0.729167 0.229630 0.017708 0.024074
4 0.534896 0.661574 0.034375 0.082407
3 0.831771 0.351389 0.018750 0.050926
0 0.826302 0.332407 0.008854 0.012963
2 0.833594 0.354630 0.013021 0.029630
