2 0.145313 0.877083 0.16875 0.229167
1 0.360938 0.748958 0.103125 0.127083
2 0.734375 0.840625 0.215625 0.31875
2 0.360156 0.913542 0.123438 0.172917
3 0.135937 0.819792 0.221875 0.360417
3 0.738281 0.767708 0.257812 0.452083
1 0.146094 0.683333 0.0921875 0.1125
1 0.751562 0.608333 0.090625 0.1375
3 0.360156 0.84375 0.145313 0.3125
