3 0.336449 0.587500 0.453271 0.718750
2 0.342290 0.481250 0.334112 0.268750
2 0.692757 0.278125 0.179907 0.200000
1 0.285047 0.283594 0.102804 0.060937
1 0.723131 0.127344 0.114486 0.067187
3 0.702103 0.346094 0.221963 0.526563
