2 0.225000 0.510938 0.109375 0.146875
3 0.508594 0.612500 0.160938 0.400000
1 0.321094 0.421875 0.057813 0.043750
1 0.233594 0.387500 0.057813 0.050000
3 0.312500 0.562500 0.109375 0.346875
1 0.939844 0.558594 0.057813 0.048438
0 0.742969 0.411719 0.057813 0.042188
2 0.625000 0.607812 0.100000 0.131250
3 0.729688 0.594531 0.121875 0.407813
3 0.387500 0.576562 0.118750 0.381250
1 0.828125 0.464844 0.059375 0.054688
2 0.943750 0.667969 0.096875 0.132812
2 0.734375 0.525000 0.106250 0.143750
3 0.221875 0.556250 0.146875 0.368750
3 0.628125 0.655469 0.134375 0.373437
2 0.821875 0.582812 0.118750 0.162500
3 0.820312 0.644531 0.143750 0.410938
3 0.944531 0.767188 0.107813 0.453125
1 0.376563 0.399219 0.046875 0.048438
2 0.392188 0.503125 0.084375 0.140625
1 0.637500 0.491406 0.034375 0.057813
2 0.294531 0.503906 0.054688 0.117188
