2 0.165625 0.611719 0.156250 0.292187
3 0.869792 0.537500 0.131250 0.368750
3 0.084375 0.667969 0.164583 0.620313
3 0.681250 0.621094 0.233333 0.642188
3 0.151042 0.525781 0.152083 0.314063
1 0.605208 0.356250 0.106250 0.056250
1 0.713542 0.354687 0.077083 0.046875
1 0.170833 0.408594 0.112500 0.089063
1 0.291667 0.335938 0.108333 0.065625
1 0.075000 0.367969 0.095833 0.051562
2 0.679167 0.511719 0.141667 0.223438
1 0.956250 0.361719 0.058333 0.035937
2 0.950000 0.456250 0.091667 0.118750
3 0.946875 0.518750 0.106250 0.350000
1 0.433333 0.417969 0.070833 0.064062
1 0.405208 0.375000 0.043750 0.043750
1 0.760417 0.412500 0.066667 0.068750
1 0.895833 0.432031 0.066667 0.045312
1 0.507292 0.484375 0.031250 0.040625
1 0.323958 0.392969 0.039583 0.054688
