2 0.873536 0.487500 0.252927 0.368750
3 0.846604 0.574219 0.306792 0.851562
2 0.274005 0.565625 0.449649 0.412500
1 0.275176 0.261719 0.208431 0.107813
1 0.916862 0.218750 0.166276 0.143750
3 0.296253 0.605469 0.391101 0.789062
