3 0.834375 0.377083 0.318750 0.737500
3 0.339062 0.246875 0.128125 0.293750
3 0.578125 0.219792 0.146875 0.293750
1 0.369531 0.142708 0.054688 0.072917
2 0.353125 0.268750 0.118750 0.187500
2 0.581250 0.234375 0.118750 0.181250
1 0.567969 0.093750 0.064062 0.079167
1 0.527344 0.138542 0.051562 0.077083
1 0.361719 0.440625 0.048438 0.085417
1 0.559375 0.430208 0.053125 0.081250
2 0.363281 0.507292 0.098437 0.060417
2 0.209375 0.402083 0.046875 0.100000
0 0.060937 0.338542 0.031250 0.060417
1 0.395313 0.125000 0.046875 0.091667
3 0.410938 0.214583 0.087500 0.287500
