3 0.472713 0.151562 0.200642 0.300000
2 0.463884 0.160938 0.179775 0.218750
3 0.928571 0.343750 0.142857 0.615625
1 0.933387 0.067969 0.085072 0.067187
3 0.656501 0.480469 0.446228 0.957812
2 0.674157 0.515625 0.365971 0.693750
2 0.306581 0.467969 0.375602 0.614062
2 0.922953 0.209375 0.138042 0.162500
1 0.121188 0.035156 0.104334 0.067187
1 0.930979 0.068750 0.080257 0.065625
1 0.702247 0.093750 0.194222 0.156250
1 0.314607 0.106250 0.173355 0.209375
2 0.138844 0.190625 0.210273 0.146875
