3 0.200000 0.435449 0.337500 0.599562
2 0.211719 0.473742 0.260937 0.369803
1 0.349219 0.233042 0.120313 0.177243
1 0.893750 0.189278 0.109375 0.094092
2 0.892969 0.474836 0.173437 0.319475
1 0.721875 0.225383 0.093750 0.078775
1 0.630469 0.246171 0.085938 0.094092
2 0.442969 0.489059 0.151562 0.277899
3 0.890625 0.396061 0.212500 0.533917
2 0.646875 0.479212 0.168750 0.258206
1 0.475000 0.237418 0.115625 0.155361
3 0.646875 0.415755 0.200000 0.472648
3 0.440625 0.413567 0.181250 0.520788
