1 0.660937 0.650000 0.065625 0.028125
2 0.660937 0.711719 0.134375 0.089063
3 0.657813 0.760938 0.178125 0.253125
3 0.393750 0.750000 0.018750 0.021875
3 0.418750 0.749219 0.018750 0.020313
3 0.779687 0.749219 0.021875 0.026562
2 0.781250 0.746094 0.018750 0.014063
3 0.806250 0.751563 0.025000 0.028125
3 0.745313 0.750000 0.015625 0.028125
3 0.759375 0.750781 0.012500 0.029687
3 0.251563 0.750000 0.015625 0.018750
