1 0.663542 0.358594 0.106250 0.064062
2 0.673958 0.557813 0.218750 0.293750
3 0.676042 0.658594 0.260417 0.648438
2 0.386458 0.484375 0.231250 0.243750
1 0.423958 0.302344 0.118750 0.067187
3 0.368750 0.621094 0.325000 0.701562
