3 0.787500 0.515222 0.046875 0.196721
1 0.096094 0.406323 0.020313 0.025761
2 0.264844 0.453162 0.057813 0.156909
1 0.371094 0.332553 0.042188 0.051522
2 0.529687 0.496487 0.093750 0.248244
1 0.267969 0.306792 0.054688 0.079625
3 0.380469 0.578454 0.104688 0.538642
3 0.089063 0.508197 0.056250 0.234192
1 0.571094 0.344262 0.060937 0.065574
3 0.267969 0.565574 0.082812 0.597190
1 0.521094 0.306792 0.060937 0.074941
2 0.367188 0.463700 0.065625 0.154567
3 0.531250 0.587822 0.121875 0.608899
2 0.789062 0.489461 0.031250 0.060890
1 0.785156 0.449649 0.014063 0.023419
2 0.085938 0.469555 0.025000 0.067916
