2 0.805469 0.290625 0.114062 0.306250
2 0.210938 0.203125 0.106250 0.131250
2 0.017969 0.168750 0.032813 0.166667
2 0.436719 0.254167 0.095312 0.183333
3 0.016406 0.162500 0.029687 0.183333
1 0.524219 0.072917 0.054688 0.054167
1 0.671875 0.102083 0.043750 0.045833
1 0.215625 0.089583 0.043750 0.050000
1 0.311719 0.056250 0.067187 0.062500
2 0.533594 0.226042 0.107813 0.202083
2 0.678125 0.212500 0.128125 0.133333
1 0.804688 0.118750 0.046875 0.045833
3 0.321875 0.254167 0.115625 0.429167
1 0.911719 0.135417 0.060937 0.066667
3 0.682813 0.356250 0.146875 0.562500
2 0.324219 0.216667 0.089063 0.200000
2 0.924219 0.272917 0.085938 0.208333
2 0.806250 0.255208 0.093750 0.160417
3 0.920312 0.364583 0.125000 0.587500
2 0.098437 0.202083 0.115625 0.125000
1 0.118750 0.100000 0.037500 0.070833
3 0.821875 0.029167 0.012500 0.037500
2 0.821875 0.030208 0.009375 0.022917
1 0.823438 0.014583 0.006250 0.008333
1 0.953906 0.079167 0.007812 0.012500
1 0.839063 0.092708 0.006250 0.010417
1 0.789062 0.086458 0.006250 0.010417
1 0.722656 0.090625 0.007812 0.010417
1 0.738281 0.082292 0.007812 0.010417
1 0.557031 0.094792 0.007812 0.010417
1 0.586719 0.102083 0.007812 0.012500
1 0.608594 0.090625 0.007812 0.010417
1 0.627344 0.085417 0.007812 0.012500
1 0.643750 0.088542 0.009375 0.014583
1 0.653125 0.082292 0.006250 0.014583
2 0.559375 0.118750 0.018750 0.033333
2 0.585156 0.120833 0.014063 0.025000
2 0.610156 0.113542 0.014063 0.035417
2 0.628125 0.107292 0.012500 0.027083
2 0.642188 0.108333 0.015625 0.025000
2 0.710156 0.111458 0.010937 0.027083
1 0.711719 0.092708 0.007812 0.010417
2 0.725000 0.112500 0.015625 0.033333
2 0.742188 0.108333 0.018750 0.041667
2 0.789062 0.106250 0.015625 0.025000
2 0.842187 0.112500 0.015625 0.029167
1 0.864844 0.087500 0.007812 0.012500
3 0.560156 0.114583 0.023438 0.050000
3 0.586719 0.130208 0.020313 0.072917
3 0.609375 0.126042 0.015625 0.081250
3 0.625781 0.121875 0.014063 0.085417
3 0.643750 0.115625 0.015625 0.072917
3 0.695312 0.110417 0.015625 0.054167
3 0.709375 0.122917 0.012500 0.066667
3 0.723437 0.125000 0.018750 0.079167
3 0.742969 0.120833 0.020313 0.087500
3 0.788281 0.121875 0.017188 0.077083
3 0.842969 0.127083 0.017188 0.075000
3 0.864844 0.095833 0.017188 0.025000
1 0.880469 0.090625 0.007812 0.010417
1 0.926562 0.084375 0.006250 0.010417
3 0.101562 0.167708 0.131250 0.193750
3 0.215625 0.189583 0.096875 0.237500
1 0.442188 0.102083 0.046875 0.054167
3 0.434375 0.226042 0.128125 0.302083
3 0.542188 0.188542 0.112500 0.281250
3 0.812500 0.357292 0.125000 0.518750
