1 0.699219 0.143529 0.110937 0.164706
3 0.851562 0.504706 0.296875 0.990588
2 0.824219 0.656471 0.348438 0.658824
2 0.126562 0.661176 0.246875 0.569412
3 0.131250 0.574118 0.259375 0.851765
1 0.148438 0.236471 0.165625 0.190588
1 0.839844 0.185882 0.173437 0.320000
3 0.685937 0.397647 0.196875 0.691765
