2 0.200000 0.566038 0.053125 0.202830
1 0.070312 0.455189 0.031250 0.033019
1 0.208594 0.456368 0.026562 0.035377
2 0.094531 0.566038 0.070312 0.165094
1 0.267969 0.455189 0.035937 0.037736
1 0.205469 0.456368 0.026562 0.035377
2 0.022656 0.561321 0.042188 0.160377
3 0.024219 0.609670 0.045312 0.370283
3 0.097656 0.609670 0.095312 0.356132
2 0.264844 0.547170 0.060937 0.141509
3 0.200000 0.590802 0.059375 0.299528
3 0.271094 0.599057 0.067187 0.344340
1 0.023438 0.471698 0.025000 0.047170
