0 0.621094 0.265625 0.082812 0.071875
1 0.720313 0.247656 0.078125 0.054688
1 0.483594 0.278125 0.092188 0.062500
1 0.504687 0.119531 0.062500 0.048438
1 0.220312 0.278906 0.056250 0.054688
1 0.275000 0.267188 0.071875 0.056250
1 0.389062 0.264062 0.062500 0.056250
4 0.615625 0.389062 0.134375 0.112500
4 0.757031 0.367969 0.123438 0.145313
2 0.458594 0.381250 0.126562 0.109375
2 0.271875 0.378125 0.137500 0.103125
