3 0.694531 0.539844 0.367188 0.832812
3 0.360156 0.519531 0.492188 0.876563
1 0.411719 0.145313 0.189062 0.131250
4 0.660156 0.476562 0.260937 0.343750
1 0.664844 0.170313 0.157812 0.093750
4 0.384375 0.409375 0.300000 0.346875
