3 0.307812 0.621094 0.103125 0.292187
3 0.203125 0.608594 0.087500 0.332813
4 0.203906 0.554688 0.076563 0.143750
4 0.286719 0.583594 0.076563 0.123438
3 0.619531 0.610938 0.082812 0.293750
3 0.822656 0.614062 0.070312 0.218750
4 0.060156 0.507031 0.089063 0.142187
3 0.053906 0.586719 0.104688 0.404687
4 0.957812 0.546094 0.059375 0.076563
3 0.886719 0.596875 0.067187 0.231250
4 0.621875 0.571094 0.068750 0.107813
3 0.957812 0.582031 0.068750 0.223438
4 0.127344 0.554688 0.054688 0.118750
4 0.332031 0.604688 0.054688 0.112500
4 0.432031 0.551562 0.064062 0.109375
4 0.506250 0.531250 0.062500 0.115625
4 0.817187 0.589844 0.056250 0.089063
4 0.895312 0.552344 0.056250 0.070312
1 0.067969 0.397656 0.035937 0.051562
1 0.131250 0.474219 0.031250 0.048438
1 0.210156 0.448437 0.035937 0.046875
1 0.282031 0.490625 0.039062 0.043750
1 0.326562 0.476562 0.031250 0.034375
1 0.338281 0.525781 0.029687 0.035937
1 0.441406 0.470313 0.035937 0.037500
1 0.460156 0.459375 0.032813 0.040625
1 0.513281 0.442969 0.035937 0.051562
1 0.565625 0.488281 0.021875 0.035937
1 0.587500 0.455469 0.025000 0.032813
1 0.620313 0.492969 0.028125 0.035937
1 0.821875 0.528906 0.028125 0.029687
1 0.894531 0.502344 0.023438 0.026562
1 0.962500 0.482031 0.025000 0.026562
