1 0.741406 0.085938 0.107813 0.078125
3 0.419531 0.627344 0.273438 0.745313
4 0.603906 0.796875 0.220312 0.381250
0 0.407813 0.357812 0.175000 0.187500
1 0.596094 0.412500 0.135937 0.159375
3 0.726562 0.418750 0.234375 0.737500
4 0.423438 0.746875 0.259375 0.496875
4 0.742188 0.461719 0.203125 0.423438
3 0.603906 0.649219 0.217188 0.639062
