4 0.324219 0.328125 0.173437 0.312500
3 0.560156 0.539062 0.210938 0.834375
1 0.600000 0.200000 0.081250 0.087500
3 0.313281 0.490625 0.229687 0.843750
1 0.360156 0.089063 0.079687 0.084375
4 0.740625 0.452344 0.156250 0.270313
3 0.771094 0.564063 0.254688 0.737500
4 0.574219 0.392188 0.148438 0.243750
3 0.447656 0.481250 0.132812 0.703125
1 0.702344 0.255469 0.070312 0.045312
1 0.447656 0.147656 0.051562 0.048438
