3 0.539844 0.510938 0.085938 0.340625
0 0.340625 0.342969 0.031250 0.032813
3 0.404687 0.604688 0.153125 0.665625
0 0.415625 0.319531 0.043750 0.048438
3 0.240625 0.503906 0.118750 0.401562
4 0.657813 0.510938 0.103125 0.190625
3 0.663281 0.549219 0.129688 0.414062
4 0.235156 0.453906 0.092188 0.164062
0 0.664844 0.391406 0.042188 0.039062
4 0.403125 0.525000 0.121875 0.246875
1 0.543750 0.335156 0.037500 0.032813
4 0.539062 0.450000 0.062500 0.134375
4 0.335156 0.441406 0.048438 0.114062
