1 0.697656 0.247656 0.0828125 0.0546875
3 0.916406 0.479688 0.167187 0.840625
2 0.705469 0.426562 0.117188 0.221875
3 0.302344 0.545313 0.145313 0.61875
0 0.697656 0.244531 0.0796875 0.0546875
4 0.921094 0.335938 0.154687 0.284375
3 0.699219 0.544531 0.142188 0.710938
4 0.703125 0.429688 0.115625 0.246875
3 0.0773437 0.563281 0.148438 0.689062
0 0.299219 0.271875 0.0796875 0.065625
4 0.307813 0.454688 0.125 0.24375
0 0.503906 0.275 0.0734375 0.0625
0 0.896875 0.133594 0.09375 0.0890625
4 0.0617188 0.454688 0.123438 0.25625
0 0.0398437 0.257031 0.0796875 0.0765625
4 0.516406 0.449219 0.123438 0.245312
3 0.517187 0.553906 0.15 0.632812
