0 0.589063 0.25 0.0625 0.071875
3 0.400781 0.639063 0.164062 0.703125
3 0.625781 0.585938 0.189063 0.765625
0 0.380469 0.3375 0.0765625 0.078125
4 0.396875 0.533594 0.125 0.235938
4 0.625781 0.447656 0.167187 0.282813
