4 0.846094 0.639844 0.120313 0.245312
4 0.769531 0.365625 0.135937 0.296875
3 0.110156 0.557031 0.217188 0.885938
0 0.103906 0.189062 0.082812 0.093750
4 0.101562 0.454688 0.190625 0.343750
0 0.642969 0.146094 0.070312 0.079687
4 0.635938 0.370312 0.118750 0.296875
3 0.624219 0.471875 0.132812 0.728125
3 0.771094 0.471875 0.114062 0.725000
3 0.832812 0.646875 0.153125 0.471875
0 0.824219 0.439063 0.057813 0.065625
0 0.748437 0.142187 0.068750 0.071875
