4 0.907031 0.539062 0.151562 0.143750
0 0.524219 0.589063 0.023438 0.021875
3 0.841406 0.642969 0.307812 0.598437
0 0.367969 0.582812 0.029687 0.028125
3 0.364063 0.655469 0.071875 0.182812
0 0.859375 0.382812 0.084375 0.081250
0 0.238281 0.665625 0.092188 0.121875
4 0.217969 0.885938 0.148438 0.221875
3 0.230469 0.802344 0.185938 0.392188
3 0.589063 0.694531 0.068750 0.182812
4 0.598437 0.673438 0.050000 0.090625
0 0.567187 0.619531 0.025000 0.029687
4 0.500000 0.649219 0.056250 0.089063
3 0.503906 0.660937 0.073438 0.168750
2 0.346094 0.657813 0.048438 0.093750
