3 0.478125 0.421875 0.3125 0.784375
3 0.81875 0.435156 0.346875 0.823438
4 0.827344 0.4375 0.304688 0.45
4 0.166406 0.413281 0.226562 0.317187
3 0.158594 0.474219 0.314063 0.704687
1 0.836719 0.0640625 0.148438 0.11875
4 0.474219 0.411719 0.285937 0.448438
1 0.472656 0.059375 0.157813 0.11875
1 0.075 0.19375 0.146875 0.13125
