3 0.210938 0.489583 0.115625 0.370833
3 0.348438 0.452083 0.128125 0.412500
1 0.192188 0.337500 0.034375 0.066667
1 0.321875 0.287500 0.037500 0.066667
2 0.339062 0.397917 0.078125 0.154167
2 0.207813 0.441667 0.084375 0.141667
