3 0.468750 0.579167 0.362500 0.841667
3 0.834375 0.616667 0.325000 0.766667
1 0.446875 0.260417 0.100000 0.187500
1 0.789062 0.325000 0.121875 0.191667
2 0.818750 0.639583 0.237500 0.412500
2 0.475000 0.631250 0.275000 0.520833
