3 0.500000 0.668750 0.075000 0.279167
3 0.628125 0.652083 0.093750 0.295833
1 0.496875 0.560417 0.031250 0.054167
1 0.617188 0.529167 0.034375 0.050000
2 0.623437 0.616667 0.053125 0.116667
2 0.501563 0.637500 0.046875 0.100000
