3 0.168750 0.562500 0.125000 0.391667
3 0.320312 0.512500 0.128125 0.416667
1 0.151562 0.397917 0.040625 0.062500
1 0.292187 0.335417 0.040625 0.070833
2 0.307812 0.454167 0.078125 0.166667
2 0.159375 0.502083 0.068750 0.137500
