3 0.378125 0.718750 0.093750 0.312500
3 0.506250 0.687500 0.100000 0.325000
1 0.371875 0.595833 0.037500 0.066667
1 0.496875 0.554167 0.031250 0.058333
2 0.503125 0.637500 0.056250 0.125000
2 0.376563 0.672917 0.059375 0.112500
