3 0.303125 0.610417 0.218750 0.745833
3 0.534375 0.618750 0.175000 0.620833
1 0.300000 0.310417 0.062500 0.112500
1 0.532813 0.377083 0.065625 0.112500
2 0.539062 0.529167 0.109375 0.216667
2 0.306250 0.518750 0.131250 0.287500
