3 0.435937 0.645833 0.103125 0.325000
3 0.551562 0.629167 0.084375 0.283333
1 0.421875 0.510417 0.031250 0.054167
1 0.537500 0.520833 0.031250 0.058333
2 0.545312 0.585417 0.059375 0.104167
2 0.431250 0.589583 0.056250 0.112500
