3 0.290625 0.739583 0.118750 0.437500
3 0.415625 0.712500 0.100000 0.366667
1 0.282813 0.556250 0.034375 0.054167
1 0.403125 0.568750 0.037500 0.070833
2 0.406250 0.656250 0.068750 0.120833
2 0.292187 0.664583 0.071875 0.154167
