3 0.303125 0.622917 0.256250 0.745833
3 0.900000 0.564583 0.193750 0.870833
1 0.282813 0.329167 0.084375 0.150000
1 0.951562 0.204167 0.084375 0.150000
2 0.925000 0.458333 0.143750 0.366667
2 0.303125 0.570833 0.168750 0.308333
