3 0.409375 0.702083 0.206250 0.595833
3 0.912500 0.739583 0.175000 0.520833
1 0.434375 0.466667 0.075000 0.116667
1 0.973437 0.543750 0.053125 0.137500
2 0.934375 0.727083 0.131250 0.279167
2 0.409375 0.662500 0.125000 0.266667
