3 0.353125 0.508333 0.112500 0.375000
3 0.484375 0.514583 0.081250 0.345833
1 0.346875 0.350000 0.037500 0.050000
1 0.479687 0.370833 0.034375 0.058333
2 0.484375 0.466667 0.062500 0.125000
2 0.356250 0.452083 0.068750 0.129167
