3 0.400000 0.589583 0.150000 0.504167
3 0.593750 0.602083 0.118750 0.445833
2 0.406250 0.497917 0.081250 0.162500
1 0.398438 0.377083 0.040625 0.070833
1 0.576562 0.425000 0.046875 0.075000
2 0.582812 0.531250 0.084375 0.145833
