3 0.353125 0.537500 0.118750 0.475000
3 0.443750 0.514583 0.137500 0.545833
1 0.332813 0.337500 0.053125 0.083333
1 0.410938 0.283333 0.040625 0.083333
2 0.434375 0.425000 0.087500 0.200000
2 0.342187 0.468750 0.078125 0.179167
