3 0.100000 0.702083 0.193750 0.587500
3 0.426563 0.668750 0.271875 0.662500
2 0.078125 0.731250 0.150000 0.329167
2 0.414062 0.650000 0.146875 0.300000
1 0.421875 0.427083 0.087500 0.162500
1 0.081250 0.489583 0.100000 0.162500
