3 0.306250 0.847917 0.137500 0.295833
3 0.446875 0.839583 0.100000 0.312500
1 0.304688 0.729167 0.046875 0.066667
1 0.428125 0.727083 0.043750 0.070833
2 0.439063 0.831250 0.084375 0.145833
2 0.306250 0.833333 0.081250 0.158333
