3 0.301563 0.735417 0.103125 0.387500
3 0.459375 0.702083 0.125000 0.429167
1 0.296875 0.572917 0.037500 0.070833
1 0.457813 0.520833 0.040625 0.075000
2 0.459375 0.631250 0.068750 0.145833
2 0.300000 0.672917 0.068750 0.145833
