3 0.359375 0.552083 0.131250 0.445833
3 0.529687 0.562500 0.121875 0.416667
1 0.357812 0.370833 0.046875 0.083333
1 0.528125 0.393750 0.043750 0.079167
2 0.531250 0.502083 0.075000 0.137500
2 0.364063 0.481250 0.078125 0.137500
